<svg xmlns="http://www.w3.org/2000/svg" xmlns:xlink="http://www.w3.org/1999/xlink" width="389" height="326">
  <defs>
    <path id="a" d="M0 0h11.5L7.82 26.46a2.1 2.1 0 01-4.14 0L0 0z"/>
    <path id="c" d="M0 0h11.5L7.82 26.46a2.1 2.1 0 01-4.14 0L0 0z"/>
    <path id="e" d="M0 0h169l-4 59.5H4z"/>
    <path id="g" d="M4.91 19.54C2.15 17.29.61 14.66.27 11.67c-.3-2.73.13-6.21 1.3-10.44C1.79.5 2.46 0 3.2 0h17.27c.75 0 1.42.5 1.62 1.23 1.18 4.23 1.62 7.7 1.31 10.44-.34 3-1.88 5.62-4.64 7.87H4.9z"/>
    <path id="k" d="M10.45-9.25h2.6c.66 0 1.2.54 1.2 1.2v21.1c0 .66-.54 1.2-1.2 1.2h-2.6a1.2 1.2 0 01-1.2-1.2v-21.1c0-.66.54-1.2 1.2-1.2z"/>
    <path id="m" d="M10.45-9.25h2.6c.66 0 1.2.54 1.2 1.2v21.1c0 .66-.54 1.2-1.2 1.2h-2.6a1.2 1.2 0 01-1.2-1.2v-21.1c0-.66.54-1.2 1.2-1.2z"/>
    <path id="o" d="M34.7 5.27c.78 1.5 1.22 3.1 1.34 4.82a9.8 9.8 0 01-1.34 5.38c5.63 0 8.15 2.1 7.54 6.34H6.14C5 30.23 8.77 36.28 17.46 39.94c2.67.92 3.95 1.8 3.84 2.64-.07 1.76-1.76 2.3-5.06 1.62C11.28 43.18-2.02 38.26.3 19.46 2.6.65 11.96 0 13.88 0c1.93 0 5.83.07 10.55 4.71l10.27.56z"/>
    <path id="t" d="M.36 1.3L.02 8.6l6.9 4.72c2.7 1.22 4.75 1.16 6.14-.18 1.4-1.33 1.94-3.77 1.64-7.3l.12-5.39-14.46.87z"/>
    <path id="v" d="M34.4 1.5c-1.44.36-2.72.7-3.85 1.06-6.02 1.86-11 .44-11-2.44C5.26 2.76-1.1 6.72.5 12h32.48a1.5 1.5 0 001.5-1.52L34.4 1.5z"/>
    <path id="x" d="M.36 2.8L.02 8.6l6.9 4.72c3.3.2 5.48-.21 6.53-1.22 1.05-1 1.47-3.1 1.25-6.26l.12-5.39L.36 2.81z"/>
    <path id="z" d="M34.4 2c-1.52-.1-2.88.03-4.07.4-5.75 1.7-10.78.54-10.78-2.28C5.3 3.03-1.05 6.99.5 12h32.48a1.5 1.5 0 001.5-1.52L34.4 2z"/>
    <path id="B" d="M21.31 31.9l.57-7.23c-1.34.04-2.33-.69-2.95-2.2-.43-1.02-1.05-3.86-1.89-8.52 3.45-1.97 1.64-6.72 0-6.32-1.63.4-1.86 3.94-2.43 3.9-.39-.02-.39-1.32 0-3.9-2.22-.23-2.92-1.79-2.12-4.66C8.76 2.63 6.07 1.64 4.43 0c0 0-1 4.71-1.65 9.13C2.55 10.68.55 13.7.41 14.27c-.1.39.43.8 1.58 1.24-.2 7.35 2.52 11.02 8.14 11.02l-.6 7.77 11.78-2.4z"/>
    <path id="D" d="M15.6 17.36c-.93.37-2.52.01-4.8-1.09-3.4-1.65-7.29-1.11-7.55-1.3-.27-.2 1-3.88 7.3-1.94-2.81-4.67-5.61-7.49-8.4-8.45-4.19-1.45-.97-1.82-.97-1.82-.3-.68.12-1 1.27-.94 1.15.05 2.1.3 2.83.71-.36-.89-.04-1.23.94-1.02 1 .2 2.22.8 3.7 1.79C7.98 1.78 7.01.82 7.01.4c0-.62.77-.44 1.14 0 .38.44 9.43 5.89 10.59 8.05.77 1.45 2.2 2.54 4.25 3.28l-7.4 5.63z"/>
    <path id="F" d="M1.26.96a636.41 636.41 0 00-.93 29.22c0 6.84.3 17.1.93 30.77h19.35L22.27.33 2.26 0l-1 .96z"/>
    <path id="H" d="M115.68 3.32C51.77-1.94 15.52-.95 6.93 6.28c-8.58 7.24-9.2 33.09-1.84 77.54H24.3c-.54-37.3.22-56.3 2.3-56.97 1.3-.42 7.64.27 19.2.38 4.49.04 25.32-.08 62.48-.38 4.94-.79 7.92-3.67 8.95-8.64 1.04-4.97.52-9.93-1.55-14.89z"/>
    <path id="J" d="M103.82 20.28c-.9-8.98-4.53-14.66-10.88-17.03C83.41-.3 74.8-1.5 60.5 4.73c-14.3 6.22-27.04 50.53-29.43 51.83L6.92 43.16 0 52.38C20.34 71.9 33.58 79.5 39.7 75.14l6.03.31 38.01 2.05c5.53-1.66 9.64-6.35 12.35-14.06 2.7-7.72 5.28-22.1 7.73-43.16z"/>
    <path id="L" d="M24 14.49c-2.43-4.4-4.44-6.99-6-7.79C15.62 5.5 4.52-.95 3.65.12c-.87 1.07 2.43 3.33 5.95 5.3C13.13 7.4 1.74 2.34.88 2.63c-.86.3-1.45 1.12 0 2.17-1 .78-.98 1.54.03 2.28l5.36 4.03C3.22 9.86 1.57 9.37 1.3 9.65c-.2.2 1.62 2.27 8.3 6.12 1.59.9 4.86 2.49 9.83 4.73L24 14.49z"/>
    <path id="O" d="M1.64 0h38.53c.77 0 1.42.6 1.5 1.37l1.19 13.5a1.5 1.5 0 01-1.5 1.63H2.86a1.5 1.5 0 01-1.5-1.36L.16 1.64A1.5 1.5 0 011.65 0z"/>
    <path id="R" d="M1.64 0h38.53c.77 0 1.42.6 1.5 1.37l1.19 13.5a1.5 1.5 0 01-1.5 1.63H2.86a1.5 1.5 0 01-1.49-1.36L.15 1.64A1.5 1.5 0 011.65 0z"/>
    <path id="T" d="M2.65 0h48.09c1.3 0 2.38 1 2.49 2.29l4.54 53.5a2.5 2.5 0 01-2.5 2.71H5.88a2.5 2.5 0 01-2.5-2.35L.17 2.65A2.5 2.5 0 012.66 0z"/>
    <path id="Y" d="M1.64 0h38.53c.77 0 1.42.6 1.5 1.37l1.19 13.5a1.5 1.5 0 01-1.5 1.63H2.86a1.5 1.5 0 01-1.5-1.36L.16 1.64A1.5 1.5 0 011.65 0z"/>
    <path id="aa" d="M1.64 0h38.53c.77 0 1.42.6 1.5 1.37l1.19 13.5a1.5 1.5 0 01-1.5 1.63H2.86a1.5 1.5 0 01-1.49-1.36L.15 1.64A1.5 1.5 0 011.65 0z"/>
    <path id="ac" d="M5.78 1.33L.48 14.37l10.27 5.94L17.27.33z"/>
    <path id="ae" d="M11.55 1.95c-1.38 5.82-1.57 8.96-.59 9.42 1.48.69 8.02 1.37 11.06 3.27 2.03 1.27-3.74 2.19-17.32 2.75l-4.68-2.2L1.32.35l10.23 1.6z"/>
    <path id="ag" d="M.83 9.07c-2.55 10.76 2.25 21.78 14.4 33.05 7.13 26.33 10.69 41.86 10.69 46.6 0 4.74.84 19.02 2.54 42.82h14.1c7.82-46.83 8.97-88.93 3.46-126.28-5.58-3.87-9.36-5.6-11.32-5.2-6.96 1.4-18.25 4.4-33.87 9z"/>
    <path id="ai" d="M49.22 10.67C43.38 4.78 38.17 1.34 33.6.34c-3.68-.8-10.5-.2-20.47 1.79A14.5 14.5 0 001.9 12.74C-1.01 24.1.1 37.52 5.23 53.01c-2.17 11.5-3.38 19.5-3.64 24 2.42 4.26 9.36 5.06 20.82 2.4 8.67-2 11.23-7.17 17.67-9.26 2.52-.82 6.02-.56 10.52.8-3.12-6.66-4.89-12.58-5.31-17.77-.39-4.76-.86-18.04 4.41-36.54.77-2.72.61-4.7-.48-5.97z"/>
    <path id="ak" d="M11.8.82C10.55 7.99 6.62 14.96 0 21.72 6.47 43.2 13.51 51.96 21.15 48.04c7.63-3.92 8.66-15.76 3.1-35.53 1.38-1.9 2.08-3.3 2.08-4.22 0-1.4-.8-2.09-.8-2.09.07-1.34-.16-2.05-.71-2.1-.04-1.56-.54-2.35-1.48-2.36-.47-1.57-1.2-2.08-2.2-1.52-1.48.83-6.64 5.78-4.76 8.6 1.25 1.87 1.54 7.28.85 16.23L11.8.82z"/>
    <filter id="N" width="127.3%" height="184.8%" x="-19.4%" y="-21.2%" filterUnits="objectBoundingBox">
      <feOffset dx="-3" dy="5" in="SourceAlpha" result="shadowOffsetOuter1"/>
      <feGaussianBlur in="shadowOffsetOuter1" result="shadowBlurOuter1" stdDeviation="1"/>
      <feColorMatrix in="shadowBlurOuter1" values="0 0 0 0 0.349882563 0 0 0 0 0.556511568 0 0 0 0 0.689594656 0 0 0 0.143984921 0"/>
    </filter>
    <filter id="Q" width="127.3%" height="184.8%" x="-19.4%" y="-21.2%" filterUnits="objectBoundingBox">
      <feOffset dx="-3" dy="5" in="SourceAlpha" result="shadowOffsetOuter1"/>
      <feGaussianBlur in="shadowOffsetOuter1" result="shadowBlurOuter1" stdDeviation="1"/>
      <feColorMatrix in="shadowBlurOuter1" values="0 0 0 0 0.349882563 0 0 0 0 0.556511568 0 0 0 0 0.689594656 0 0 0 0.143984921 0"/>
    </filter>
    <filter id="U" width="120%" height="123.9%" x="-14.4%" y="-6%" filterUnits="objectBoundingBox">
      <feOffset dx="-3" dy="5" in="SourceAlpha" result="shadowOffsetOuter1"/>
      <feGaussianBlur in="shadowOffsetOuter1" result="shadowBlurOuter1" stdDeviation="1"/>
      <feColorMatrix in="shadowBlurOuter1" values="0 0 0 0 0.349882563 0 0 0 0 0.556511568 0 0 0 0 0.689594656 0 0 0 0.143984921 0"/>
    </filter>
    <filter id="X" width="127.3%" height="184.8%" x="-19.4%" y="-21.2%" filterUnits="objectBoundingBox">
      <feOffset dx="-3" dy="5" in="SourceAlpha" result="shadowOffsetOuter1"/>
      <feGaussianBlur in="shadowOffsetOuter1" result="shadowBlurOuter1" stdDeviation="1"/>
      <feColorMatrix in="shadowBlurOuter1" values="0 0 0 0 0.349882563 0 0 0 0 0.556511568 0 0 0 0 0.689594656 0 0 0 0.143984921 0"/>
    </filter>
    <filter id="Z" width="127.3%" height="184.8%" x="-19.4%" y="-21.2%" filterUnits="objectBoundingBox">
      <feOffset dx="-3" dy="5" in="SourceAlpha" result="shadowOffsetOuter1"/>
      <feGaussianBlur in="shadowOffsetOuter1" result="shadowBlurOuter1" stdDeviation="1"/>
      <feColorMatrix in="shadowBlurOuter1" values="0 0 0 0 0.349882563 0 0 0 0 0.556511568 0 0 0 0 0.689594656 0 0 0 0.143984921 0"/>
    </filter>
    <linearGradient id="s" x1="50%" x2="58.36%" y1="34.82%" y2="80.73%">
      <stop offset="0%" stop-color="#D3F7FF"/>
      <stop offset="100%" stop-color="#DFF4FF"/>
    </linearGradient>
    <linearGradient id="P" x1="50%" x2="50%" y1="0%" y2="111.07%">
      <stop offset="0%" stop-color="#A0EFFF"/>
      <stop offset="100%" stop-color="#56C1F6"/>
    </linearGradient>
    <linearGradient id="S" x1="50%" x2="50%" y1="0%" y2="111.07%">
      <stop offset="0%" stop-color="#A0EFFF"/>
      <stop offset="100%" stop-color="#56C1F6"/>
    </linearGradient>
    <linearGradient id="ab" x1="50%" x2="50%" y1="0%" y2="111.07%">
      <stop offset="0%" stop-color="#A0EFFF"/>
      <stop offset="100%" stop-color="#56C1F6"/>
    </linearGradient>
    <circle id="q" cx="7" cy="7" r="7"/>
    <circle id="V" cx="21" cy="21" r="21"/>
    <rect id="i" width="6.5" height="29.5" x="11.5" y="-11.5" rx="1.5"/>
  </defs>
  <g fill="none" fill-rule="evenodd">
    <g transform="matrix(-1 0 0 1 376.84 195)">
      <g transform="translate(10.5 102)">
        <mask id="b" fill="#fff">
          <use xlink:href="#a"/>
        </mask>
        <use fill="#91ADC8" xlink:href="#a"/>
        <path fill="#8098AF" d="M-2.25 0l18.22 16.52-6.8-27.7z" mask="url(#b)"/>
      </g>
      <g transform="translate(152.5 102)">
        <mask id="d" fill="#fff">
          <use xlink:href="#c"/>
        </mask>
        <use fill="#91ADC8" xlink:href="#c"/>
        <path fill="#8098AF" d="M-2.25 0l18.22 16.52-6.8-27.7z" mask="url(#d)"/>
      </g>
      <g transform="translate(3 45)">
        <mask id="f" fill="#fff">
          <use xlink:href="#e"/>
        </mask>
        <use fill="#D0E6F6" xlink:href="#e"/>
        <path fill="#91ADC8" d="M-4 1h173v15H-4z" mask="url(#f)" opacity=".37"/>
        <rect width="25.5" height="6" x="30.25" y="26.75" stroke="#607385" stroke-width=".5" mask="url(#f)" rx="2"/>
        <rect width="25.5" height="6" x="115.75" y="26.75" stroke="#607385" stroke-width=".5" mask="url(#f)" rx="2"/>
        <path stroke="#607385" stroke-width=".5" d="M84.75-3.5v66.87" mask="url(#f)"/>
      </g>
      <path fill="#A1BEDB" d="M4 39h166.5a4 4 0 014 4v3.5a4 4 0 01-4 4H4a4 4 0 01-4-4V43a4 4 0 014-4z"/>
      <path stroke="#8098AF" stroke-linecap="round" stroke-width="3.28" d="M98.49 0L99 20.44"/>
      <g transform="translate(87 19.36)">
        <mask id="h" fill="#fff">
          <use xlink:href="#g"/>
        </mask>
        <use fill="#B8D0E4" xlink:href="#g"/>
        <path stroke="#000" stroke-width=".54" d="M-3.77 8.16h37.2M-3.77 10.85h37.2M-3.77 13.54h37.2" mask="url(#h)"/>
      </g>
      <path stroke="#8098AF" stroke-linecap="round" stroke-width="3.28" d="M92.21 1.97c-.21 6.12 1.97 9.32 6.55 9.6l.1 4.56c4.4 0 6.61-2.25 6.61-6.74"/>
      <rect width="6.5" height="29.5" x="7" y="9.5" fill="#8098AF" rx="1.5"/>
      <rect width="6.5" height="28.5" x="13.5" y="10.5" fill="#8098AF" rx="1.5"/>
      <rect width="6.5" height="27" x="20" y="12" fill="#8098AF" rx="1.5"/>
      <rect width="6.5" height="25" x="26.5" y="14" fill="#879FB7" rx="1.5"/>
      <rect width="6.5" height="29.5" x="33" y="9.5" fill="#879FB7" rx="1.5"/>
      <g transform="translate(46 32.5)">
        <mask id="j" fill="#fff">
          <use xlink:href="#i"/>
        </mask>
        <use fill="#8098AF" transform="rotate(90 14.75 3.25)" xlink:href="#i"/>
        <path fill="#91ADC8" d="M15-11.5h1.5c.83 0 1.5.67 1.5 1.5v26.5c0 .83-.67 1.5-1.5 1.5H15a1.5 1.5 0 01-1.5-1.5V-10c0-.83.67-1.5 1.5-1.5z" mask="url(#j)" transform="rotate(90 15.75 3.25)"/>
        <path stroke="#8098AF" stroke-width=".5" d="M30.5 1.87H1M30.5 2.87H1M30.5 3.87H1M30.5 4.87H1" mask="url(#j)"/>
      </g>
      <g transform="translate(46 27.5)">
        <mask id="l" fill="#fff">
          <use xlink:href="#k"/>
        </mask>
        <use fill="#8098AF" transform="rotate(90 11.75 2.5)" xlink:href="#k"/>
        <path fill="#91ADC8" d="M12.02-9.25h1.06c.66 0 1.2.54 1.2 1.2v21.1c0 .66-.54 1.2-1.2 1.2h-1.06a1.2 1.2 0 01-1.2-1.2v-21.1c0-.66.53-1.2 1.2-1.2z" mask="url(#l)" transform="rotate(90 12.55 2.5)"/>
        <path stroke="#8098AF" stroke-width=".5" d="M24.3 1.44H.8M24.3 2.21H.8M24.3 2.98H.8M24.3 3.74H.8" mask="url(#l)"/>
      </g>
      <g transform="translate(50 22.5)">
        <mask id="n" fill="#fff">
          <use xlink:href="#m"/>
        </mask>
        <use fill="#8098AF" transform="rotate(90 11.75 2.5)" xlink:href="#m"/>
        <path fill="#91ADC8" d="M12.02-9.25h1.06c.66 0 1.2.54 1.2 1.2v21.1c0 .66-.54 1.2-1.2 1.2h-1.06a1.2 1.2 0 01-1.2-1.2v-21.1c0-.66.53-1.2 1.2-1.2z" mask="url(#n)" transform="rotate(90 12.55 2.5)"/>
        <path stroke="#8098AF" stroke-width=".5" d="M24.3 1.44H.8M24.3 2.21H.8M24.3 2.98H.8M24.3 3.74H.8" mask="url(#n)"/>
      </g>
    </g>
    <g transform="translate(291.34 30)">
      <path fill="#8098AF" d="M20 68h3l-.97 18.5a.53.53 0 01-1.06 0L20 68zM74.5 68h3l-.97 18.5a.53.53 0 01-1.06 0L74.5 68z"/>
      <rect width="97.5" height="6.5" y="66" fill="#A1BEDB" rx="2"/>
      <rect width="6.5" height="29.5" x="4" y="36" fill="#8098AF" rx="1.5"/>
      <path fill="#FFF" stroke="#879FB7" stroke-width="4" d="M43 2h43.5v61.5H43z"/>
      <rect width="6.5" height="28.5" x="10.5" y="37" fill="#8098AF" rx="1.5"/>
      <rect width="6.5" height="27" x="17" y="38.5" fill="#8098AF" rx="1.5"/>
      <rect width="6.5" height="25" x="23.5" y="40.5" fill="#879FB7" rx="1.5"/>
      <rect width="6.5" height="29.5" x="30" y="36" fill="#879FB7" rx="1.5"/>
    </g>
    <g transform="translate(232.84)">
      <path stroke="#A1BEDB" stroke-width=".5" d="M5.6 16.84L17.89 1.05l12.4 15.79z"/>
      <circle cx="17.76" cy="28.96" r="17.76" fill="#FFF" stroke="#91ADC8" stroke-width="1.92"/>
      <text fill="#000" font-family="Helvetica" font-size="4.8" letter-spacing=".27">
        <tspan x="15.36" y="18.76">12</tspan>
      </text>
      <text fill="#000" font-family="Helvetica" font-size="4.8" letter-spacing=".27">
        <tspan x="16.64" y="44.36">6</tspan>
      </text>
      <text fill="#000" font-family="Helvetica" font-size="4.8" letter-spacing=".27">
        <tspan x="2.56" y="31.56">9</tspan>
      </text>
      <text fill="#000" font-family="Helvetica" font-size="4.8" letter-spacing=".27">
        <tspan x="30.08" y="31.56">3</tspan>
      </text>
      <path stroke="#000" stroke-linecap="round" stroke-width=".64" d="M8.69 19.82l9.02 9.35v8.18"/>
      <path stroke="#FF6771" stroke-width=".5" d="M17.71 29.17l7.1-7.41"/>
      <circle cx="17.76" cy="28.96" r="1.44" fill="#91ADC8"/>
      <circle cx="17.92" cy=".96" r="1" fill="#91ADC8"/>
    </g>
    <g transform="translate(.34 198)">
      <path stroke="#607385" stroke-linecap="round" stroke-width="2" d="M4.2 26.4v99.02M39.43 26.4v99.02"/>
      <path fill="#A1BEDB" d="M0 0h40.43v6.8H0z"/>
      <path fill="#D0E6F6" d="M40.03 6.4h60.04V30H40.03z"/>
      <path fill="#A1BEDB" d="M2.8 6.4h37.63V30H2.8z"/>
      <path fill="#91ADC8" d="M2.8 6.8h37.63V12H2.8z"/>
      <path fill="#A1BEDB" d="M40.03 6.8h60.04V12H40.03z"/>
      <path stroke="#7C95AC" stroke-width=".5" d="M44.28 4.65h51.54v21.5H44.28z"/>
      <rect width="14.71" height="3.5" x="63.5" y="16.25" stroke="#7C95AC" stroke-width=".5" rx=".8"/>
      <path stroke="#7C95AC" stroke-width=".5" d="M63.25 16h17.9"/>
      <path fill="#D0E6F6" d="M40.03 0h173v6.8h-173z"/>
    </g>
    <g transform="translate(7.34 165)">
      <path fill="#FB0" d="M30.42 4.05c-.83-2.91-1.8-4.26-2.93-4.02-1.12.23-2.12 2.84-2.99 7.83l5.92-3.8z"/>
      <path fill="#594100" d="M29.5 4.34c-.56-2.04-1.22-2.98-1.98-2.82-.76.16-1.43 1.99-2.02 5.48l4-2.66z" opacity=".22"/>
      <path fill="#FB0" d="M32.1 4.49c.93-2.77 1.83-4.05 2.7-3.85 1.3.31 2.55 4.64 1.46 8.42-.73 2.53-2.12 1-4.17-4.57z"/>
      <path fill="#594100" d="M33 4.61c.61-1.87 1.2-2.73 1.77-2.6.85.21 1.67 3.14.96 5.7-.48 1.7-1.39.67-2.73-3.1z" opacity=".22"/>
      <g transform="translate(0 11.38)">
        <mask id="p" fill="#fff">
          <use xlink:href="#o"/>
        </mask>
        <use fill="#FFCE00" xlink:href="#o"/>
        <circle cx="6.75" cy=".75" r="9.25" fill="#E9AC03" mask="url(#p)"/>
        <path stroke="#FB0" stroke-width="4" d="M6.75 41.94C12.81 37.5 15 31.68 13.33 24.5" mask="url(#p)"/>
        <path stroke="#FB0" stroke-width="4" d="M-.25 39.44C5.81 35 8 29.18 6.33 22" mask="url(#p)" transform="rotate(35 3.31 30.72)"/>
        <path stroke="#FB0" stroke-width="4" d="M-.75 31.44C5.31 27 7.5 21.18 5.83 14" mask="url(#p)" transform="rotate(75 2.81 22.72)"/>
        <path stroke="#FB0" stroke-width="4" d="M14.25 47.94c6.06-4.44 8.25-10.26 6.58-17.45" mask="url(#p)"/>
        <path fill="#594100" d="M21.85 42.85c-6.18-1.22-10.82-3.88-13.93-7.97-3.11-4.1-4.24-8.45-3.37-13.07h3.37A670.38 670.38 0 0120.9 40.4c2.73 4.11 3.04 4.93.94 2.44z" mask="url(#p)"/>
        <path fill="#FFFFED" d="M35 5.12c-2.96 1.68-5.51 1.97-7.68.9a12.36 12.36 0 013.17 4.97c.5 1.66.98 3.69 1.46 6.08 2.82-.97 4.4-2.52 4.72-4.66.33-2.14-.23-4.57-1.68-7.3z" mask="url(#p)" opacity=".5"/>
        <path fill="#FFFFED" d="M18.09 6.95c3.6 1.04 5.14 3.24 4.6 6.6 4.22-.25 6.34 2.5 6.34 8.26H27c-.23-3.07-1.8-4.46-4.7-4.19l-3.95.76-1.84.58c2.66-2.63 3.91-4.99 3.75-7.07a7.26 7.26 0 00-2.18-4.94z" mask="url(#p)" opacity=".22"/>
      </g>
      <g transform="translate(23.5 4)">
        <mask id="r" fill="#fff">
          <use xlink:href="#q"/>
        </mask>
        <use fill="#FFCE00" xlink:href="#q"/>
        <circle cx="1.25" cy="8.25" r="3.75" fill="#FB0" mask="url(#r)"/>
        <circle cx="16.25" cy="8.25" r="3.75" fill="#FB0" mask="url(#r)"/>
        <circle cx="8.25" cy="11.25" r="5.75" fill="#FFFFED" mask="url(#r)" opacity=".5"/>
      </g>
      <path stroke="#594100" stroke-width=".5" d="M39.95 33.19c-.13-2.64-1.06-4.16-2.8-4.56-1.72-.4-3.46-.46-5.2-.18-.5-2.96-.98-4.95-1.45-5.96a4.84 4.84 0 00-2.37-2.34M11.24 16.87c4.4-.74 7.23.5 8.52 3.7 1.3 3.22.24 6.44-3.16 9.67 7.13-2.32 10.58-1.33 10.34 2.95M29.03 10.71c-3.1-.75-5.81-.52-8.12.67M29.03 12.48c-2.05-.32-4.16.37-6.34 2.05M35 10.24c1.39-.76 3.45-.76 6.2 0M35 12.1c2.42-.57 4.49-.12 6.2 1.37M30.86 11.21c.7.52 1.3.4 1.83-.38.68.7 1.27.88 1.75.55"/>
      <circle cx="32.5" cy="9.75" r="1" fill="#D8D8D8" stroke="#000" stroke-width=".5"/>
      <path stroke="#594100" stroke-width=".5" d="M28.79 8.88c.61-.64 1.3-.7 2.07-.17M34.1 8.15c.38-.48.88-.48 1.5 0"/>
    </g>
    <path fill="#7FC1FF" d="M117.03 182l-5.95 13.5H88.53L94.8 182h22.24zm-14 2.5a2.5 2.5 0 100 5 2.5 2.5 0 000-5z"/>
    <path fill="#3E6C98" d="M91.37 182l-4.28 8.46a5.2 5.2 0 004.64 7.55h4.3v-2.71l-4.13-.05a2 2 0 01-1.8-2.83L94.85 182h-3.47z"/>
    <path fill="#5185B7" d="M96.03 195.3l24 .2v2.5h-24z"/>
    <path fill="#3E6C98" d="M57.34 118h88.74a2.5 2.5 0 012.48 2.23l6.67 61a2.5 2.5 0 01-2.49 2.78H64.38a2.5 2.5 0 01-2.49-2.22l-7.04-61a2.5 2.5 0 012.49-2.78z"/>
    <path fill="#3E6C98" d="M157.73 179.27c-.23 2.97-1.93 4.55-5.1 4.74-3.18.18-1.47-1.4 5.1-4.74z"/>
    <path fill="#0076C2" d="M61.63 117.5c-4.53-.09-6.8.86-6.8 2.87 0 2 2.27 1.04 6.8-2.86z"/>
    <path fill="#7FC1FF" d="M59.85 117.5h88.73a2.5 2.5 0 012.49 2.23l6.65 59.5a2.5 2.5 0 01-2.48 2.78H66.87a2.5 2.5 0 01-2.48-2.21l-7.03-59.5a2.5 2.5 0 012.49-2.8z"/>
    <path fill="url(#s)" stroke="#040404" stroke-opacity=".62" stroke-width=".5" d="M7.5 2.76a1.75 1.75 0 00-1.73 1.96l5.82 47.5c.1.88.85 1.54 1.74 1.54h83.64a1.75 1.75 0 001.74-1.94l-4.98-47.5c-.1-.89-.84-1.56-1.74-1.56H7.5z" opacity=".77" transform="translate(54.84 117.5)"/>
    <g>
      <g transform="translate(127.5 307)">
        <mask id="u" fill="#fff">
          <use xlink:href="#t"/>
        </mask>
        <use fill="#FFD3C8" xlink:href="#t"/>
        <path fill="#F1B2A2" d="M-.5 1.4l17.65 4.43V-1.5z" mask="url(#u)"/>
      </g>
      <g transform="translate(108 313.5)">
        <mask id="w" fill="#fff">
          <use xlink:href="#v"/>
        </mask>
        <use fill="#2A3756" xlink:href="#v"/>
        <path fill="#FFF9F9" d="M-1.5 10.5h39v7h-39z" mask="url(#w)"/>
      </g>
      <g transform="translate(83.5 307)">
        <mask id="y" fill="#fff">
          <use xlink:href="#x"/>
        </mask>
        <use fill="#FFD3C8" xlink:href="#x"/>
        <path fill="#F1B2A2" d="M-2.5 1.4l17.65 4.43V-1.5z" mask="url(#y)"/>
      </g>
      <g transform="translate(64 313.5)">
        <mask id="A" fill="#fff">
          <use xlink:href="#z"/>
        </mask>
        <use fill="#2A3756" xlink:href="#z"/>
        <path fill="#FFF9F9" d="M-2.5 10.5h39v7h-39z" mask="url(#A)"/>
      </g>
      <g transform="translate(167.5 111)">
        <path fill="#4C2603" d="M5.61 11.75c-2.98-4.18-2.8-7.7.53-10.54 5-4.28 27.02 3.54 25.77 11.72 6.11 4.03 3.05 12-9.18 23.88-1.47.15-2.37.01-2.7-.41L7.3 16.8l-1.7-5.05z"/>
        <circle cx="3" cy="19" r="3" stroke="#061537" stroke-linecap="round" stroke-width=".5"/>
        <g transform="translate(1 12)">
          <mask id="C" fill="#fff">
            <use xlink:href="#B"/>
          </mask>
          <use fill="#FFD3C8" xlink:href="#B"/>
          <path fill="#F1B2A2" d="M10.13 26.53c1.9-.56 3.08-1.27 3.54-2.13-.45 3.17-2.05 5.15-4.79 5.94-2.73.8-2.32-.47 1.25-3.8z" mask="url(#C)"/>
        </g>
        <path stroke="#061537" stroke-width=".5" d="M0 18.5l17.5.5"/>
      </g>
      <g transform="translate(129.5 183.5)">
        <mask id="E" fill="#fff">
          <use xlink:href="#D"/>
        </mask>
        <use fill="#FFD3C8" xlink:href="#D"/>
        <path fill="#F1B2A2" d="M18.74 7.52l-6.9 10.73 8.68 1.1z" mask="url(#E)"/>
      </g>
      <path stroke="#301913" stroke-width=".5" d="M130.5 186.5c2.96.5 5.3 1.5 7 3M134.5 186c1.9.64 3.4 1.47 4.5 2.5"/>
      <g>
        <g transform="translate(123 248)">
          <mask id="G" fill="#fff">
            <use xlink:href="#F"/>
          </mask>
          <use fill="#955454" xlink:href="#F"/>
          <path fill="#834E4E" d="M23.56 1.75L.33 61.72-1 0z" mask="url(#G)"/>
        </g>
        <g transform="translate(76 226)">
          <mask id="I" fill="#fff">
            <use xlink:href="#H"/>
          </mask>
          <use fill="#955454" xlink:href="#H"/>
          <path fill="#834E4E" d="M60.22 1.03c-1.57 6.26-2.36 10.84-2.36 13.77 0 2.22-16.22-2.21-34.8 1.22a17.18 17.18 0 00-9.46 5.33c-.66 1.29-.87 7.11-.63 17.47.24 10.35.96 26.07 2.15 47.16l17.53-1.18 2.23-54.7 85.23-.6 7.8-28.47H60.2z" mask="url(#I)"/>
        </g>
        <path stroke="#301913" stroke-width=".5" d="M90.64 304.5c-1.1-26.03-1.64-44.05-1.64-54.04 0-15 40.66-8.85 51.35-8.85 7.13 0 9.93-4.25 8.4-12.74 3.29-2.26 8.36-10.38 15.2-24.37 10.27-20.98 17.5-35.26 6.7-42.5"/>
        <path stroke="#301913" stroke-width=".5" d="M96.62 260c2.94-.56 4.4-2.13 4.38-4.7-2.41.6-4.74-.34-7-2.8M80.5 304.75H100M124 304.75h19.5"/>
      </g>
      <g>
        <path fill="#FFF" d="M190.95 154.53c.56-2.7-3.99-2.7-13.64 0a8.66 8.66 0 00-1.58 1.7c-.3.49-.53 1.25-.73 2.27l15.95-3.97z"/>
        <g transform="translate(109 154)">
          <mask id="K" fill="#fff">
            <use xlink:href="#J"/>
          </mask>
          <use fill="#659CFF" xlink:href="#J"/>
          <path fill="#4C7FFF" d="M98.73 6c1.49 3.8 2.33 6.47 2.54 8 .16 1.28.03 4.35-.32 9.24-.15 2.08.2 14.81 1.06 38.2l5.43-37.97-3.62-14.04L98.73 6zM67.8 31.4c-4.12 9-7.14 15.33-9.06 18.99-2.33 4.43-3.89 8.27-6.43 11.61-5.7 7.47-10 11.98-12.9 13.53l8.26 1.67c5.02.53 8.71-2.37 11.07-8.7 2.36-6.34 5.38-18.7 9.06-37.1z" mask="url(#K)"/>
          <path fill="#FFF" d="M10.27 44.72L0 58.27l-2.54-4.18L8.64 39.44z" mask="url(#K)"/>
          <path fill="#4C7FFF" d="M66 15.5c3.15 3.31 3.68 8.4 1.57 15.26-.66 2.16-19.74 52.97-17.83 53.4 1.3.3 40.7 13.54 51.76 4.04 6.74-5.8-.39-63.41 1.58-64.03 5.07-1.59-23.62.1-30.72-5.94-1.28-1.1-3.4-2-6.36-2.73z" mask="url(#K)"/>
        </g>
        <path stroke="#301913" stroke-width=".5" d="M207.5 161.5c2.93 4.6 3.71 9.93 2.36 16M153.73 179.33c-4.4 9.37-7.2 15.61-8.42 18.71-3.22 8.2-4.67 12.64-5.33 12.45-1.03-.3-9.06-4.74-24.08-13.35l-6.9 9.18M139.92 210.5a5.94 5.94 0 00.58 5.5M140 210.5c-2.83.9-4.16 2.4-3.98 4.5M160.5 217.5a593.37 593.37 0 008.51-15.9c7.28-14.48 12.53-25.77 6.07-32.6"/>
      </g>
      <g>
        <path fill="#F1B2A2" d="M103 188.27c-.02-1.13.39-1.5 1.22-1.13 1.23.57 5.94 3.55 6.27 6.19.21 1.76-2.28.07-7.49-5.06z"/>
        <g transform="translate(90.5 184.5)">
          <mask id="M" fill="#fff">
            <use xlink:href="#L"/>
          </mask>
          <use fill="#FFD3C8" xlink:href="#L"/>
          <path fill="#F1B2A2" d="M24.54 13.89L14.6 20.5 20 21.79z" mask="url(#M)"/>
        </g>
        <path stroke="#301913" stroke-width=".5" d="M91.5 189.5l8.5 4.5M103 188c4.58 2.17 7.08 3.83 7.5 5"/>
      </g>
    </g>
    <g>
      <path fill="#000" d="M163.41 260.9l2.78 54.73a1.5 1.5 0 003 .04l4.26-56-10.04 1.23z"/>
      <path fill="#000" d="M185.31 323.27l.69.73h-35.5a23.42 23.42 0 0134.81-.73zM185.31 268.6l.69-.73h-35.5a23.42 23.42 0 0034.81.74z"/>
      <path fill="#FF6F66" d="M192.93 177.13c-12.76-2.98-19.84 4.97-21.4 17.35-1.56 12.38-1.27 46.76-45.53 56.25-2.4.74-4.83 1.11-7.29 1.11-5.83 0-7.75-.11-8.13 1.63-.56 2.52 1.87 3.55 7.28 3.11 15.87 11.4 36.14 16.26 60.8 14.6 37-2.48 36.22-27.7 36.22-32.5 0-4.8-1.61-21.05 6.46-34.06 8.06-13.02 5.49-25.33-2.06-26.7-7.54-1.38-13.6 2.19-26.35-.8z"/>
      <path stroke="#701F1A" stroke-width=".5" d="M220.37 186.32c-1.18-3.28-3.9-4.28-8.13-3-6.37 1.9-14.5.17-21.18-1-6.68-1.18-13.71-1.14-14.1 13.44-.4 14.59-7.22 45.23-28.4 51.67M111.75 256.07c6.47 1.44 13.87.5 22.18-2.8"/>
    </g>
    <g>
      <g transform="translate(106.34 127)">
        <use fill="#000" filter="url(#N)" xlink:href="#O"/>
        <use fill="#FFF" xlink:href="#O"/>
        <path stroke="#66CBF8" stroke-linecap="round" d="M16.5 4.25h21"/>
        <circle cx="8.25" cy="4.75" r="2.25" fill="url(#P)"/>
        <circle cx="8.75" cy="11.75" r="2.25" fill="url(#P)"/>
        <path stroke="#66CBF8" stroke-linecap="round" d="M17.5 11.75h22"/>
      </g>
      <g transform="translate(108.34 148)">
        <use fill="#000" filter="url(#Q)" xlink:href="#R"/>
        <use fill="#FFF" xlink:href="#R"/>
      </g>
      <path stroke="#66CBF8" stroke-linecap="round" d="M124.34 151.75h22"/>
      <path fill="url(#S)" d="M7.67 2.5h4.55c.53 0 .97.39 1.04.91l.58 4.4A1.05 1.05 0 0112.8 9H8.14c-.53 0-.98-.4-1.04-.94l-.48-4.4A1.05 1.05 0 017.67 2.5z" transform="translate(108.34 148)"/>
      <path stroke="#66CBF8" stroke-linecap="round" d="M124.84 155.25h22.5M116.84 161.25h31.5"/>
      <g>
        <g transform="translate(47.34 106)">
          <use fill="#000" filter="url(#U)" xlink:href="#T"/>
          <use fill="#FFF" xlink:href="#T"/>
        </g>
      </g>
      <g transform="translate(55 114)">
        <mask id="W" fill="#fff">
          <use xlink:href="#V"/>
        </mask>
        <use fill="#9EEDFF" xlink:href="#V"/>
        <path fill="#64C9F7" d="M21 21.27L36.46 36c7-6.96 10.15-11.43 9.44-13.4-.7-1.98-4.07-3.52-10.12-4.6L21 21.27z" mask="url(#W)"/>
        <path fill="#7ED9FB" d="M21 .04V21h21.17L47 10.52 30.28-6z" mask="url(#W)"/>
      </g>
      <g transform="translate(102.84 85)">
        <use fill="#000" filter="url(#X)" xlink:href="#Y"/>
        <use fill="#FFF" xlink:href="#Y"/>
        <circle cx="9.25" cy="8.25" r="3.75" fill="url(#P)"/>
        <path stroke="#66CBF8" stroke-linecap="round" d="M17.5 5.25h21M18 10.25h15"/>
      </g>
      <g>
        <g transform="translate(104.84 106)">
          <use fill="#000" filter="url(#Z)" xlink:href="#aa"/>
          <use fill="#FFF" xlink:href="#aa"/>
        </g>
        <path stroke="#66CBF8" stroke-linecap="round" d="M121.84 111.25h21"/>
        <path fill="url(#ab)" d="M5.16 3.5h6.31c.76 0 1.4.56 1.5 1.31l.82 6.5a1.5 1.5 0 01-1.5 1.69H5.84a1.5 1.5 0 01-1.49-1.35l-.67-6.5a1.5 1.5 0 011.5-1.65z" transform="translate(104.84 106)"/>
        <path stroke="#66CBF8" stroke-linecap="round" d="M122.34 116.25h15"/>
      </g>
    </g>
    <g>
      <g transform="matrix(-1 0 0 1 316.47 290)">
        <mask id="ad" fill="#fff">
          <use xlink:href="#ac"/>
        </mask>
        <use fill="#FFD3C8" xlink:href="#ac"/>
        <path fill="#F1B2A2" d="M16.76 5.63L-1.52 8.31l6.88-9.84z" mask="url(#ad)"/>
      </g>
      <path fill="#061537" d="M314.9 300.32c-1.37 5.2-5 6.77-10.87 4.7-1.55-.54-3.43 5.62-6.34 5.94-7.76.86-7.76 3.75-7.76 6.53l13.18.22a5 5 0 002.66-.71l13.28-8a2 2 0 00.52-2.97l-4.67-5.7z"/>
      <g transform="matrix(-1 0 0 1 281.06 296.16)">
        <mask id="af" fill="#fff">
          <use xlink:href="#ae"/>
        </mask>
        <use fill="#FFD3C8" xlink:href="#ae"/>
        <path fill="#F1B2A2" d="M13.28 2.19l-14.8 6.68L1.32 0z" mask="url(#af)"/>
      </g>
      <path fill="#061537" d="M281.85 309.1c-9.02 1.48-14.4 1.48-16.15 0-2.63-2.24-23.13 4.9-18.62 6.97 2.9 1.33 13.82 2.07 32.76 2.22a2 2 0 002.01-2v-7.2z"/>
      <path fill="#0A33D8" d="M306.42 191.86l-6.65 48.99L314 291.22l-14.23 3.95-11.1-23.47c-8.95-22.5-12.53-36.1-10.71-40.8 1.81-4.7 11.3-17.7 28.46-39.04z"/>
      <g transform="matrix(-1 0 0 1 310.99 167)">
        <mask id="ah" fill="#fff">
          <use xlink:href="#ag"/>
        </mask>
        <use fill="#0078EE" xlink:href="#ag"/>
        <path fill="#0A33D8" d="M42.21 5.06c-10.04 5.15-14.54 9.6-13.5 13.33 1.58 5.6 6.98 9.43 1.72 22.99-2.15 5.54 2.43 19.89 3.94 35.76 1.44 15.3 1.95 34.39 1.5 57.26-5.97.95-9.66.51-11.07-1.3-1.4-1.8-1.83-6.68-1.28-14.62L4.9 39.03l-9.49-27.76 42.7-9.26 4.1 3.05z" mask="url(#ah)" opacity=".37"/>
      </g>
      <g fill="#F1B2A2">
        <path d="M239.44 123.27c-.46 1.26.94 2.73 4.2 4.43 3.28 1.7 3.14.63-.4-3.2l-3.8-1.23zM242.7 116.57c-1.2-.75-1.98-1.51-2.33-2.3-.53-1.17-2.04 1.7 0 3.41 1.36 1.14 2.13.77 2.33-1.11z"/>
      </g>
      <g transform="matrix(-1 0 0 1 314 102)">
        <mask id="aj" fill="#fff">
          <use xlink:href="#ai"/>
        </mask>
        <use fill="#FF9378" xlink:href="#ai"/>
        <path fill="#DF775D" d="M38.09 34.1L31.3 20.9C38.87 52.4 28.54 70.99.32 76.63c-28.22 5.64-20.55 7.61 23 5.9l48-6.53-33.23-41.9z" mask="url(#aj)"/>
        <path fill="#DF775D" d="M5.23 53.01C-1.75 22.54 2.6 5.42 18.26 1.66c15.67-3.77 14.2-5.3-4.43-4.59L-12.42 8.18 5.23 53.01z" mask="url(#aj)"/>
      </g>
      <path fill="#9197C2" d="M263.14 107.44l1.86 30.51h-22.58L241.5 107z"/>
      <path fill="#EDEFFF" d="M262.1 108.78l1.66 27.6h-20.12l-.81-28z"/>
      <path stroke="#FF9A9A" stroke-width=".5" d="M261.62 110.63l-16.22-.33M261.62 113.13l-10.94-.33M261.62 115.63l-14.52-.33M261.62 118.63l-12.11-.33"/>
      <path stroke="#000" stroke-linecap="round" d="M252 118l14-7"/>
      <g>
        <path fill="#FFD3C8" d="M272.44 76.06c-.73 4.72-1.04 7.95-.93 9.7.46 6.9 3.64 9.41 8.56 7.38 1.22 5.33.5 8.67-2.15 10.03 7.62 3.56 13.5 3.73 17.68.53-5.81-7.2-9.65-11.99-11.52-14.38-1.4-1.79-5.05-3.48-8.7-7.55-.82-.9-1.8-2.81-2.94-5.71z"/>
        <path fill="#061537" d="M271.93 79.34c-1.51-4.62-1.51-7.94 0-9.96 2.28-3.03 24.56-9.26 26.22 10.46.52 7.14 1.1 11.61 1.75 13.42.64 1.79 2 4.38 4.1 7.77l-4.46.13-2.5-4.1v4.1l-21.82.42v-3l-2.48 3h-5.28c1.35-1.66 2.98-4.65 4.9-8.97 1.9-4.33 1.76-8.75-.43-13.27z"/>
      </g>
      <g>
        <path fill="#F1B2A2" d="M259.51 121.15c-.4-5-1.77-6.8-4.1-5.41-2.32 1.4-.95 3.2 4.1 5.41z"/>
        <g transform="matrix(-1 0 0 1 276 115)">
          <mask id="al" fill="#fff">
            <use xlink:href="#ak"/>
          </mask>
          <use fill="#FFD3C8" xlink:href="#ak"/>
          <path fill="#F1B2A2" d="M16.49 36L6.17 6.16 12.66 0l4.36 21.88zM23 13.2c3.5 14.76 3.97 26.22 1.4 34.36-2.57 8.15.62 3.3 9.58-14.55l-6.9-19.82-2.68-.86-1.4.86z" mask="url(#al)"/>
        </g>
        <path stroke="#99776C" stroke-width=".5" d="M258.45 127.33l1.06 23.68M257.65 115.53c.98.16 1.6 1.83 1.86 4.98-1.77-2.87-3.27-4.6-4.5-5.15-1.84-.84-2.26 1.32-2.26 1.32-1.15.4-1.67 1.17-1.54 2.33-.64.46-.88 1.18-.72 2.14-.84 1.22-1.1 2.15-.77 2.8.5.95 2.02 4.24 3.42 4.24"/>
      </g>
      <g>
        <path fill="#FFD3C8" d="M241.32 116a7.6 7.6 0 013.19.65c1.23.6-.1 1.43-1.26 1.43.94.23 1.4.57 1.4 1.04 0 .7-1.4.64-1.4.84-.02.11-.02.17 0 .18.77.28 1.26.53 1.26 1.05 0 .8-1.51.8-1.26.98 0 .47-.22.85-.68 1.12-.68.42-1.67.42-2.42.22-.75-.2-1.65-.6-1.3-1.68a1.74 1.74 0 01-.26-1.85c-.33-.65-.35-1.25-.04-1.8-.54-.7-.57-1.2-.1-1.53.48-.33 1.43-.55 2.87-.65z"/>
        <path stroke="#99776C" stroke-width=".5" d="M243.44 117.92h-4.93M243.44 119.95h-4.84M243.25 122.17h-4.32"/>
      </g>
    </g>
  </g>
</svg>
