<svg id="Layer_1" data-name="Layer 1" xmlns="http://www.w3.org/2000/svg" xmlns:xlink="http://www.w3.org/1999/xlink" viewBox="0 0 751.46 342.14">
  <defs>
    <style>
      .cls-1 {
        fill: #fff;
      }

      .cls-2 {
        fill: url(#linear-gradient);
      }

      .cls-3 {
        fill: none;
      }

      .cls-4 {
        fill: #1998a2;
      }

      .cls-5 {
        fill: url(#linear-gradient-2);
      }

      .cls-6 {
        fill: url(#linear-gradient-3);
      }

      .cls-7 {
        fill: url(#linear-gradient-4);
      }

      .cls-8 {
        fill: url(#linear-gradient-5);
      }

      .cls-9 {
        fill: url(#linear-gradient-6);
      }

      .cls-10 {
        fill: url(#linear-gradient-7);
      }

      .cls-11 {
        fill: url(#linear-gradient-8);
      }

      .cls-12 {
        fill: url(#linear-gradient-9);
      }

      .cls-13 {
        fill: url(#linear-gradient-10);
      }

      .cls-14 {
        fill: url(#linear-gradient-11);
      }

      .cls-15 {
        fill: #dce5ed;
      }

      .cls-16 {
        fill: #f3f5fb;
      }

      .cls-17 {
        fill: url(#linear-gradient-12);
      }

      .cls-18 {
        fill: url(#linear-gradient-13);
      }

      .cls-19 {
        fill: url(#linear-gradient-14);
      }

      .cls-20 {
        fill: url(#linear-gradient-15);
      }

      .cls-21 {
        fill: url(#linear-gradient-16);
      }

      .cls-22 {
        fill: url(#linear-gradient-17);
      }

      .cls-23 {
        fill: url(#linear-gradient-18);
      }

      .cls-24 {
        fill: url(#linear-gradient-19);
      }

      .cls-25 {
        fill: url(#linear-gradient-20);
      }

      .cls-26 {
        fill: url(#linear-gradient-21);
      }

      .cls-27 {
        fill: url(#linear-gradient-22);
      }

      .cls-28 {
        fill: url(#linear-gradient-23);
      }

      .cls-29 {
        fill: url(#linear-gradient-24);
      }

      .cls-30 {
        fill: url(#linear-gradient-25);
      }

      .cls-31 {
        fill: url(#linear-gradient-26);
      }

      .cls-32 {
        fill: url(#linear-gradient-27);
      }

      .cls-33 {
        fill: url(#linear-gradient-28);
      }

      .cls-34 {
        fill: url(#linear-gradient-29);
      }

      .cls-35 {
        fill: url(#linear-gradient-30);
      }

      .cls-36 {
        fill: url(#linear-gradient-31);
      }

      .cls-37 {
        fill: url(#linear-gradient-32);
      }

      .cls-38 {
        fill: url(#linear-gradient-33);
      }

      .cls-39 {
        fill: url(#linear-gradient-34);
      }

      .cls-40 {
        fill: url(#linear-gradient-35);
      }

      .cls-41 {
        fill: url(#linear-gradient-36);
      }

      .cls-42 {
        fill: url(#linear-gradient-37);
      }

      .cls-43 {
        fill: url(#linear-gradient-38);
      }

      .cls-44 {
        fill: url(#linear-gradient-39);
      }

      .cls-45 {
        fill: url(#linear-gradient-40);
      }

      .cls-46 {
        fill: url(#linear-gradient-41);
      }

      .cls-47 {
        fill: #9639d8;
      }

      .cls-48 {
        clip-path: url(#clip-path);
      }

      .cls-49 {
        clip-path: url(#clip-path-2);
      }

      .cls-50 {
        fill: #e834c6;
      }

      .cls-51 {
        fill: url(#linear-gradient-43);
      }

      .cls-52 {
        fill: url(#linear-gradient-44);
      }

      .cls-53 {
        fill: url(#linear-gradient-45);
      }

      .cls-54 {
        fill: url(#linear-gradient-46);
      }

      .cls-55 {
        fill: url(#linear-gradient-47);
      }

      .cls-56 {
        fill: url(#linear-gradient-48);
      }

      .cls-57 {
        fill: url(#linear-gradient-49);
      }

      .cls-58 {
        fill: url(#linear-gradient-50);
      }

      .cls-59 {
        fill: url(#linear-gradient-51);
      }

      .cls-60 {
        fill: url(#linear-gradient-52);
      }

      .cls-61 {
        fill: url(#linear-gradient-53);
      }

      .cls-62 {
        fill: url(#linear-gradient-54);
      }

      .cls-63 {
        fill: url(#linear-gradient-55);
      }

      .cls-64 {
        fill: url(#linear-gradient-56);
      }

      .cls-65 {
        fill: url(#linear-gradient-57);
      }

      .cls-66 {
        fill: url(#linear-gradient-58);
      }

      .cls-67 {
        fill: url(#linear-gradient-59);
      }

      .cls-68 {
        fill: url(#linear-gradient-60);
      }

      .cls-69 {
        fill: url(#linear-gradient-61);
      }

      .cls-70 {
        fill: url(#linear-gradient-62);
      }

      .cls-71 {
        fill: url(#linear-gradient-63);
      }

      .cls-72 {
        fill: url(#linear-gradient-64);
      }

      .cls-73 {
        fill: url(#linear-gradient-65);
      }

      .cls-74 {
        fill: url(#linear-gradient-66);
      }

      .cls-75 {
        fill: url(#linear-gradient-67);
      }

      .cls-76 {
        fill: url(#linear-gradient-68);
      }

      .cls-77 {
        fill: url(#linear-gradient-69);
      }

      .cls-78 {
        fill: url(#linear-gradient-70);
      }

      .cls-79 {
        fill: url(#linear-gradient-71);
      }

      .cls-80 {
        fill: url(#linear-gradient-72);
      }

      .cls-81 {
        fill: url(#linear-gradient-73);
      }

      .cls-82 {
        fill: url(#linear-gradient-74);
      }

      .cls-83 {
        fill: url(#linear-gradient-75);
      }

      .cls-84 {
        fill: url(#linear-gradient-76);
      }

      .cls-85 {
        fill: url(#linear-gradient-77);
      }

      .cls-86 {
        fill: url(#linear-gradient-78);
      }

      .cls-87 {
        fill: url(#linear-gradient-79);
      }

      .cls-88 {
        fill: url(#linear-gradient-80);
      }

      .cls-89 {
        fill: url(#linear-gradient-81);
      }

      .cls-90 {
        fill: url(#linear-gradient-82);
      }

      .cls-91 {
        fill: url(#linear-gradient-83);
      }

      .cls-92 {
        fill: url(#linear-gradient-84);
      }

      .cls-93 {
        fill: url(#linear-gradient-85);
      }

      .cls-94 {
        fill: url(#linear-gradient-86);
      }

      .cls-95 {
        fill: url(#linear-gradient-87);
      }

      .cls-96 {
        fill: url(#linear-gradient-88);
      }

      .cls-97 {
        fill: url(#linear-gradient-89);
      }

      .cls-98 {
        fill: url(#linear-gradient-90);
      }

      .cls-99 {
        fill: url(#linear-gradient-91);
      }

      .cls-100 {
        fill: url(#linear-gradient-92);
      }

      .cls-101 {
        fill: url(#linear-gradient-93);
      }

      .cls-102 {
        clip-path: url(#clip-path-3);
      }

      .cls-103 {
        fill: url(#linear-gradient-94);
      }

      .cls-104 {
        clip-path: url(#clip-path-4);
      }

      .cls-105 {
        fill: #37bf9b;
      }

      .cls-106 {
        fill: url(#linear-gradient-95);
      }

      .cls-107 {
        clip-path: url(#clip-path-5);
      }

      .cls-108 {
        fill: url(#linear-gradient-96);
      }

      .cls-109 {
        fill: url(#linear-gradient-97);
      }

      .cls-110 {
        clip-path: url(#clip-path-6);
      }

      .cls-111 {
        fill: url(#linear-gradient-98);
      }

      .cls-112 {
        fill: url(#linear-gradient-99);
      }

      .cls-113 {
        fill: url(#linear-gradient-100);
      }

      .cls-114 {
        fill: url(#linear-gradient-101);
      }

      .cls-115 {
        fill: url(#linear-gradient-102);
      }

      .cls-116 {
        fill: url(#linear-gradient-103);
      }

      .cls-117 {
        fill: url(#linear-gradient-104);
      }

      .cls-118 {
        clip-path: url(#clip-path-7);
      }

      .cls-119 {
        clip-path: url(#clip-path-8);
      }

      .cls-120 {
        fill: url(#linear-gradient-105);
      }

      .cls-121 {
        fill: url(#linear-gradient-106);
      }

      .cls-122 {
        fill: url(#linear-gradient-107);
      }

      .cls-123 {
        fill: url(#linear-gradient-108);
      }

      .cls-124 {
        fill: url(#linear-gradient-109);
      }

      .cls-125 {
        fill: url(#linear-gradient-110);
      }

      .cls-126 {
        fill: url(#linear-gradient-111);
      }

      .cls-127 {
        fill: url(#linear-gradient-112);
      }

      .cls-128 {
        fill: url(#linear-gradient-113);
      }

      .cls-129 {
        fill: url(#linear-gradient-114);
      }

      .cls-130 {
        fill: url(#linear-gradient-115);
      }

      .cls-131 {
        fill: url(#linear-gradient-116);
      }

      .cls-132 {
        fill: url(#linear-gradient-117);
      }

      .cls-133 {
        fill: url(#linear-gradient-118);
      }

      .cls-134 {
        fill: url(#linear-gradient-119);
      }
    </style>
    <linearGradient id="linear-gradient" x1="491.05" y1="158.52" x2="567.77" y2="158.52" gradientUnits="userSpaceOnUse">
      <stop offset="0" stop-color="#1997a1"/>
      <stop offset="1" stop-color="#51d4e2"/>
    </linearGradient>
    <linearGradient id="linear-gradient-2" x1="11.91" y1="1545" x2="25.5" y2="1545" gradientTransform="translate(-793.16 -892.25) rotate(-45.9)" xlink:href="#linear-gradient"/>
    <linearGradient id="linear-gradient-3" x1="4.61" y1="1588.79" x2="16.42" y2="1588.79" gradientTransform="translate(-793.16 -892.25) rotate(-45.9)" xlink:href="#linear-gradient"/>
    <linearGradient id="linear-gradient-4" x1="-19.48" y1="1559.39" x2="-11.87" y2="1559.39" gradientTransform="translate(-793.16 -892.25) rotate(-45.9)" xlink:href="#linear-gradient"/>
    <linearGradient id="linear-gradient-5" x1="0.47" y1="1590.74" x2="7.03" y2="1590.74" gradientTransform="translate(-793.16 -892.25) rotate(-45.9)" xlink:href="#linear-gradient"/>
    <linearGradient id="linear-gradient-6" x1="-13.25" y1="1555.37" x2="-3.69" y2="1555.37" gradientTransform="translate(-793.16 -892.25) rotate(-45.9)" xlink:href="#linear-gradient"/>
    <linearGradient id="linear-gradient-7" x1="-5.96" y1="1591.16" x2="1.62" y2="1591.16" gradientTransform="translate(-793.16 -892.25) rotate(-45.9)" xlink:href="#linear-gradient"/>
    <linearGradient id="linear-gradient-8" x1="-9.97" y1="1593.69" x2="-4.62" y2="1593.69" gradientTransform="translate(-793.16 -892.25) rotate(-45.9)" xlink:href="#linear-gradient"/>
    <linearGradient id="linear-gradient-9" x1="20.15" y1="1552.2" x2="25.5" y2="1552.2" gradientTransform="translate(-793.16 -892.25) rotate(-45.9)" xlink:href="#linear-gradient"/>
    <linearGradient id="linear-gradient-10" x1="-15.26" y1="1562.24" x2="-9.92" y2="1562.24" gradientTransform="translate(-793.16 -892.25) rotate(-45.9)" xlink:href="#linear-gradient"/>
    <linearGradient id="linear-gradient-11" x1="19.49" y1="1544.22" x2="23.52" y2="1544.22" gradientTransform="translate(-793.16 -892.25) rotate(-45.9)" xlink:href="#linear-gradient"/>
    <linearGradient id="linear-gradient-12" x1="257.97" y1="-312.5" x2="276.26" y2="-312.5" gradientTransform="translate(92.16 473.76) rotate(19.68)" xlink:href="#linear-gradient"/>
    <linearGradient id="linear-gradient-13" x1="269.06" y1="-302.8" x2="276.26" y2="-302.8" gradientTransform="translate(92.16 473.76) rotate(19.68)" xlink:href="#linear-gradient"/>
    <linearGradient id="linear-gradient-14" x1="268.17" y1="-313.54" x2="273.6" y2="-313.54" gradientTransform="translate(92.16 473.76) rotate(19.68)" xlink:href="#linear-gradient"/>
    <linearGradient id="linear-gradient-15" x1="669.96" y1="133.44" x2="690.27" y2="133.44" xlink:href="#linear-gradient"/>
    <linearGradient id="linear-gradient-16" x1="628.53" y1="82.85" x2="641.61" y2="82.85" xlink:href="#linear-gradient"/>
    <linearGradient id="linear-gradient-17" x1="662.85" y1="136.78" x2="674.12" y2="136.78" xlink:href="#linear-gradient"/>
    <linearGradient id="linear-gradient-18" x1="639.24" y1="75.94" x2="655.68" y2="75.94" xlink:href="#linear-gradient"/>
    <linearGradient id="linear-gradient-19" x1="651.78" y1="137.52" x2="664.82" y2="137.52" xlink:href="#linear-gradient"/>
    <linearGradient id="linear-gradient-20" x1="644.87" y1="141.87" x2="654.08" y2="141.87" xlink:href="#linear-gradient"/>
    <linearGradient id="linear-gradient-21" x1="635.79" y1="87.76" x2="644.97" y2="87.76" xlink:href="#linear-gradient"/>
    <linearGradient id="linear-gradient-22" x1="424.95" y1="93.36" x2="440.54" y2="93.36" xlink:href="#linear-gradient"/>
    <linearGradient id="linear-gradient-23" x1="419.49" y1="95.93" x2="428.14" y2="95.93" xlink:href="#linear-gradient"/>
    <linearGradient id="linear-gradient-24" x1="410.99" y1="96.5" x2="421" y2="96.5" xlink:href="#linear-gradient"/>
    <linearGradient id="linear-gradient-25" x1="405.69" y1="99.84" x2="412.76" y2="99.84" xlink:href="#linear-gradient"/>
    <linearGradient id="linear-gradient-26" x1="156.38" y1="83" x2="169.54" y2="83" xlink:href="#linear-gradient"/>
    <linearGradient id="linear-gradient-27" x1="167.14" y1="75.96" x2="183.64" y2="75.96" xlink:href="#linear-gradient"/>
    <linearGradient id="linear-gradient-28" x1="163.68" y1="87.75" x2="172.86" y2="87.75" xlink:href="#linear-gradient"/>
    <linearGradient id="linear-gradient-29" x1="540.35" y1="295.06" x2="558.63" y2="295.06" xlink:href="#linear-gradient"/>
    <linearGradient id="linear-gradient-30" x1="551.44" y1="304.75" x2="558.63" y2="304.75" xlink:href="#linear-gradient"/>
    <linearGradient id="linear-gradient-31" x1="550.55" y1="294.01" x2="555.98" y2="294.01" xlink:href="#linear-gradient"/>
    <linearGradient id="linear-gradient-32" x1="59.71" y1="248.38" x2="75.3" y2="248.38" xlink:href="#linear-gradient"/>
    <linearGradient id="linear-gradient-33" x1="54.25" y1="250.94" x2="62.9" y2="250.94" xlink:href="#linear-gradient"/>
    <linearGradient id="linear-gradient-34" x1="45.75" y1="251.51" x2="55.76" y2="251.51" xlink:href="#linear-gradient"/>
    <linearGradient id="linear-gradient-35" x1="40.45" y1="254.85" x2="47.52" y2="254.85" xlink:href="#linear-gradient"/>
    <linearGradient id="linear-gradient-36" x1="607.73" y1="253.29" x2="627.02" y2="253.29" xlink:href="#linear-gradient"/>
    <linearGradient id="linear-gradient-37" x1="617.79" y1="266.67" x2="627.02" y2="266.67" xlink:href="#linear-gradient"/>
    <linearGradient id="linear-gradient-38" x1="618.49" y1="252.26" x2="624.18" y2="252.26" xlink:href="#linear-gradient"/>
    <linearGradient id="linear-gradient-39" x1="311.92" y1="27.19" x2="337.52" y2="27.19" xlink:href="#linear-gradient"/>
    <linearGradient id="linear-gradient-40" x1="327.45" y1="40.76" x2="337.52" y2="40.76" xlink:href="#linear-gradient"/>
    <linearGradient id="linear-gradient-41" x1="326.2" y1="25.72" x2="333.8" y2="25.72" xlink:href="#linear-gradient"/>
    <clipPath id="clip-path">
      <path class="cls-1" d="M526.37,198.39,500,234.72H529.4l35.16-49.29a56.07,56.07,0,0,0,8.4-16.05C562.89,195.3,540.08,197.87,526.37,198.39Z"/>
    </clipPath>
    <clipPath id="clip-path-2">
      <path class="cls-2" d="M526.37,198.39l19.4-29a17.08,17.08,0,0,1-13,5.82,16.49,16.49,0,1,1,17-16.49A16.19,16.19,0,0,1,548,166l19.76-29.59c-7.5-10.86-20.41-17.76-35-17.76-22.37,0-41.72,17.16-41.72,40A40,40,0,0,0,526.37,198.39Z"/>
    </clipPath>
    <linearGradient id="linear-gradient-43" x1="489.42" y1="174.49" x2="494.73" y2="174.49" xlink:href="#linear-gradient"/>
    <linearGradient id="linear-gradient-44" x1="489.42" y1="163.97" x2="494.73" y2="163.97" xlink:href="#linear-gradient"/>
    <linearGradient id="linear-gradient-45" x1="489.42" y1="153.45" x2="494.73" y2="153.45" xlink:href="#linear-gradient"/>
    <linearGradient id="linear-gradient-46" x1="489.42" y1="142.93" x2="494.73" y2="142.93" xlink:href="#linear-gradient"/>
    <linearGradient id="linear-gradient-47" x1="496.87" y1="179.75" x2="502.19" y2="179.75" xlink:href="#linear-gradient"/>
    <linearGradient id="linear-gradient-48" x1="496.87" y1="169.23" x2="502.19" y2="169.23" xlink:href="#linear-gradient"/>
    <linearGradient id="linear-gradient-49" x1="496.87" y1="158.71" x2="502.19" y2="158.71" xlink:href="#linear-gradient"/>
    <linearGradient id="linear-gradient-50" x1="496.87" y1="148.19" x2="502.19" y2="148.19" xlink:href="#linear-gradient"/>
    <linearGradient id="linear-gradient-51" x1="504.33" y1="185.01" x2="509.65" y2="185.01" xlink:href="#linear-gradient"/>
    <linearGradient id="linear-gradient-52" x1="504.33" y1="174.49" x2="509.65" y2="174.49" xlink:href="#linear-gradient"/>
    <linearGradient id="linear-gradient-53" x1="504.33" y1="163.97" x2="509.65" y2="163.97" xlink:href="#linear-gradient"/>
    <linearGradient id="linear-gradient-54" x1="504.33" y1="153.45" x2="509.65" y2="153.45" xlink:href="#linear-gradient"/>
    <linearGradient id="linear-gradient-55" x1="504.33" y1="142.93" x2="509.65" y2="142.93" xlink:href="#linear-gradient"/>
    <linearGradient id="linear-gradient-56" x1="511.79" y1="190.27" x2="517.11" y2="190.27" xlink:href="#linear-gradient"/>
    <linearGradient id="linear-gradient-57" x1="511.79" y1="179.75" x2="517.11" y2="179.75" xlink:href="#linear-gradient"/>
    <linearGradient id="linear-gradient-58" x1="511.79" y1="169.23" x2="517.11" y2="169.23" xlink:href="#linear-gradient"/>
    <linearGradient id="linear-gradient-59" x1="511.79" y1="158.71" x2="517.11" y2="158.71" xlink:href="#linear-gradient"/>
    <linearGradient id="linear-gradient-60" x1="511.79" y1="148.19" x2="517.11" y2="148.19" xlink:href="#linear-gradient"/>
    <linearGradient id="linear-gradient-61" x1="519.24" y1="195.53" x2="524.56" y2="195.53" xlink:href="#linear-gradient"/>
    <linearGradient id="linear-gradient-62" x1="519.24" y1="185.01" x2="524.56" y2="185.01" xlink:href="#linear-gradient"/>
    <linearGradient id="linear-gradient-63" x1="519.24" y1="174.49" x2="524.56" y2="174.49" xlink:href="#linear-gradient"/>
    <linearGradient id="linear-gradient-64" x1="519.24" y1="142.93" x2="524.56" y2="142.93" xlink:href="#linear-gradient"/>
    <linearGradient id="linear-gradient-65" x1="526.7" y1="190.27" x2="532.02" y2="190.27" xlink:href="#linear-gradient"/>
    <linearGradient id="linear-gradient-66" x1="526.7" y1="179.75" x2="532.02" y2="179.75" xlink:href="#linear-gradient"/>
    <linearGradient id="linear-gradient-67" x1="534.15" y1="185.01" x2="539.47" y2="185.01" xlink:href="#linear-gradient"/>
    <linearGradient id="linear-gradient-68" x1="534.15" y1="174.49" x2="539.47" y2="174.49" xlink:href="#linear-gradient"/>
    <linearGradient id="linear-gradient-69" x1="534.15" y1="142.93" x2="539.47" y2="142.93" xlink:href="#linear-gradient"/>
    <linearGradient id="linear-gradient-70" x1="541.61" y1="169.23" x2="546.93" y2="169.23" xlink:href="#linear-gradient"/>
    <linearGradient id="linear-gradient-71" x1="541.61" y1="148.19" x2="546.93" y2="148.19" xlink:href="#linear-gradient"/>
    <linearGradient id="linear-gradient-72" x1="549.07" y1="163.97" x2="554.39" y2="163.97" xlink:href="#linear-gradient"/>
    <linearGradient id="linear-gradient-73" x1="549.07" y1="153.45" x2="554.39" y2="153.45" xlink:href="#linear-gradient"/>
    <linearGradient id="linear-gradient-74" x1="549.07" y1="142.93" x2="554.39" y2="142.93" xlink:href="#linear-gradient"/>
    <linearGradient id="linear-gradient-75" x1="556.52" y1="148.19" x2="561.85" y2="148.19" xlink:href="#linear-gradient"/>
    <linearGradient id="linear-gradient-76" x1="496.98" y1="138.42" x2="502.29" y2="138.42" xlink:href="#linear-gradient"/>
    <linearGradient id="linear-gradient-77" x1="504.43" y1="133.16" x2="509.75" y2="133.16" xlink:href="#linear-gradient"/>
    <linearGradient id="linear-gradient-78" x1="511.89" y1="138.42" x2="517.21" y2="138.42" xlink:href="#linear-gradient"/>
    <linearGradient id="linear-gradient-79" x1="511.89" y1="127.9" x2="517.21" y2="127.9" xlink:href="#linear-gradient"/>
    <linearGradient id="linear-gradient-80" x1="519.35" y1="133.16" x2="524.66" y2="133.16" xlink:href="#linear-gradient"/>
    <linearGradient id="linear-gradient-81" x1="519.35" y1="122.64" x2="524.66" y2="122.64" xlink:href="#linear-gradient"/>
    <linearGradient id="linear-gradient-82" x1="526.8" y1="138.42" x2="532.12" y2="138.42" xlink:href="#linear-gradient"/>
    <linearGradient id="linear-gradient-83" x1="526.8" y1="127.9" x2="532.12" y2="127.9" xlink:href="#linear-gradient"/>
    <linearGradient id="linear-gradient-84" x1="527.11" y1="119.32" x2="531.82" y2="119.32" xlink:href="#linear-gradient"/>
    <linearGradient id="linear-gradient-85" x1="534.26" y1="133.16" x2="539.58" y2="133.16" xlink:href="#linear-gradient"/>
    <linearGradient id="linear-gradient-86" x1="534.26" y1="122.64" x2="539.58" y2="122.64" xlink:href="#linear-gradient"/>
    <linearGradient id="linear-gradient-87" x1="541.71" y1="138.42" x2="547.03" y2="138.42" xlink:href="#linear-gradient"/>
    <linearGradient id="linear-gradient-88" x1="541.71" y1="127.9" x2="547.03" y2="127.9" xlink:href="#linear-gradient"/>
    <linearGradient id="linear-gradient-89" x1="549.17" y1="133.16" x2="554.49" y2="133.16" xlink:href="#linear-gradient"/>
    <linearGradient id="linear-gradient-90" x1="549.17" y1="122.64" x2="554.49" y2="122.64" xlink:href="#linear-gradient"/>
    <linearGradient id="linear-gradient-91" x1="556.63" y1="138.42" x2="561.95" y2="138.42" xlink:href="#linear-gradient"/>
    <linearGradient id="linear-gradient-92" x1="556.63" y1="127.9" x2="561.95" y2="127.9" xlink:href="#linear-gradient"/>
    <linearGradient id="linear-gradient-93" x1="564.08" y1="133.16" x2="569.41" y2="133.16" xlink:href="#linear-gradient"/>
    <clipPath id="clip-path-3">
      <path class="cls-3" d="M343,118.65a58,58,0,1,0,58,58A58,58,0,0,0,343,118.65Zm0,89.3a31.26,31.26,0,1,1,31.26-31.26A31.26,31.26,0,0,1,343,208Z"/>
    </clipPath>
    <linearGradient id="linear-gradient-94" x1="397.28" y1="156.69" x2="402.97" y2="156.69" xlink:href="#linear-gradient"/>
    <clipPath id="clip-path-4">
      <path class="cls-3" d="M374.29,175.84c0,.28,0,.56,0,.85a31.26,31.26,0,0,1-62.52,0c0-.28,0-.57,0-.85H285c0,.28,0,.56,0,.85a58,58,0,0,0,116.07,0c0-.28,0-.56,0-.85Z"/>
    </clipPath>
    <linearGradient id="linear-gradient-95" x1="357.52" y1="202.02" x2="401.08" y2="202.02" xlink:href="#linear-gradient"/>
    <clipPath id="clip-path-5">
      <path class="cls-3" d="M191.91,234.72s52.47-71.16,52.47-78.89c0-8.24-5.39-13.29-13-13.29-8.24,0-13.79,5-14.3,17H193.41c.51-22,13.29-40.88,37.85-40.88,22.2,0,37.17,15,37.17,37.18,0,17.33-28.41,53.38-28.41,53.38h34.65v25.51Z"/>
    </clipPath>
    <linearGradient id="linear-gradient-96" x1="232.3" y1="168.18" x2="238.14" y2="168.18" xlink:href="#linear-gradient"/>
    <linearGradient id="linear-gradient-97" x1="222.19" y1="221.97" x2="274.67" y2="221.97" xlink:href="#linear-gradient"/>
    <clipPath id="clip-path-6">
      <polygon class="cls-3" points="240.02 209.21 222.19 234.72 274.67 234.72 274.67 209.21 240.02 209.21"/>
    </clipPath>
    <linearGradient id="linear-gradient-98" x1="267.59" y1="216.81" x2="271.97" y2="216.81" xlink:href="#linear-gradient"/>
    <linearGradient id="linear-gradient-99" x1="259.05" y1="216.81" x2="263.43" y2="216.81" xlink:href="#linear-gradient"/>
    <linearGradient id="linear-gradient-100" x1="250.51" y1="216.81" x2="254.89" y2="216.81" xlink:href="#linear-gradient"/>
    <linearGradient id="linear-gradient-101" x1="241.97" y1="216.81" x2="246.36" y2="216.81" xlink:href="#linear-gradient"/>
    <linearGradient id="linear-gradient-102" x1="233.43" y1="216.81" x2="237.82" y2="216.81" xlink:href="#linear-gradient"/>
    <linearGradient id="linear-gradient-103" x1="224.89" y1="216.81" x2="229.28" y2="216.81" xlink:href="#linear-gradient"/>
    <linearGradient id="linear-gradient-104" x1="416.56" y1="155.82" x2="450.45" y2="155.82" xlink:href="#linear-gradient"/>
    <clipPath id="clip-path-7">
      <polygon class="cls-3" points="450.45 153.92 450.45 234.72 474.84 234.72 474.84 129.53 450.45 153.92"/>
    </clipPath>
    <clipPath id="clip-path-8">
      <polygon class="cls-3" points="416.56 156.62 416.56 192.22 450.45 153.92 450.45 119.43 416.56 156.62"/>
    </clipPath>
    <linearGradient id="linear-gradient-105" x1="439.19" y1="155.82" x2="443.39" y2="155.82" xlink:href="#linear-gradient"/>
    <linearGradient id="linear-gradient-106" x1="430.95" y1="155.82" x2="435.16" y2="155.82" xlink:href="#linear-gradient"/>
    <linearGradient id="linear-gradient-107" x1="414.49" y1="155.82" x2="418.69" y2="155.82" xlink:href="#linear-gradient"/>
    <linearGradient id="linear-gradient-108" x1="447.42" y1="155.82" x2="451.63" y2="155.82" xlink:href="#linear-gradient"/>
    <linearGradient id="linear-gradient-109" x1="422.72" y1="155.82" x2="426.93" y2="155.82" xlink:href="#linear-gradient"/>
    <linearGradient id="linear-gradient-110" x1="225.93" y1="250.66" x2="238.23" y2="250.66" xlink:href="#linear-gradient"/>
    <linearGradient id="linear-gradient-111" x1="232.35" y1="259.19" x2="238.23" y2="259.19" xlink:href="#linear-gradient"/>
    <linearGradient id="linear-gradient-112" x1="232.79" y1="250.01" x2="236.42" y2="250.01" xlink:href="#linear-gradient"/>
    <linearGradient id="linear-gradient-113" x1="262.79" y1="249.71" x2="273.49" y2="249.71" xlink:href="#linear-gradient"/>
    <linearGradient id="linear-gradient-114" x1="240.93" y1="223.05" x2="247.87" y2="223.05" xlink:href="#linear-gradient"/>
    <linearGradient id="linear-gradient-115" x1="259.04" y1="251.47" x2="264.97" y2="251.47" xlink:href="#linear-gradient"/>
    <linearGradient id="linear-gradient-116" x1="246.6" y1="219.34" x2="255.3" y2="219.34" xlink:href="#linear-gradient"/>
    <linearGradient id="linear-gradient-117" x1="253.2" y1="251.86" x2="260.08" y2="251.86" xlink:href="#linear-gradient"/>
    <linearGradient id="linear-gradient-118" x1="249.57" y1="254.15" x2="254.42" y2="254.15" xlink:href="#linear-gradient"/>
    <linearGradient id="linear-gradient-119" x1="244.78" y1="225.55" x2="249.62" y2="225.55" xlink:href="#linear-gradient"/>
  </defs>
  <title>2019</title>
  <g>
    <path class="cls-4" d="M342.37,222.2c0-.27-.07-.54-.07-.81-.06-3.93-.11-7.86-.19-11.8a1,1,0,0,1,.55-1c2.13-1.24,4.22-2.54,6.35-3.78a1.11,1.11,0,0,0,.68-1.16c-.07-1.07,0-2.14-.06-3.21,0-.25,0-.48.25-.64,1.14-.66,2.27-1.34,3.41-2,.07,0,.18,0,.27,0a3.94,3.94,0,0,1,.23,1.53c0,1.93.08,3.87.08,5.8,0,.5.24,1.12-.31,1.44s-1-.21-1.48-.43-.9-.51-1.37-.75-.64-.08-.63.4c0,.87,0,1.74,0,2.6a.89.89,0,0,1-.06.58c-.91.76-2,1.22-3,1.9-.2.14-.45.2-.61.41a2.14,2.14,0,0,0-.1,1c0,2.28.07,4.57.1,6.85a1.29,1.29,0,0,1-.27,1A7.83,7.83,0,0,1,342.37,222.2Z"/>
    <path class="cls-5" d="M332.77,167.84l4.5,0a.83.83,0,0,1,0,.66,14,14,0,0,1-1.92,3.34,1.09,1.09,0,0,1-.84.21c-3.79.06-7.58.13-11.37.18A2,2,0,0,1,322,172c-.13-.25.06-.42.16-.61,1.24-2.23,2.5-4.45,3.73-6.69a.83.83,0,0,1,.86-.53c1.29,0,2.57-.13,3.86,0,.12.9-.49,1.52-.83,2.24-.16.33-.59.65-.4,1s.68.11,1,.15C331.19,167.6,332,167.24,332.77,167.84Z"/>
    <path class="cls-6" d="M349.9,208.86a24.06,24.06,0,0,1-.16-4c0-.46.31-.25.52-.14.89.49,1.79,1,2.67,1.5.49.29.65.19.63-.37-.05-2.36-.08-4.73-.11-7.09a1.52,1.52,0,0,1,.12-.94l3.34,1.81a.66.66,0,0,1,.42.63c.05,4.23.12,8.45.17,12.68a.67.67,0,0,1-.07.21,2,2,0,0,1-1.33-.33c-1.87-1.06-3.76-2.09-5.62-3.16C350.17,209.45,349.85,209.3,349.9,208.86Z"/>
    <path class="cls-7" d="M319.66,210.45l-7-3.87c-.29-.16-.52-.31-.53-.72,0-2.74-.07-5.47-.11-8.2a.85.85,0,0,1,.05-.22,1.43,1.43,0,0,1,1,.16,27.35,27.35,0,0,1,2.86,1.66,1.77,1.77,0,0,1,.33,1.12c0,.92,0,1.84,0,2.76a1,1,0,0,0,.15.71c.84.54,1.75,1,2.61,1.48a2.13,2.13,0,0,1,.76.56,1.49,1.49,0,0,1,.34.81c0,1,.06,2,0,3C320.22,210.06,320.17,210.43,319.66,210.45Z"/>
    <path class="cls-4" d="M322,172a2.76,2.76,0,0,1,1.25-.09l10.94-.17c.32,0,.64,0,1,0a.71.71,0,0,1,.72.41c.47.78.93,1.56,1.41,2.33a1.33,1.33,0,0,1,.12.93,5.3,5.3,0,0,1-1.62.09c-3.66.07-7.31.11-11,.19a1,1,0,0,1-1-.56C323.23,174.05,322.48,173.08,322,172Z"/>
    <path class="cls-8" d="M349.9,208.86l7.53,4.26c-1.11.69-2.23,1.36-3.34,2.06a.77.77,0,0,1-.89,0c-1.1-.61-2.21-1.21-3.32-1.81-.1,0,0,0-.07,0a7.2,7.2,0,0,1-3.76-2.23A23.83,23.83,0,0,1,349.9,208.86Z"/>
    <path class="cls-9" d="M315.89,199.56l-3.78-2.13,7.14-4.33a.56.56,0,0,1,.63-.08,38.35,38.35,0,0,1,3.59,2.1,2.44,2.44,0,0,1-.93.92c-1.89,1.14-3.79,2.25-5.67,3.39A.88.88,0,0,1,315.89,199.56Z"/>
    <path class="cls-4" d="M315.89,199.56l6.73-4c.28-.16.57-.3.85-.45,0,1.31.05,2.62.12,3.93,0,.42-.23.56-.51.73l-3.24,2a.53.53,0,0,1-.21.45,9.8,9.8,0,0,1-3.56,1.87,31.67,31.67,0,0,1-.13-3.61C315.91,200.16,315.9,199.86,315.89,199.56Z"/>
    <path class="cls-10" d="M346.05,211.13l3.83,2.2q0,4,.08,8c0,.25,0,.49,0,.74a1.7,1.7,0,0,1-1.26-.27c-.66-.42-1.39-.74-2-1.16-.27-.17-.56-.33-.53-.72q0-3.92-.07-7.83C346,211.78,346,211.46,346.05,211.13Z"/>
    <path class="cls-11" d="M346.1,219.93l3.84,2.15-3.41,2.09a.61.61,0,0,1-.69,0l-3.47-2Z"/>
    <path class="cls-12" d="M337.38,175.41l-2.25-3.67,2.13-3.89,2.14,3.47a.5.5,0,0,1,0,.56C338.73,173.06,338.16,174.29,337.38,175.41Z"/>
    <path class="cls-13" d="M316.06,204.06a41.81,41.81,0,0,1,3.78-2.32l3.73,2.17a1.39,1.39,0,0,1-.59.82c-.81.47-1.6,1-2.42,1.42a.87.87,0,0,1-.84,0Z"/>
    <path class="cls-4" d="M319.72,206.13a38.78,38.78,0,0,0,3.85-2.23c.17,1.35.07,2.72.13,4.07a.5.5,0,0,1-.26.49l-3.38,2a.29.29,0,0,1-.4,0c.12-.05.22-.12.22-.27A28.94,28.94,0,0,0,319.72,206.13Z"/>
    <path class="cls-14" d="M332.77,167.84l-4.22-.06,2-3.64A35.91,35.91,0,0,1,332.77,167.84Z"/>
  </g>
  <g>
    <path class="cls-15" d="M144.37,306.9c-.43-1.36-.6-2.79-.93-4.17-.09-.37.17-.52.38-.7.85-.77,1.69-1.54,2.57-2.28a.91.91,0,0,0,.32-1c-.56-2.59-1.07-5.19-1.64-7.78a1,1,0,0,1,.38-1.13c1-.81,1.89-1.77,2.95-2.52a1.55,1.55,0,0,1,.66,1.09c.78,3.87,1.61,7.74,2.4,11.61a1.4,1.4,0,0,1,0,1c-1.24,1.37-2.73,2.46-4.07,3.72-.62.58-1.27,1.15-1.9,1.73A1.51,1.51,0,0,1,144.37,306.9Z"/>
    <path class="cls-16" d="M151.27,300.79q-1.27-6-2.54-12.05c-.1-.48-.23-1-.34-1.44a40.74,40.74,0,0,1,4.51,1.4c1.26.39,2.52.83,3.77,1.25.24.08.49.11.56.45.26,1.35.56,2.7.83,4,0,.06,0,.14-.07.21a1.94,1.94,0,0,1-1.5-.14c-.46-.18-.93-.29-1.4-.45-.71-.24-.82-.13-.68.63.1.53.2,1.06.34,1.59a2.12,2.12,0,0,1-.06,1.36c.2,1.55.7,3,.84,4.59a1.69,1.69,0,0,1-1.21,0c-.78-.27-1.59-.48-2.35-.8C151.67,301.31,151.31,301.22,151.27,300.79Z"/>
    <path class="cls-1" d="M151.27,300.79l4.26,1.44-6.5,5.88a.65.65,0,0,1-.71.16c-1.31-.47-2.67-.81-4-1.37Z"/>
    <path class="cls-1" d="M154.7,297.65l-.76-4.39,4.06,1.4A36.23,36.23,0,0,1,154.7,297.65Z"/>
    <path class="cls-15" d="M168.43,306.41c.27-.08.54-.18.82-.24,4-.83,8-1.66,12.06-2.51a1,1,0,0,1,1.14.37c1.69,1.94,3.43,3.83,5.12,5.77a1.15,1.15,0,0,0,1.33.47c1.08-.28,2.19-.47,3.28-.69.25-.05.48-.12.71.13.9,1,1.82,2.07,2.73,3.1.05.06,0,.19.05.28a4.11,4.11,0,0,1-1.52.54c-2,.4-4,.84-5.94,1.22-.51.1-1.1.47-1.54,0s0-1.08.15-1.6.35-1,.5-1.55,0-.67-.54-.57c-.89.19-1.78.36-2.66.56a.93.93,0,0,1-.61,0c-1-.79-1.65-1.83-2.53-2.69-.18-.18-.29-.43-.54-.54a2.23,2.23,0,0,0-1,.09l-7,1.45a1.34,1.34,0,0,1-1.13-.07C170.15,308.93,168.92,308,168.43,306.41Z"/>
    <path class="cls-1" d="M183.59,311.52a25.13,25.13,0,0,1,4.09-1c.47-.1.32.27.24.5-.33,1-.65,2-1,3-.2.56-.07.7.51.58,2.41-.52,4.83-1,7.25-1.51a1.59,1.59,0,0,1,1-.06c-.4,1.26-.8,2.52-1.2,3.78a.69.69,0,0,1-.56.55l-13,2.67a.7.7,0,0,1-.23,0,2.1,2.1,0,0,1,.08-1.43c.72-2.13,1.41-4.26,2.14-6.39C183,311.91,183.14,311.55,183.59,311.52Z"/>
    <path class="cls-16" d="M183.59,311.52l-2.89,8.56c-.92-1-1.84-2-2.77-3a.81.81,0,0,1-.13-.92c.41-1.25.8-2.5,1.2-3.76,0-.1,0,0,0-.07a7.52,7.52,0,0,1,1.55-4.29A24.89,24.89,0,0,1,183.59,311.52Z"/>
    <path class="cls-1" d="M180.51,308,179,312.38,170.8,314c-.25.05-.51.08-.76.11a1.78,1.78,0,0,1,0-1.34c.3-.76.48-1.57.79-2.33.12-.31.23-.64.64-.69l8-1.61C179.84,308.11,180.18,308.07,180.51,308Z"/>
    <path class="cls-16" d="M171.49,309.79,170,314.15l-2.82-3.08a.63.63,0,0,1-.16-.7c.46-1.31.91-2.63,1.37-3.95Z"/>
  </g>
  <g>
    <path class="cls-15" d="M130.83,148.43c-1.51-1.23-2.76-2.72-4.18-4-.38-.35-.19-.72-.09-1.08.38-1.47.75-3,1.19-4.41a1.37,1.37,0,0,0-.42-1.58c-2.56-2.5-5.06-5.05-7.62-7.55a1.35,1.35,0,0,1-.41-1.58c.54-1.68.82-3.43,1.47-5.08a2.11,2.11,0,0,1,1.57.75c3.79,3.83,7.62,7.61,11.41,11.43a1.91,1.91,0,0,1,.73,1.14c-.44,2.47-1.24,4.85-1.85,7.27-.28,1.13-.59,2.25-.87,3.38A2.05,2.05,0,0,1,130.83,148.43Z"/>
    <path class="cls-16" d="M134.13,136.33l-11.74-11.68c-.53-.52-1.08-1-1.61-1.54a55.51,55.51,0,0,1,6.16-1.77c1.76-.5,3.54-1,5.3-1.43.35-.1.64-.18,1,.15,1.33,1.4,2.69,2.77,4,4.16a2.24,2.24,0,0,1-1.54,1c-.82.18-1.64.39-2.44.65s-.72.55-.24,1,1.24,1.24,1.87,1.86a2.41,2.41,0,0,1,.8,1.44l4.39,4.6a2.33,2.33,0,0,1-1.39.89c-1.09.27-2.17.63-3.28.85C135,136.61,134.49,136.78,134.13,136.33Z"/>
    <path class="cls-1" d="M134.13,136.33l5.94-1.54q-1.51,5.78-3,11.55a.87.87,0,0,1-.68.72c-1.85.43-3.65,1.07-5.53,1.38Z"/>
    <path class="cls-1" d="M135.68,130.18l-4.15-4.39,5.7-1.58A51.73,51.73,0,0,1,135.68,130.18Z"/>
  </g>
  <g>
    <path class="cls-17" d="M453,272.8l2.48,5.52a1.12,1.12,0,0,1-.81.35,18.86,18.86,0,0,1-5.16-.5c-.42-.16-.55-.56-.72-.91-2.18-4.61-4.38-9.21-6.54-13.83a2.7,2.7,0,0,1-.29-1.54c.24-.3.55-.16.83-.14,3.42.28,6.85.59,10.28.84a1.12,1.12,0,0,1,1.13.76c.65,1.6,1.59,3.08,2.15,4.73-1,.65-2.13.25-3.21.23-.49,0-1.12-.36-1.42.06s.25.9.4,1.36C452.41,270.74,453.33,271.59,453,272.8Z"/>
    <path class="cls-16" d="M393.5,280.45q.44-5.35.87-10.7c0-.45.09-.81.59-1,3.34-1.55,6.66-3.13,10-4.7a1.15,1.15,0,0,1,.29-.05,1.92,1.92,0,0,1,.36,1.3,36.81,36.81,0,0,1-.44,4.43,2.39,2.39,0,0,1-1.19,1c-1.13.52-2.24,1.07-3.37,1.58-.31.14-.63.24-.78.58-.2,1.33-.21,2.68-.36,4a2.86,2.86,0,0,1-.27,1.24,2,2,0,0,1-.8.87c-1.2.58-2.41,1.17-3.63,1.71C394.29,280.92,393.81,281.06,393.5,280.45Z"/>
    <path class="cls-4" d="M441.94,261.88a3.72,3.72,0,0,1,.8,1.48q3.16,6.65,6.3,13.31c.18.39.33.8.49,1.2a1,1,0,0,1-.1,1.11c-.69,1-1.39,2-2.08,3a1.79,1.79,0,0,1-1.07.66,7.13,7.13,0,0,1-1-1.94c-2.12-4.44-4.2-8.9-6.33-13.33a1.27,1.27,0,0,1,.13-1.54C440.08,264.57,440.86,263.12,441.94,261.88Z"/>
    <path class="cls-1" d="M404.74,269.77l.51-5.81,9.27,6.34c.25.17.49.36.45.72a51.61,51.61,0,0,1-.58,5.57,3.29,3.29,0,0,1-1.65-.63c-2.44-1.68-4.87-3.39-7.31-5.07C405,270.62,404.68,270.32,404.74,269.77Z"/>
    <path class="cls-15" d="M404.74,269.77l8.63,6c.35.25.68.53,1,.8-1.58.77-3.18,1.52-4.75,2.33-.5.26-.81,0-1.17-.22l-4.2-2.88a.72.72,0,0,1-.67,0c-1.51-1-3.22-1.74-4.28-3.33a42.62,42.62,0,0,1,4.35-2.17Z"/>
    <path class="cls-18" d="M446.29,282.67l3.24-4.79,5.95.44-3.06,4.55a.67.67,0,0,1-.68.32C449.92,283,448.09,283,446.29,282.67Z"/>
    <path class="cls-1" d="M399.32,272.49a56.26,56.26,0,0,1,4.95,3.33l-.58,5.78a1.87,1.87,0,0,1-1.33-.27c-1-.73-2.08-1.42-3.09-2.17a1.17,1.17,0,0,1-.46-1Z"/>
    <path class="cls-15" d="M398.82,278.12a52.19,52.19,0,0,0,4.87,3.48c-1.56,1-3.29,1.6-4.92,2.43a.67.67,0,0,1-.75,0l-4.36-3a.39.39,0,0,1-.17-.52c.13.11.28.21.45.12A39,39,0,0,0,398.82,278.12Z"/>
    <path class="cls-19" d="M453,272.8l-2.27-5.2,5.6.48A48.32,48.32,0,0,1,453,272.8Z"/>
  </g>
  <g>
    <path class="cls-4" d="M644.87,137.27c.3-.35.58-.73.91-1.06,4.78-4.78,9.58-9.55,14.35-14.35a1.68,1.68,0,0,1,1.9-.52c4.08,1.14,8.19,2.18,12.27,3.32a1.9,1.9,0,0,0,2.25-.55c1.23-1.37,2.59-2.62,3.9-3.91.3-.3.55-.61,1.09-.45,2.18.62,4.37,1.2,6.56,1.81.13,0,.22.22.33.34a6.78,6.78,0,0,1-1.61,2.11c-2.37,2.34-4.69,4.73-7.07,7.05-.61.59-1.09,1.63-2.15,1.35s-1-1.5-1.24-2.35-.45-1.73-.71-2.59-.67-.89-1.25-.3c-1.05,1.06-2.12,2.11-3.16,3.18-.24.24-.42.55-.79.62-2-.21-3.92-1-5.92-1.42a1.72,1.72,0,0,0-2.53.76l-8.34,8.33a2.21,2.21,0,0,1-1.62.91C649.52,139.19,647,139,644.87,137.27Z"/>
    <path class="cls-16" d="M700.53,60.32l5.36,5.57a1.43,1.43,0,0,1-.83.77,24.11,24.11,0,0,1-6.43,1.63c-.58,0-.91-.43-1.26-.79-4.61-4.62-9.24-9.21-13.83-13.83a3.45,3.45,0,0,1-1-1.73c.15-.47.59-.43.95-.52,4.24-1.13,8.5-2.24,12.73-3.41a1.43,1.43,0,0,1,1.68.43c1.48,1.65,3.24,3,4.62,4.77-1,1.23-2.46,1.22-3.77,1.66-.59.2-1.5,0-1.69.68s.69,1,1.06,1.46C698.93,58.09,700.41,58.71,700.53,60.32Z"/>
    <path class="cls-20" d="M670.37,130.6a41.39,41.39,0,0,1,4.77-5c.56-.57.68.09.79.48.46,1.69.93,3.38,1.35,5.09.23.95.54,1,1.22.33q4.29-4.34,8.62-8.63c.39-.39.71-.88,1.31-1,.59,2.1,1.17,4.2,1.77,6.29a1.13,1.13,0,0,1-.28,1.27q-7.74,7.68-15.45,15.4a1.15,1.15,0,0,1-.34.16,3.46,3.46,0,0,1-1.18-2c-.94-3.58-1.91-7.15-2.83-10.73C670,131.63,669.77,131.06,670.37,130.6Z"/>
    <path class="cls-21" d="M632.2,95.15q-1.78-6.62-3.56-13.25a1.33,1.33,0,0,1,.26-1.51c3.35-3.3,6.67-6.64,10-10a1.47,1.47,0,0,1,.33-.19,2.45,2.45,0,0,1,1,1.41,47.06,47.06,0,0,1,1.38,5.53,3.05,3.05,0,0,1-1,1.75c-1.13,1.11-2.24,2.25-3.37,3.35-.31.3-.65.56-.7,1,.34,1.69.9,3.32,1.3,5a3.66,3.66,0,0,1,.21,1.61,2.56,2.56,0,0,1-.59,1.39c-1.2,1.22-2.39,2.45-3.64,3.62C633.36,95.36,632.84,95.75,632.2,95.15Z"/>
    <path class="cls-15" d="M682.52,51.94c.73.26,1.1.93,1.6,1.43q6.67,6.64,13.31,13.32c.39.39.74.82,1.11,1.23a1.23,1.23,0,0,1,.36,1.38c-.4,1.51-.81,3-1.2,4.54a2.28,2.28,0,0,1-1,1.26,9.12,9.12,0,0,1-2-1.9c-4.46-4.44-8.89-8.9-13.37-13.32a1.63,1.63,0,0,1-.5-1.91C681.44,56,681.75,53.89,682.52,51.94Z"/>
    <path class="cls-22" d="M670.37,130.6l3.75,14.4c-2.18-.56-4.36-1.13-6.55-1.66a1.33,1.33,0,0,1-1-1.15c-.56-2.09-1.16-4.17-1.74-6.26-.13-.11,0,.06-.12-.06-1-1-2.23-6-1.75-7.31A41,41,0,0,1,670.37,130.6Z"/>
    <path class="cls-23" d="M641.13,77.45l-1.89-7.21,13.9,3.64c.38.1.74.22.85.67a66,66,0,0,1,1.7,6.95,4.21,4.21,0,0,1-2.26,0c-3.66-1-7.32-2-11-2.95C641.85,78.35,641.3,78.14,641.13,77.45Z"/>
    <path class="cls-4" d="M641.13,77.45l13,3.53c.53.15,1,.34,1.57.52-1.57,1.61-3.17,3.2-4.71,4.85-.49.52-1,.38-1.5.24l-6.29-1.66a.92.92,0,0,1-.81.28c-2.25-.54-4.63-.71-6.58-2.16a54.48,54.48,0,0,1,4.3-4.49C640.43,78.19,640.78,77.82,641.13,77.45Z"/>
    <path class="cls-24" d="M663,128.57l1.86,7.37L655,145.62c-.3.3-.63.56-.95.84a2.93,2.93,0,0,1-1.17-1.87c-.28-1.32-.75-2.59-1-3.92-.11-.54-.27-1.09.25-1.52l9.59-9.47C662.12,129.3,662.55,128.94,663,128.57Z"/>
    <path class="cls-25" d="M652.14,139.15l1.94,7.31-6.67-1.7a1,1,0,0,1-.86-.82c-.55-2.23-1.12-4.45-1.68-6.67Z"/>
    <path class="cls-1" d="M696.7,75.09l1.84-7.17,7.35-2q-.86,3.4-1.73,6.79a.86.86,0,0,1-.68.68C701.22,73.92,699,74.71,696.7,75.09Z"/>
    <path class="cls-26" d="M635.79,83.05a71.92,71.92,0,0,1,7.39,1.88L645,92.14a2.4,2.4,0,0,1-1.72.25c-1.55-.44-3.11-.82-4.65-1.29a1.5,1.5,0,0,1-1-1.05Z"/>
    <path class="cls-4" d="M637.61,90A66.71,66.71,0,0,0,645,92.14c-1.46,1.84-3.27,3.34-4.88,5a.86.86,0,0,1-.92.26l-6.54-1.75a.5.5,0,0,1-.42-.55.5.5,0,0,0,.59,0A49.79,49.79,0,0,0,637.61,90Z"/>
    <path class="cls-1" d="M700.53,60.32l-5-5.28,6.94-1.84A61.78,61.78,0,0,1,700.53,60.32Z"/>
  </g>
  <g>
    <path class="cls-4" d="M405.69,96.3a3.75,3.75,0,0,1,.91-1c3.6-3.6,7.22-7.19,10.8-10.81a1.29,1.29,0,0,1,1.46-.4c3.2.89,6.41,1.71,9.61,2.6a1.28,1.28,0,0,0,1.47-.4c1-1.06,2-2.06,3.06-3.08.23-.23.42-.47.84-.35,1.67.48,3.36.92,5,1.39.1,0,.17.17.25.26a5.2,5.2,0,0,1-1.23,1.62c-1.77,1.75-3.5,3.54-5.29,5.27-.51.5-.91,1.41-1.78,1.17s-.76-1.27-1-2c-.19-.56-.33-1.13-.49-1.7-.23-.81-.42-.86-1-.26-.8.77-1.58,1.57-2.36,2.37-.18.19-.32.42-.61.47-1.56-.16-3-.8-4.54-1.09a1.32,1.32,0,0,0-1.94.58l-6.4,6.4a1.7,1.7,0,0,1-1.24.7C409.26,97.78,407.29,97.62,405.69,96.3Z"/>
    <path class="cls-27" d="M425.26,91.18a30.43,30.43,0,0,1,3.66-3.83c.43-.44.52.07.61.37.35,1.3.72,2.6,1,3.9.18.74.42.77.94.25q3.29-3.33,6.62-6.62c.3-.3.54-.67,1-.76.45,1.61.9,3.22,1.35,4.83a.87.87,0,0,1-.21,1q-5.91,5.87-11.79,11.75a1.42,1.42,0,0,1-.33.19,2,2,0,0,1-.83-1.28c-.75-2.88-1.53-5.74-2.28-8.62C424.92,91.91,424.85,91.5,425.26,91.18Z"/>
    <path class="cls-28" d="M425.26,91.18l2.88,11.06c-1.7-.44-3.41-.89-5.11-1.32-.47-.12-.57-.46-.68-.85-.44-1.6-.89-3.2-1.34-4.8-.1-.08,0,0-.09,0-.79-.73-1.71-4.58-1.34-5.6A31.62,31.62,0,0,1,425.26,91.18Z"/>
    <path class="cls-29" d="M419.57,89.62,421,95.26l-7.44,7.39c-.25.25-.53.48-.8.71a2.38,2.38,0,0,1-.92-1.54c-.21-1-.56-1.93-.76-2.91-.08-.41-.21-.84.19-1.17l7.43-7.34C419,90.14,419.28,89.89,419.57,89.62Z"/>
    <path class="cls-30" d="M411.27,97.75l1.49,5.62-5.12-1.31a.8.8,0,0,1-.66-.63c-.42-1.71-.86-3.42-1.29-5.12Z"/>
  </g>
  <g>
    <path class="cls-31" d="M160.1,95.31q-1.78-6.63-3.55-13.26c-.12-.44-.35-.89.08-1.32,3.5-3.45,6.84-7.07,10.51-10.35a2.4,2.4,0,0,1,.94,1.3,58.22,58.22,0,0,1,1.46,5.65,3.61,3.61,0,0,1-1.09,1.81c-1.12,1.09-2.2,2.21-3.33,3.3a1.65,1.65,0,0,0-.68,1c.33,1.69.9,3.32,1.3,5a3.67,3.67,0,0,1,.21,1.61,2.57,2.57,0,0,1-.59,1.39c-1.2,1.22-2.39,2.45-3.64,3.62C161.25,95.53,160.73,95.91,160.1,95.31Z"/>
    <path class="cls-4" d="M163.68,83.22a56.21,56.21,0,0,1,4.39-4.59l1-1c.53-.47,1.12-.29,1.7-.14,3.84,1,7.66,2,11.49,3.07a2.39,2.39,0,0,1,1.42,1c-1.48,1.81-3.27,3.34-4.87,5-.46.49-.93.29-1.41.16l-6.29-1.64a1.08,1.08,0,0,1-1.05.31c-1.74-.43-3.49-.82-5.19-1.4C164.38,83.86,164.09,83.43,163.68,83.22Z"/>
    <path class="cls-32" d="M183.64,81.53,169,77.6l-1.89-7.22L181,74A1.15,1.15,0,0,1,182,75C182.5,77.15,183.08,79.33,183.64,81.53Z"/>
    <path class="cls-4" d="M160.1,95.31a.5.5,0,0,0,.59,0,50.79,50.79,0,0,0,4.81-5,1.12,1.12,0,0,1,1.2-.18c1.57.42,3.14.81,4.71,1.25a3.09,3.09,0,0,1,1.46,1c-1.47,1.9-3.34,3.4-5,5.15a.76.76,0,0,1-.83.18l-6.55-1.75A.51.51,0,0,1,160.1,95.31Z"/>
    <path class="cls-33" d="M172.86,92.28a65.08,65.08,0,0,1-7.36-2.07l-1.82-7a76.11,76.11,0,0,1,7.4,1.88Z"/>
  </g>
  <g>
    <path class="cls-34" d="M554.44,296.8l4.19,4.36a1.12,1.12,0,0,1-.65.6,18.86,18.86,0,0,1-5,1.27c-.45,0-.71-.34-1-.62-3.6-3.61-7.23-7.2-10.82-10.82a2.7,2.7,0,0,1-.8-1.35c.12-.36.46-.33.74-.41,3.32-.89,6.65-1.75,10-2.67a1.12,1.12,0,0,1,1.32.33c1.16,1.29,2.54,2.36,3.61,3.73-.75,1-1.93,1-2.95,1.3-.46.16-1.17,0-1.32.53s.54.76.83,1.15C553.19,295.06,554.35,295.54,554.44,296.8Z"/>
    <path class="cls-4" d="M540.35,290.24c.57.2.86.73,1.25,1.12q5.22,5.2,10.41,10.42c.3.31.58.64.87,1a1,1,0,0,1,.28,1.08c-.31,1.18-.63,2.36-.94,3.55a1.79,1.79,0,0,1-.78,1,7.13,7.13,0,0,1-1.6-1.49c-3.49-3.47-7-7-10.46-10.42A1.27,1.27,0,0,1,539,295C539.51,293.4,539.75,291.77,540.35,290.24Z"/>
    <path class="cls-35" d="M551.44,308.35l1.44-5.61,5.75-1.59q-.68,2.66-1.35,5.31a.67.67,0,0,1-.53.53C555,307.44,553.25,308.05,551.44,308.35Z"/>
    <path class="cls-36" d="M554.44,296.8l-3.89-4.13,5.43-1.44A48.32,48.32,0,0,1,554.44,296.8Z"/>
  </g>
  <g>
    <path class="cls-4" d="M40.45,251.32a3.75,3.75,0,0,1,.91-1c3.6-3.6,7.22-7.19,10.8-10.81a1.29,1.29,0,0,1,1.46-.4c3.2.89,6.41,1.71,9.61,2.6a1.28,1.28,0,0,0,1.47-.4c1-1.06,2-2.06,3.06-3.08.23-.23.42-.47.84-.35,1.67.48,3.36.92,5,1.39.1,0,.17.17.25.26a5.2,5.2,0,0,1-1.23,1.62c-1.77,1.75-3.5,3.54-5.29,5.27-.51.5-.91,1.41-1.78,1.17s-.76-1.27-1-2c-.19-.56-.33-1.13-.49-1.7-.23-.81-.42-.86-1-.26-.8.77-1.58,1.57-2.36,2.37-.18.19-.32.42-.61.47-1.56-.16-3-.8-4.54-1.09a2.8,2.8,0,0,0-.94-.2,2.82,2.82,0,0,0-1,.78l-6.4,6.4a1.7,1.7,0,0,1-1.24.7C44,252.79,42.05,252.63,40.45,251.32Z"/>
    <path class="cls-37" d="M60,246.2a30.43,30.43,0,0,1,3.66-3.83c.43-.44.52.07.61.37.35,1.3.72,2.6,1,3.9.18.74.42.77.94.25q3.29-3.33,6.62-6.62c.3-.3.54-.67,1-.76.45,1.61.9,3.22,1.35,4.83a.87.87,0,0,1-.21,1q-5.91,5.87-11.79,11.75a1.42,1.42,0,0,1-.33.19,2,2,0,0,1-.83-1.28c-.75-2.88-1.53-5.74-2.28-8.62C59.69,246.92,59.61,246.52,60,246.2Z"/>
    <path class="cls-38" d="M60,246.2l2.88,11.06c-1.7-.44-3.41-.89-5.11-1.32-.47-.12-.57-.46-.68-.85-.44-1.6-.89-3.2-1.34-4.8-.1-.08,0,0-.09,0-.79-.73-1.71-4.58-1.34-5.6A31.62,31.62,0,0,1,60,246.2Z"/>
    <path class="cls-39" d="M54.33,244.64l1.43,5.64-7.44,7.39c-.25.25-.53.48-.8.71a2.38,2.38,0,0,1-.92-1.54c-.21-1-.56-1.93-.76-2.91-.08-.41-.21-.84.19-1.17l7.43-7.34C53.74,245.15,54,244.9,54.33,244.64Z"/>
    <path class="cls-40" d="M46,252.77l1.49,5.62-5.12-1.31a.8.8,0,0,1-.66-.63c-.42-1.71-.86-3.42-1.29-5.12Z"/>
  </g>
  <g>
    <path class="cls-4" d="M617.79,273.5c-1.51-1.23-2.76-2.72-4.18-4-.38-.35-.19-.72-.09-1.08.38-1.47.75-3,1.19-4.41a1.37,1.37,0,0,0-.42-1.58c-2.56-2.5-5.06-5.05-7.62-7.55a1.35,1.35,0,0,1-.41-1.58c.54-1.68.82-3.43,1.47-5.08a2.11,2.11,0,0,1,1.57.75c3.79,3.83,7.62,7.61,11.41,11.43a1.91,1.91,0,0,1,.73,1.14c-.44,2.47-1.24,4.85-1.85,7.27-.28,1.13-.59,2.25-.87,3.38A2.05,2.05,0,0,1,617.79,273.5Z"/>
    <path class="cls-41" d="M621.08,261.39l-11.74-11.68c-.53-.52-1.08-1-1.61-1.54a55.51,55.51,0,0,1,6.16-1.77c1.76-.5,3.54-1,5.3-1.43.35-.1.64-.18,1,.15,1.33,1.4,2.69,2.77,4,4.16a2.24,2.24,0,0,1-1.54,1c-.82.18-1.64.39-2.44.65s-.72.55-.24,1,1.24,1.24,1.87,1.86a2.41,2.41,0,0,1,.8,1.44l4.39,4.6a2.33,2.33,0,0,1-1.39.89c-1.09.27-2.17.63-3.28.85C621.92,261.68,621.45,261.85,621.08,261.39Z"/>
    <path class="cls-42" d="M621.08,261.39l5.94-1.54q-1.51,5.78-3,11.55a.87.87,0,0,1-.68.72c-1.85.43-3.65,1.07-5.53,1.38Z"/>
    <path class="cls-43" d="M622.63,255.25l-4.15-4.39,5.7-1.58A51.73,51.73,0,0,1,622.63,255.25Z"/>
  </g>
  <g>
    <path class="cls-44" d="M331.64,29.62l5.87,6.1a1.57,1.57,0,0,1-.91.84,26.4,26.4,0,0,1-7,1.78c-.63,0-1-.47-1.38-.86-5-5.05-10.12-10.08-15.15-15.15a3.77,3.77,0,0,1-1.11-1.9c.17-.51.65-.47,1-.57,4.65-1.24,9.3-2.45,13.94-3.73a1.56,1.56,0,0,1,1.84.47c1.62,1.8,3.55,3.31,5.06,5.22-1.05,1.34-2.7,1.34-4.13,1.82-.65.22-1.64.05-1.85.74s.75,1.07,1.17,1.6C329.9,27.18,331.51,27.86,331.64,29.62Z"/>
    <path class="cls-4" d="M311.92,20.44c.8.29,1.2,1,1.76,1.57q7.31,7.27,14.58,14.58c.43.43.81.9,1.21,1.35a1.35,1.35,0,0,1,.39,1.51c-.44,1.65-.88,3.31-1.31,5a2.5,2.5,0,0,1-1.1,1.38,10,10,0,0,1-2.24-2.08c-4.88-4.86-9.73-9.75-14.64-14.59A1.78,1.78,0,0,1,310,27C310.74,24.86,311.08,22.58,311.92,20.44Z"/>
    <path class="cls-45" d="M327.45,45.79l2-7.85,8.05-2.22q-.95,3.72-1.89,7.44a.94.94,0,0,1-.74.74C332.4,44.52,330,45.38,327.45,45.79Z"/>
    <path class="cls-46" d="M331.64,29.62l-5.45-5.78,7.6-2A67.65,67.65,0,0,1,331.64,29.62Z"/>
  </g>
  <g>
    <g>
      <g>
        <path class="cls-3" d="M549.76,158.69a17,17,0,1,0-17,16.49,17.08,17.08,0,0,0,13-5.82L548,166A16.19,16.19,0,0,0,549.76,158.69Z"/>
        <path class="cls-47" d="M545.77,169.35A16.25,16.25,0,0,0,548,166Z"/>
        <path class="cls-16" d="M545.77,169.35l-19.4,29c13.71-.53,36.51-3.09,46.58-29a35.93,35.93,0,0,0,1.7-10.69,38.88,38.88,0,0,0-6.88-22.28L548,166A16.25,16.25,0,0,1,545.77,169.35Z"/>
      </g>
      <g>
        <path class="cls-1" d="M526.37,198.39,500,234.72H529.4l35.16-49.29a56.07,56.07,0,0,0,8.4-16.05C562.89,195.3,540.08,197.87,526.37,198.39Z"/>
        <g class="cls-48">
          <rect class="cls-15" x="506.27" y="160.69" width="4" height="89.52"/>
          <rect class="cls-15" x="514.11" y="160.69" width="4" height="89.52"/>
          <rect class="cls-15" x="529.76" y="160.69" width="4" height="89.52"/>
          <rect class="cls-15" x="537.59" y="160.69" width="4" height="89.52"/>
          <rect class="cls-15" x="545.42" y="160.69" width="4" height="89.52"/>
          <rect class="cls-15" x="553.25" y="160.69" width="4" height="89.52"/>
          <rect class="cls-15" x="498.44" y="160.69" width="4" height="89.52"/>
          <rect class="cls-15" x="521.94" y="160.69" width="4" height="89.52"/>
        </g>
      </g>
      <g>
        <path class="cls-2" d="M526.37,198.39l19.4-29a17.08,17.08,0,0,1-13,5.82,16.49,16.49,0,1,1,17-16.49A16.19,16.19,0,0,1,548,166l19.76-29.59c-7.5-10.86-20.41-17.76-35-17.76-22.37,0-41.72,17.16-41.72,40A40,40,0,0,0,526.37,198.39Z"/>
        <g class="cls-49">
          <g>
            <g>
              <circle class="cls-50" cx="477.16" cy="195.53" r="2.66"/>
              <circle class="cls-50" cx="477.16" cy="185.01" r="2.66"/>
              <circle class="cls-50" cx="477.16" cy="174.49" r="2.66"/>
              <circle class="cls-50" cx="477.16" cy="163.97" r="2.66"/>
              <circle class="cls-50" cx="477.16" cy="153.45" r="2.66"/>
              <circle class="cls-50" cx="477.16" cy="142.93" r="2.66"/>
            </g>
            <g>
              <circle class="cls-50" cx="484.62" cy="190.27" r="2.66"/>
              <circle class="cls-50" cx="484.62" cy="179.75" r="2.66"/>
              <circle class="cls-50" cx="484.62" cy="169.23" r="2.66"/>
              <circle class="cls-50" cx="484.62" cy="158.71" r="2.66"/>
              <circle class="cls-50" cx="484.62" cy="148.19" r="2.66"/>
            </g>
            <g>
              <circle class="cls-50" cx="492.08" cy="195.53" r="2.66"/>
              <circle class="cls-50" cx="492.08" cy="185.01" r="2.66"/>
              <circle class="cls-51" cx="492.08" cy="174.49" r="2.66"/>
              <circle class="cls-52" cx="492.08" cy="163.97" r="2.66"/>
              <circle class="cls-53" cx="492.08" cy="153.45" r="2.66"/>
              <circle class="cls-54" cx="492.08" cy="142.93" r="2.66"/>
            </g>
            <g>
              <circle class="cls-50" cx="499.53" cy="190.27" r="2.66"/>
              <circle class="cls-55" cx="499.53" cy="179.75" r="2.66"/>
              <circle class="cls-56" cx="499.53" cy="169.23" r="2.66"/>
              <circle class="cls-57" cx="499.53" cy="158.71" r="2.66"/>
              <circle class="cls-58" cx="499.53" cy="148.19" r="2.66"/>
            </g>
            <g>
              <circle class="cls-50" cx="506.99" cy="195.53" r="2.66"/>
              <circle class="cls-59" cx="506.99" cy="185.01" r="2.66"/>
              <circle class="cls-60" cx="506.99" cy="174.49" r="2.66"/>
              <circle class="cls-61" cx="506.99" cy="163.97" r="2.66"/>
              <circle class="cls-62" cx="506.99" cy="153.45" r="2.66"/>
              <circle class="cls-63" cx="506.99" cy="142.93" r="2.66"/>
            </g>
            <g>
              <circle class="cls-64" cx="514.45" cy="190.27" r="2.66"/>
              <circle class="cls-65" cx="514.45" cy="179.75" r="2.66"/>
              <circle class="cls-66" cx="514.45" cy="169.23" r="2.66"/>
              <circle class="cls-67" cx="514.45" cy="158.71" r="2.66"/>
              <circle class="cls-68" cx="514.45" cy="148.19" r="2.66"/>
            </g>
            <g>
              <circle class="cls-69" cx="521.9" cy="195.53" r="2.66"/>
              <circle class="cls-70" cx="521.9" cy="185.01" r="2.66"/>
              <circle class="cls-71" cx="521.9" cy="174.49" r="2.66"/>
              <circle class="cls-50" cx="521.9" cy="163.97" r="2.66"/>
              <circle class="cls-50" cx="521.9" cy="153.45" r="2.66"/>
              <circle class="cls-72" cx="521.9" cy="142.93" r="2.66"/>
            </g>
            <g>
              <circle class="cls-73" cx="529.36" cy="190.27" r="2.66"/>
              <circle class="cls-74" cx="529.36" cy="179.75" r="2.66"/>
              <circle class="cls-50" cx="529.36" cy="169.23" r="2.66"/>
              <circle class="cls-50" cx="529.36" cy="158.71" r="2.66"/>
              <circle class="cls-50" cx="529.36" cy="148.19" r="2.66"/>
            </g>
            <g>
              <circle class="cls-50" cx="536.82" cy="195.53" r="2.66"/>
              <circle class="cls-75" cx="536.82" cy="185.01" r="2.66"/>
              <circle class="cls-76" cx="536.82" cy="174.49" r="2.66"/>
              <circle class="cls-50" cx="536.82" cy="163.97" r="2.66"/>
              <circle class="cls-50" cx="536.82" cy="153.45" r="2.66"/>
              <circle class="cls-77" cx="536.82" cy="142.93" r="2.66"/>
            </g>
            <g>
              <circle class="cls-50" cx="544.27" cy="190.27" r="2.66"/>
              <circle class="cls-50" cx="544.27" cy="179.75" r="2.66"/>
              <circle class="cls-78" cx="544.27" cy="169.23" r="2.66"/>
              <circle class="cls-50" cx="544.27" cy="158.71" r="2.66"/>
              <circle class="cls-79" cx="544.27" cy="148.19" r="2.66"/>
            </g>
            <g>
              <circle class="cls-50" cx="551.73" cy="195.53" r="2.66"/>
              <circle class="cls-50" cx="551.73" cy="185.01" r="2.66"/>
              <circle class="cls-50" cx="551.73" cy="174.49" r="2.66"/>
              <circle class="cls-80" cx="551.73" cy="163.97" r="2.66"/>
              <circle class="cls-81" cx="551.73" cy="153.45" r="2.66"/>
              <circle class="cls-82" cx="551.73" cy="142.93" r="2.66"/>
            </g>
            <g>
              <circle class="cls-50" cx="559.19" cy="190.27" r="2.66"/>
              <circle class="cls-50" cx="559.19" cy="179.75" r="2.66"/>
              <circle class="cls-50" cx="559.19" cy="169.23" r="2.66"/>
              <circle class="cls-50" cx="559.19" cy="158.71" r="2.66"/>
              <circle class="cls-83" cx="559.19" cy="148.19" r="2.66"/>
            </g>
            <g>
              <circle class="cls-50" cx="566.64" cy="195.53" r="2.66"/>
              <circle class="cls-50" cx="566.64" cy="185.01" r="2.66"/>
              <circle class="cls-50" cx="566.64" cy="174.49" r="2.66"/>
              <circle class="cls-50" cx="566.64" cy="163.97" r="2.66"/>
              <circle class="cls-50" cx="566.64" cy="153.45" r="2.66"/>
              <circle class="cls-50" cx="566.64" cy="142.93" r="2.66"/>
            </g>
            <g>
              <circle class="cls-50" cx="574.1" cy="190.27" r="2.66"/>
              <circle class="cls-50" cx="574.1" cy="179.75" r="2.66"/>
              <circle class="cls-50" cx="574.1" cy="169.23" r="2.66"/>
              <circle class="cls-50" cx="574.1" cy="158.71" r="2.66"/>
              <circle class="cls-50" cx="574.1" cy="148.19" r="2.66"/>
            </g>
          </g>
          <g>
            <g>
              <circle class="cls-50" cx="484.72" cy="138.42" r="2.66"/>
              <circle class="cls-50" cx="484.72" cy="127.9" r="2.66"/>
              <path class="cls-50" d="M482.37,118.6a2.64,2.64,0,0,0,4.71,0Z"/>
            </g>
            <g>
              <circle class="cls-50" cx="492.18" cy="133.16" r="2.66"/>
              <circle class="cls-50" cx="492.18" cy="122.64" r="2.66"/>
            </g>
            <g>
              <circle class="cls-84" cx="499.64" cy="138.42" r="2.66"/>
              <circle class="cls-50" cx="499.64" cy="127.9" r="2.66"/>
              <path class="cls-50" d="M497.28,118.6a2.64,2.64,0,0,0,4.71,0Z"/>
            </g>
            <g>
              <circle class="cls-85" cx="507.09" cy="133.16" r="2.66"/>
              <circle class="cls-50" cx="507.09" cy="122.64" r="2.66"/>
            </g>
            <g>
              <circle class="cls-86" cx="514.55" cy="138.42" r="2.66"/>
              <circle class="cls-87" cx="514.55" cy="127.9" r="2.66"/>
              <path class="cls-50" d="M512.2,118.6a2.64,2.64,0,0,0,4.71,0Z"/>
            </g>
            <g>
              <circle class="cls-88" cx="522.01" cy="133.16" r="2.66"/>
              <circle class="cls-89" cx="522.01" cy="122.64" r="2.66"/>
            </g>
            <g>
              <circle class="cls-90" cx="529.46" cy="138.42" r="2.66"/>
              <circle class="cls-91" cx="529.46" cy="127.9" r="2.66"/>
              <path class="cls-92" d="M527.11,118.6a2.64,2.64,0,0,0,4.71,0Z"/>
            </g>
            <g>
              <circle class="cls-93" cx="536.92" cy="133.16" r="2.66"/>
              <circle class="cls-94" cx="536.92" cy="122.64" r="2.66"/>
            </g>
            <g>
              <circle class="cls-95" cx="544.37" cy="138.42" r="2.66"/>
              <circle class="cls-96" cx="544.37" cy="127.9" r="2.66"/>
              <path class="cls-50" d="M542,118.6a2.64,2.64,0,0,0,4.71,0Z"/>
            </g>
            <g>
              <circle class="cls-97" cx="551.83" cy="133.16" r="2.66"/>
              <circle class="cls-98" cx="551.83" cy="122.64" r="2.66"/>
            </g>
            <g>
              <circle class="cls-99" cx="559.29" cy="138.42" r="2.66"/>
              <circle class="cls-100" cx="559.29" cy="127.9" r="2.66"/>
              <path class="cls-50" d="M556.93,118.6a2.64,2.64,0,0,0,4.71,0Z"/>
            </g>
            <g>
              <circle class="cls-101" cx="566.74" cy="133.16" r="2.66"/>
              <circle class="cls-50" cx="566.74" cy="122.64" r="2.66"/>
            </g>
            <g>
              <circle class="cls-50" cx="574.2" cy="138.42" r="2.66"/>
              <circle class="cls-50" cx="574.2" cy="127.9" r="2.66"/>
              <path class="cls-50" d="M571.85,118.6a2.64,2.64,0,0,0,4.71,0Z"/>
            </g>
            <g>
              <circle class="cls-50" cx="581.66" cy="133.16" r="2.66"/>
              <circle class="cls-50" cx="581.66" cy="122.64" r="2.66"/>
            </g>
          </g>
        </g>
      </g>
    </g>
    <g>
      <path class="cls-1" d="M343,118.65a58,58,0,1,0,58,58A58,58,0,0,0,343,118.65Zm0,89.3a31.26,31.26,0,1,1,31.26-31.26A31.26,31.26,0,0,1,343,208Z"/>
      <path class="cls-47" d="M357.52,204.4q6.14,11.89,12.22,23.8a58,58,0,0,0,31.34-51.51c0-.28,0-.56,0-.85H374.29c0,.28,0,.56,0,.85A31.24,31.24,0,0,1,357.52,204.4Z"/>
      <g class="cls-102">
        <g>
          <circle class="cls-50" cx="376.34" cy="117.28" r="2.85"/>
          <circle class="cls-15" cx="376.34" cy="128.54" r="2.85"/>
          <circle class="cls-15" cx="376.34" cy="139.8" r="2.85"/>
          <circle class="cls-15" cx="376.34" cy="151.06" r="2.85"/>
          <circle class="cls-15" cx="376.34" cy="162.31" r="2.85"/>
          <circle class="cls-15" cx="376.34" cy="173.57" r="2.85"/>
        </g>
        <g>
          <circle class="cls-15" cx="368.41" cy="122.91" r="2.85"/>
          <circle class="cls-15" cx="368.41" cy="134.17" r="2.85"/>
          <circle class="cls-15" cx="368.41" cy="145.43" r="2.85"/>
          <circle class="cls-15" cx="368.41" cy="156.69" r="2.85"/>
          <circle class="cls-50" cx="368.41" cy="167.94" r="2.85"/>
        </g>
        <g>
          <circle class="cls-50" cx="360.48" cy="117.28" r="2.85"/>
          <circle class="cls-15" cx="360.48" cy="128.54" r="2.85"/>
          <circle class="cls-15" cx="360.48" cy="139.8" r="2.85"/>
          <circle class="cls-15" cx="360.48" cy="151.06" r="2.85"/>
          <circle class="cls-50" cx="360.48" cy="162.31" r="2.85"/>
          <circle class="cls-50" cx="360.48" cy="173.57" r="2.85"/>
        </g>
        <g>
          <circle class="cls-15" cx="352.55" cy="122.91" r="2.85"/>
          <circle class="cls-15" cx="352.55" cy="134.17" r="2.85"/>
          <circle class="cls-15" cx="352.55" cy="145.43" r="2.85"/>
          <circle class="cls-50" cx="352.55" cy="156.69" r="2.85"/>
          <circle class="cls-50" cx="352.55" cy="167.94" r="2.85"/>
        </g>
        <g>
          <circle class="cls-15" cx="344.62" cy="117.28" r="2.85"/>
          <circle class="cls-15" cx="344.62" cy="128.54" r="2.85"/>
          <circle class="cls-15" cx="344.62" cy="139.8" r="2.85"/>
          <circle class="cls-50" cx="344.62" cy="151.06" r="2.85"/>
          <circle class="cls-50" cx="344.62" cy="162.31" r="2.85"/>
          <circle class="cls-50" cx="344.62" cy="173.57" r="2.85"/>
        </g>
        <g>
          <circle class="cls-50" cx="408.06" cy="117.28" r="2.85"/>
          <circle class="cls-50" cx="408.06" cy="128.54" r="2.85"/>
          <circle class="cls-50" cx="408.06" cy="139.8" r="2.85"/>
          <circle class="cls-50" cx="408.06" cy="151.06" r="2.85"/>
          <circle class="cls-50" cx="408.06" cy="162.31" r="2.85"/>
          <circle class="cls-50" cx="408.06" cy="173.57" r="2.85"/>
        </g>
        <g>
          <circle class="cls-50" cx="400.13" cy="122.91" r="2.85"/>
          <circle class="cls-50" cx="400.13" cy="134.17" r="2.85"/>
          <circle class="cls-50" cx="400.13" cy="145.43" r="2.85"/>
          <circle class="cls-103" cx="400.13" cy="156.69" r="2.85"/>
          <circle class="cls-15" cx="400.13" cy="167.94" r="2.85"/>
        </g>
        <g>
          <circle class="cls-50" cx="392.2" cy="117.28" r="2.85"/>
          <circle class="cls-50" cx="392.2" cy="128.54" r="2.85"/>
          <circle class="cls-50" cx="392.2" cy="139.8" r="2.85"/>
          <circle class="cls-15" cx="392.2" cy="151.06" r="2.85"/>
          <circle class="cls-15" cx="392.2" cy="162.31" r="2.85"/>
          <circle class="cls-15" cx="392.2" cy="173.57" r="2.85"/>
        </g>
        <g>
          <circle class="cls-50" cx="384.27" cy="122.91" r="2.85"/>
          <circle class="cls-15" cx="384.27" cy="134.17" r="2.85"/>
          <circle class="cls-15" cx="384.27" cy="145.43" r="2.85"/>
          <circle class="cls-15" cx="384.27" cy="156.69" r="2.85"/>
          <circle class="cls-15" cx="384.27" cy="167.94" r="2.85"/>
        </g>
        <g>
          <circle class="cls-15" cx="336.69" cy="122.91" r="2.85"/>
          <circle class="cls-15" cx="336.69" cy="134.17" r="2.85"/>
          <circle class="cls-15" cx="336.69" cy="145.43" r="2.85"/>
          <circle class="cls-50" cx="336.69" cy="156.69" r="2.85"/>
          <circle class="cls-50" cx="336.69" cy="167.94" r="2.85"/>
        </g>
        <g>
          <circle class="cls-50" cx="328.76" cy="117.28" r="2.85"/>
          <circle class="cls-15" cx="328.76" cy="128.54" r="2.85"/>
          <circle class="cls-15" cx="328.76" cy="139.8" r="2.85"/>
          <circle class="cls-15" cx="328.76" cy="151.06" r="2.85"/>
          <circle class="cls-50" cx="328.76" cy="162.31" r="2.85"/>
          <circle class="cls-50" cx="328.76" cy="173.57" r="2.85"/>
        </g>
        <g>
          <circle class="cls-15" cx="320.83" cy="122.91" r="2.85"/>
          <circle class="cls-15" cx="320.83" cy="134.17" r="2.85"/>
          <circle class="cls-15" cx="320.83" cy="145.43" r="2.85"/>
          <circle class="cls-15" cx="320.83" cy="156.69" r="2.85"/>
          <circle class="cls-50" cx="320.83" cy="167.94" r="2.85"/>
        </g>
        <g>
          <circle class="cls-50" cx="312.9" cy="117.28" r="2.85"/>
          <circle class="cls-15" cx="312.9" cy="128.54" r="2.85"/>
          <circle class="cls-15" cx="312.9" cy="139.8" r="2.85"/>
          <circle class="cls-15" cx="312.9" cy="151.06" r="2.85"/>
          <circle class="cls-15" cx="312.9" cy="162.31" r="2.85"/>
          <circle class="cls-15" cx="312.9" cy="173.57" r="2.85"/>
        </g>
        <g>
          <circle class="cls-50" cx="304.97" cy="122.91" r="2.85"/>
          <circle class="cls-15" cx="304.97" cy="134.17" r="2.85"/>
          <circle class="cls-15" cx="304.97" cy="145.43" r="2.85"/>
          <circle class="cls-15" cx="304.97" cy="156.69" r="2.85"/>
          <circle class="cls-15" cx="304.97" cy="167.94" r="2.85"/>
        </g>
        <g>
          <circle class="cls-50" cx="297.04" cy="117.28" r="2.85"/>
          <circle class="cls-50" cx="297.04" cy="128.54" r="2.85"/>
          <circle class="cls-15" cx="297.04" cy="139.8" r="2.85"/>
          <circle class="cls-15" cx="297.04" cy="151.06" r="2.85"/>
          <circle class="cls-15" cx="297.04" cy="162.31" r="2.85"/>
          <circle class="cls-15" cx="297.04" cy="173.57" r="2.85"/>
        </g>
        <g>
          <circle class="cls-50" cx="289.11" cy="122.91" r="2.85"/>
          <circle class="cls-50" cx="289.11" cy="134.17" r="2.85"/>
          <circle class="cls-50" cx="289.11" cy="145.43" r="2.85"/>
          <circle class="cls-15" cx="289.11" cy="156.69" r="2.85"/>
          <circle class="cls-15" cx="289.11" cy="167.94" r="2.85"/>
        </g>
        <g>
          <circle class="cls-50" cx="281.18" cy="117.28" r="2.85"/>
          <circle class="cls-50" cx="281.18" cy="128.54" r="2.85"/>
          <circle class="cls-50" cx="281.18" cy="139.8" r="2.85"/>
          <circle class="cls-50" cx="281.18" cy="151.06" r="2.85"/>
          <circle class="cls-50" cx="281.18" cy="162.31" r="2.85"/>
          <circle class="cls-50" cx="281.18" cy="173.57" r="2.85"/>
        </g>
        <g>
          <circle class="cls-50" cx="273.25" cy="122.91" r="2.85"/>
          <circle class="cls-50" cx="273.25" cy="134.17" r="2.85"/>
          <circle class="cls-50" cx="273.25" cy="145.43" r="2.85"/>
          <circle class="cls-50" cx="273.25" cy="156.69" r="2.85"/>
          <circle class="cls-50" cx="273.25" cy="167.94" r="2.85"/>
        </g>
      </g>
      <path class="cls-1" d="M374.29,175.84c0,.28,0,.56,0,.85a31.26,31.26,0,0,1-62.52,0c0-.28,0-.57,0-.85H285c0,.28,0,.56,0,.85a58,58,0,0,0,116.07,0c0-.28,0-.56,0-.85Z"/>
      <g class="cls-104">
        <g>
          <rect class="cls-15" x="330.69" y="168.59" width="4.51" height="86.28"/>
          <rect class="cls-15" x="321.85" y="168.59" width="4.51" height="86.28"/>
          <rect class="cls-15" x="304.18" y="168.59" width="4.51" height="86.28"/>
          <rect class="cls-15" x="295.35" y="168.59" width="4.51" height="86.28"/>
          <rect class="cls-15" x="286.51" y="168.59" width="4.51" height="86.28"/>
          <rect class="cls-105" x="277.67" y="168.59" width="4.51" height="86.28"/>
          <rect class="cls-105" x="374.87" y="168.59" width="4.51" height="86.28"/>
          <rect class="cls-15" x="366.04" y="168.59" width="4.51" height="86.28"/>
          <rect class="cls-15" x="357.2" y="168.59" width="4.51" height="86.28"/>
          <rect class="cls-15" x="348.36" y="168.59" width="4.51" height="86.28"/>
          <rect class="cls-15" x="339.53" y="168.59" width="4.51" height="86.28"/>
          <rect class="cls-15" x="313.02" y="168.59" width="4.51" height="86.28"/>
        </g>
      </g>
      <path class="cls-106" d="M357.52,204.4q6.14,11.89,12.22,23.8a58,58,0,0,0,31.34-51.51c0-.28,0-.56,0-.85H374.29c0,.28,0,.56,0,.85A31.24,31.24,0,0,1,357.52,204.4Z"/>
    </g>
    <g>
      <path class="cls-1" d="M191.91,234.72s52.47-71.16,52.47-78.89c0-8.24-5.39-13.29-13-13.29-8.24,0-13.79,5-14.3,17H193.41c.51-22,13.29-40.88,37.85-40.88,22.2,0,37.17,15,37.17,37.18,0,17.33-28.41,53.38-28.41,53.38h34.65v25.51Z"/>
      <g class="cls-107">
        <g>
          <g>
            <g>
              <circle class="cls-50" cx="194.83" cy="110.93" r="2.92"/>
              <circle class="cls-50" cx="206.37" cy="110.93" r="2.92"/>
              <circle class="cls-50" cx="217.91" cy="110.93" r="2.92"/>
              <circle class="cls-50" cx="229.45" cy="110.93" r="2.92"/>
              <circle class="cls-50" cx="240.99" cy="110.93" r="2.92"/>
              <circle class="cls-50" cx="252.53" cy="110.93" r="2.92"/>
            </g>
            <g>
              <circle class="cls-50" cx="200.6" cy="119.11" r="2.92"/>
              <circle class="cls-50" cx="212.14" cy="119.11" r="2.92"/>
              <circle class="cls-15" cx="223.68" cy="119.11" r="2.92"/>
              <circle class="cls-15" cx="235.22" cy="119.11" r="2.92"/>
              <circle class="cls-15" cx="246.76" cy="119.11" r="2.92"/>
            </g>
            <g>
              <circle class="cls-50" cx="194.83" cy="127.29" r="2.92"/>
              <circle class="cls-15" cx="206.37" cy="127.29" r="2.92"/>
              <circle class="cls-15" cx="217.91" cy="127.29" r="2.92"/>
              <circle class="cls-15" cx="229.45" cy="127.29" r="2.92"/>
              <circle class="cls-15" cx="240.99" cy="127.29" r="2.92"/>
              <circle class="cls-15" cx="252.53" cy="127.29" r="2.92"/>
            </g>
            <g>
              <circle class="cls-15" cx="200.6" cy="135.47" r="2.92"/>
              <circle class="cls-15" cx="212.14" cy="135.47" r="2.92"/>
              <circle class="cls-15" cx="223.68" cy="135.47" r="2.92"/>
              <circle class="cls-15" cx="235.22" cy="135.47" r="2.92"/>
              <circle class="cls-15" cx="246.76" cy="135.47" r="2.92"/>
            </g>
            <g>
              <circle class="cls-15" cx="194.83" cy="143.65" r="2.92"/>
              <circle class="cls-15" cx="206.37" cy="143.65" r="2.92"/>
              <circle class="cls-15" cx="217.91" cy="143.65" r="2.92"/>
              <circle class="cls-15" cx="229.45" cy="143.65" r="2.92"/>
              <circle class="cls-15" cx="240.99" cy="143.65" r="2.92"/>
              <circle class="cls-15" cx="252.53" cy="143.65" r="2.92"/>
            </g>
            <g>
              <circle class="cls-15" cx="200.6" cy="151.83" r="2.92"/>
              <circle class="cls-15" cx="212.14" cy="151.83" r="2.92"/>
              <circle class="cls-50" cx="223.68" cy="151.83" r="2.92"/>
              <circle class="cls-50" cx="235.22" cy="151.83" r="2.92"/>
              <circle class="cls-15" cx="246.76" cy="151.83" r="2.92"/>
            </g>
            <g>
              <circle class="cls-15" cx="194.83" cy="160" r="2.92"/>
              <circle class="cls-15" cx="206.37" cy="160" r="2.92"/>
              <circle class="cls-15" cx="217.91" cy="160" r="2.92"/>
              <circle class="cls-50" cx="229.45" cy="160" r="2.92"/>
              <circle class="cls-15" cx="240.99" cy="160" r="2.92"/>
              <circle class="cls-15" cx="252.53" cy="160" r="2.92"/>
            </g>
            <g>
              <circle class="cls-50" cx="200.6" cy="168.18" r="2.92"/>
              <circle class="cls-50" cx="212.14" cy="168.18" r="2.92"/>
              <circle class="cls-50" cx="223.68" cy="168.18" r="2.92"/>
              <circle class="cls-108" cx="235.22" cy="168.18" r="2.92"/>
              <circle class="cls-15" cx="246.76" cy="168.18" r="2.92"/>
            </g>
            <g>
              <circle class="cls-50" cx="194.83" cy="176.36" r="2.92"/>
              <circle class="cls-50" cx="206.37" cy="176.36" r="2.92"/>
              <circle class="cls-50" cx="217.91" cy="176.36" r="2.92"/>
              <circle class="cls-50" cx="229.45" cy="176.36" r="2.92"/>
              <circle class="cls-15" cx="240.99" cy="176.36" r="2.92"/>
              <circle class="cls-15" cx="252.53" cy="176.36" r="2.92"/>
            </g>
            <g>
              <circle class="cls-50" cx="200.6" cy="184.54" r="2.92"/>
              <circle class="cls-50" cx="212.14" cy="184.54" r="2.92"/>
              <circle class="cls-50" cx="223.68" cy="184.54" r="2.92"/>
              <circle class="cls-15" cx="235.22" cy="184.54" r="2.92"/>
              <circle class="cls-15" cx="246.76" cy="184.54" r="2.92"/>
            </g>
            <g>
              <circle class="cls-50" cx="194.83" cy="192.72" r="2.92"/>
              <circle class="cls-50" cx="206.37" cy="192.72" r="2.92"/>
              <circle class="cls-50" cx="217.91" cy="192.72" r="2.92"/>
              <circle class="cls-15" cx="229.45" cy="192.72" r="2.92"/>
              <circle class="cls-15" cx="240.99" cy="192.72" r="2.92"/>
              <circle class="cls-15" cx="252.53" cy="192.72" r="2.92"/>
            </g>
            <g>
              <circle class="cls-50" cx="200.6" cy="200.9" r="2.92"/>
              <circle class="cls-50" cx="212.14" cy="200.9" r="2.92"/>
              <circle class="cls-15" cx="223.68" cy="200.9" r="2.92"/>
              <circle class="cls-15" cx="235.22" cy="200.9" r="2.92"/>
              <circle class="cls-15" cx="246.76" cy="200.9" r="2.92"/>
            </g>
            <g>
              <circle class="cls-50" cx="194.83" cy="209.08" r="2.92"/>
              <circle class="cls-50" cx="206.37" cy="209.08" r="2.92"/>
              <circle class="cls-15" cx="217.91" cy="209.08" r="2.92"/>
              <circle class="cls-15" cx="229.45" cy="209.08" r="2.92"/>
              <circle class="cls-15" cx="240.99" cy="209.08" r="2.92"/>
              <circle class="cls-50" cx="252.53" cy="209.08" r="2.92"/>
            </g>
            <g>
              <circle class="cls-50" cx="200.6" cy="217.26" r="2.92"/>
              <circle class="cls-50" cx="212.14" cy="217.26" r="2.92"/>
              <circle class="cls-50" cx="223.68" cy="217.26" r="2.92"/>
              <circle class="cls-50" cx="235.22" cy="217.26" r="2.92"/>
              <circle class="cls-50" cx="246.76" cy="217.26" r="2.92"/>
            </g>
          </g>
          <g>
            <g>
              <circle class="cls-50" cx="257.47" cy="119.22" r="2.92"/>
              <circle class="cls-50" cx="269.01" cy="119.22" r="2.92"/>
              <path class="cls-50" d="M279.22,116.64a2.89,2.89,0,0,0,0,5.16Z"/>
            </g>
            <g>
              <circle class="cls-50" cx="263.24" cy="127.4" r="2.92"/>
              <circle class="cls-50" cx="274.78" cy="127.4" r="2.92"/>
            </g>
            <g>
              <circle class="cls-15" cx="257.47" cy="135.58" r="2.92"/>
              <circle class="cls-50" cx="269.01" cy="135.58" r="2.92"/>
              <path class="cls-50" d="M279.22,133a2.89,2.89,0,0,0,0,5.16Z"/>
            </g>
            <g>
              <circle class="cls-15" cx="263.24" cy="143.76" r="2.92"/>
              <circle class="cls-50" cx="274.78" cy="143.76" r="2.92"/>
            </g>
            <g>
              <circle class="cls-15" cx="257.47" cy="151.94" r="2.92"/>
              <circle class="cls-15" cx="269.01" cy="151.94" r="2.92"/>
              <path class="cls-50" d="M279.22,149.36a2.89,2.89,0,0,0,0,5.16Z"/>
            </g>
            <g>
              <circle class="cls-15" cx="263.24" cy="160.12" r="2.92"/>
              <circle class="cls-50" cx="274.78" cy="160.12" r="2.92"/>
            </g>
            <g>
              <circle class="cls-15" cx="257.47" cy="168.3" r="2.92"/>
              <circle class="cls-50" cx="269.01" cy="168.3" r="2.92"/>
              <path class="cls-50" d="M279.22,165.72a2.89,2.89,0,0,0,0,5.16Z"/>
            </g>
            <g>
              <circle class="cls-15" cx="263.24" cy="176.48" r="2.92"/>
              <circle class="cls-50" cx="274.78" cy="176.48" r="2.92"/>
            </g>
            <g>
              <circle class="cls-15" cx="257.47" cy="184.65" r="2.92"/>
              <circle class="cls-50" cx="269.01" cy="184.65" r="2.92"/>
              <path class="cls-50" d="M279.22,182.07a2.89,2.89,0,0,0,0,5.16Z"/>
            </g>
            <g>
              <circle class="cls-50" cx="263.24" cy="192.83" r="2.92"/>
              <circle class="cls-50" cx="274.78" cy="192.83" r="2.92"/>
            </g>
            <g>
              <circle class="cls-50" cx="257.47" cy="201.01" r="2.92"/>
              <circle class="cls-50" cx="269.01" cy="201.01" r="2.92"/>
              <path class="cls-50" d="M279.22,198.43a2.89,2.89,0,0,0,0,5.16Z"/>
            </g>
            <g>
              <circle class="cls-50" cx="263.24" cy="209.19" r="2.92"/>
              <circle class="cls-50" cx="274.78" cy="209.19" r="2.92"/>
            </g>
            <g>
              <circle class="cls-50" cx="257.47" cy="217.37" r="2.92"/>
              <circle class="cls-50" cx="269.01" cy="217.37" r="2.92"/>
              <path class="cls-50" d="M279.22,214.79a2.89,2.89,0,0,0,0,5.16Z"/>
            </g>
            <g>
              <circle class="cls-50" cx="263.24" cy="225.55" r="2.92"/>
              <circle class="cls-50" cx="274.78" cy="225.55" r="2.92"/>
            </g>
          </g>
        </g>
      </g>
      <g>
        <polygon class="cls-109" points="240.02 209.21 222.19 234.72 274.67 234.72 274.67 209.21 240.02 209.21"/>
        <path class="cls-16" d="M210.35,209.23c-10.34,14.54-18.44,25.49-18.44,25.49h30.28L240,209.21Z"/>
      </g>
      <g class="cls-110">
        <rect class="cls-111" x="267.59" y="184.21" width="4.39" height="65.22"/>
        <rect class="cls-112" x="259.05" y="184.21" width="4.38" height="65.22"/>
        <rect class="cls-113" x="250.51" y="184.21" width="4.38" height="65.22"/>
        <rect class="cls-114" x="241.97" y="184.21" width="4.39" height="65.22"/>
        <rect class="cls-115" x="233.43" y="184.21" width="4.39" height="65.22"/>
        <rect class="cls-116" x="224.89" y="184.21" width="4.39" height="65.22"/>
      </g>
    </g>
    <g>
      <g>
        <g>
          <polygon class="cls-15" points="450.45 118.66 450.45 119.43 451.22 118.66 450.45 118.66"/>
          <polygon class="cls-1" points="450.45 153.92 450.45 234.72 474.84 234.72 474.84 129.53 450.45 153.92"/>
          <polygon class="cls-117" points="416.56 156.62 416.56 192.22 450.45 153.92 450.45 119.43 416.56 156.62"/>
          <polygon class="cls-16" points="474.84 118.66 451.22 118.66 450.45 119.43 450.45 153.92 474.84 129.53 474.84 118.66"/>
        </g>
        <g class="cls-118">
          <g>
            <circle class="cls-50" cx="435.02" cy="130.25" r="2.8"/>
            <circle class="cls-50" cx="446.08" cy="130.25" r="2.8"/>
            <circle class="cls-50" cx="457.14" cy="130.25" r="2.8"/>
            <circle class="cls-50" cx="468.21" cy="130.25" r="2.8"/>
            <circle class="cls-50" cx="479.27" cy="130.25" r="2.8"/>
            <circle class="cls-50" cx="490.33" cy="130.25" r="2.8"/>
          </g>
          <g>
            <circle class="cls-50" cx="440.55" cy="138.09" r="2.8"/>
            <circle class="cls-50" cx="451.61" cy="138.09" r="2.8"/>
            <circle class="cls-15" cx="462.67" cy="138.09" r="2.8"/>
            <circle class="cls-15" cx="473.74" cy="138.09" r="2.8"/>
            <circle class="cls-50" cx="484.8" cy="138.09" r="2.8"/>
          </g>
          <g>
            <circle class="cls-50" cx="435.02" cy="145.93" r="2.8"/>
            <circle class="cls-50" cx="446.08" cy="145.93" r="2.8"/>
            <circle class="cls-15" cx="457.14" cy="145.93" r="2.8"/>
            <circle class="cls-15" cx="468.21" cy="145.93" r="2.8"/>
            <circle class="cls-50" cx="479.27" cy="145.93" r="2.8"/>
            <circle class="cls-50" cx="490.33" cy="145.93" r="2.8"/>
          </g>
          <g>
            <circle class="cls-50" cx="440.55" cy="153.77" r="2.8"/>
            <circle class="cls-15" cx="451.61" cy="153.77" r="2.8"/>
            <circle class="cls-15" cx="462.67" cy="153.77" r="2.8"/>
            <circle class="cls-15" cx="473.74" cy="153.77" r="2.8"/>
            <circle class="cls-50" cx="484.8" cy="153.77" r="2.8"/>
          </g>
          <g>
            <circle class="cls-50" cx="435.02" cy="161.61" r="2.8"/>
            <circle class="cls-50" cx="446.08" cy="161.61" r="2.8"/>
            <circle class="cls-15" cx="457.14" cy="161.61" r="2.8"/>
            <circle class="cls-15" cx="468.21" cy="161.61" r="2.8"/>
            <circle class="cls-50" cx="479.27" cy="161.61" r="2.8"/>
            <circle class="cls-50" cx="490.33" cy="161.61" r="2.8"/>
          </g>
          <g>
            <circle class="cls-50" cx="440.55" cy="169.45" r="2.8"/>
            <circle class="cls-15" cx="451.61" cy="169.45" r="2.8"/>
            <circle class="cls-15" cx="462.67" cy="169.45" r="2.8"/>
            <circle class="cls-15" cx="473.74" cy="169.45" r="2.8"/>
            <circle class="cls-50" cx="484.8" cy="169.45" r="2.8"/>
          </g>
          <g>
            <circle class="cls-50" cx="435.02" cy="177.29" r="2.8"/>
            <circle class="cls-50" cx="446.08" cy="177.29" r="2.8"/>
            <circle class="cls-15" cx="457.14" cy="177.29" r="2.8"/>
            <circle class="cls-15" cx="468.21" cy="177.29" r="2.8"/>
            <circle class="cls-50" cx="479.27" cy="177.29" r="2.8"/>
            <circle class="cls-50" cx="490.33" cy="177.29" r="2.8"/>
          </g>
          <g>
            <circle class="cls-50" cx="440.55" cy="185.14" r="2.8"/>
            <circle class="cls-15" cx="451.61" cy="185.14" r="2.8"/>
            <circle class="cls-15" cx="462.67" cy="185.14" r="2.8"/>
            <circle class="cls-15" cx="473.74" cy="185.14" r="2.8"/>
            <circle class="cls-50" cx="484.8" cy="185.14" r="2.8"/>
          </g>
          <g>
            <circle class="cls-50" cx="435.02" cy="192.98" r="2.8"/>
            <circle class="cls-50" cx="446.08" cy="192.98" r="2.8"/>
            <circle class="cls-15" cx="457.14" cy="192.98" r="2.8"/>
            <circle class="cls-15" cx="468.21" cy="192.98" r="2.8"/>
            <circle class="cls-50" cx="479.27" cy="192.98" r="2.8"/>
            <circle class="cls-50" cx="490.33" cy="192.98" r="2.8"/>
          </g>
          <g>
            <circle class="cls-50" cx="440.55" cy="200.82" r="2.8"/>
            <circle class="cls-15" cx="451.61" cy="200.82" r="2.8"/>
            <circle class="cls-15" cx="462.67" cy="200.82" r="2.8"/>
            <circle class="cls-15" cx="473.74" cy="200.82" r="2.8"/>
            <circle class="cls-50" cx="484.8" cy="200.82" r="2.8"/>
          </g>
          <g>
            <circle class="cls-50" cx="435.02" cy="208.66" r="2.8"/>
            <circle class="cls-50" cx="446.08" cy="208.66" r="2.8"/>
            <circle class="cls-15" cx="457.14" cy="208.66" r="2.8"/>
            <circle class="cls-15" cx="468.21" cy="208.66" r="2.8"/>
            <circle class="cls-50" cx="479.27" cy="208.66" r="2.8"/>
            <circle class="cls-50" cx="490.33" cy="208.66" r="2.8"/>
          </g>
          <g>
            <circle class="cls-50" cx="440.55" cy="216.5" r="2.8"/>
            <circle class="cls-15" cx="451.61" cy="216.5" r="2.8"/>
            <circle class="cls-15" cx="462.67" cy="216.5" r="2.8"/>
            <circle class="cls-15" cx="473.74" cy="216.5" r="2.8"/>
            <circle class="cls-50" cx="484.8" cy="216.5" r="2.8"/>
          </g>
          <g>
            <circle class="cls-50" cx="435.02" cy="224.34" r="2.8"/>
            <circle class="cls-50" cx="446.08" cy="224.34" r="2.8"/>
            <circle class="cls-15" cx="457.14" cy="224.34" r="2.8"/>
            <circle class="cls-15" cx="468.21" cy="224.34" r="2.8"/>
            <circle class="cls-50" cx="479.27" cy="224.34" r="2.8"/>
            <circle class="cls-50" cx="490.33" cy="224.34" r="2.8"/>
          </g>
          <g>
            <circle class="cls-50" cx="440.55" cy="232.18" r="2.8"/>
            <circle class="cls-15" cx="451.61" cy="232.18" r="2.8"/>
            <circle class="cls-15" cx="462.67" cy="232.18" r="2.8"/>
            <circle class="cls-15" cx="473.74" cy="232.18" r="2.8"/>
            <circle class="cls-50" cx="484.8" cy="232.18" r="2.8"/>
          </g>
        </g>
      </g>
      <g class="cls-119">
        <g>
          <rect class="cls-120" x="439.19" y="115.63" width="4.21" height="80.39"/>
          <rect class="cls-121" x="430.95" y="115.63" width="4.21" height="80.39"/>
          <rect class="cls-122" x="414.49" y="115.63" width="4.21" height="80.39"/>
          <rect class="cls-105" x="406.25" y="115.63" width="4.21" height="80.39"/>
          <rect class="cls-105" x="398.02" y="115.63" width="4.21" height="80.39"/>
          <rect class="cls-105" x="389.78" y="115.63" width="4.21" height="80.39"/>
          <rect class="cls-105" x="480.36" y="115.63" width="4.2" height="80.39"/>
          <rect class="cls-105" x="472.12" y="115.63" width="4.2" height="80.39"/>
          <rect class="cls-105" x="463.89" y="115.63" width="4.21" height="80.39"/>
          <rect class="cls-105" x="455.65" y="115.63" width="4.21" height="80.39"/>
          <rect class="cls-123" x="447.42" y="115.63" width="4.2" height="80.39"/>
          <rect class="cls-124" x="422.72" y="115.63" width="4.2" height="80.39"/>
        </g>
      </g>
    </g>
  </g>
  <g>
    <path class="cls-16" d="M538,224.43q-1.78-6.63-3.55-13.26c-.12-.44-.35-.89.08-1.32,3.5-3.45,6.84-7.07,10.51-10.35a2.4,2.4,0,0,1,.94,1.3,58.22,58.22,0,0,1,1.46,5.65,3.61,3.61,0,0,1-1.09,1.81c-1.12,1.09-2.2,2.21-3.33,3.3a1.65,1.65,0,0,0-.68,1c.33,1.69.9,3.32,1.3,5a3.67,3.67,0,0,1,.21,1.61,2.57,2.57,0,0,1-.59,1.39c-1.2,1.22-2.39,2.45-3.64,3.62C539.11,224.65,538.59,225,538,224.43Z"/>
    <path class="cls-15" d="M541.53,212.33a56.21,56.21,0,0,1,4.39-4.59l1-1c.53-.47,1.12-.29,1.7-.14,3.84,1,7.66,2,11.49,3.07a2.39,2.39,0,0,1,1.42,1c-1.48,1.81-3.27,3.34-4.87,5-.46.49-.93.29-1.41.16l-6.29-1.64a1.08,1.08,0,0,1-1.05.31c-1.74-.43-3.49-.82-5.19-1.4C542.23,213,541.95,212.55,541.53,212.33Z"/>
    <path class="cls-1" d="M561.5,210.64l-14.61-3.92L545,199.51l13.88,3.65a1.15,1.15,0,0,1,.93.92C560.35,206.27,560.93,208.45,561.5,210.64Z"/>
    <path class="cls-15" d="M538,224.43a.5.5,0,0,0,.59,0,50.79,50.79,0,0,0,4.81-5,1.12,1.12,0,0,1,1.2-.18c1.57.42,3.14.81,4.71,1.25a3.09,3.09,0,0,1,1.46,1c-1.47,1.9-3.34,3.4-5,5.15a.76.76,0,0,1-.83.18L538.38,225A.51.51,0,0,1,538,224.43Z"/>
    <path class="cls-1" d="M550.72,221.4a65.08,65.08,0,0,1-7.36-2.07l-1.82-7a76.11,76.11,0,0,1,7.4,1.88Z"/>
  </g>
  <g>
    <path class="cls-4" d="M232.35,263.54c-1-.78-1.76-1.74-2.67-2.58-.24-.23-.12-.46-.06-.69.24-.94.48-1.88.76-2.81a.87.87,0,0,0-.27-1c-1.63-1.59-3.23-3.22-4.86-4.81a.86.86,0,0,1-.26-1c.34-1.07.53-2.19.94-3.24a1.34,1.34,0,0,1,1,.48c2.41,2.44,4.85,4.85,7.27,7.28a1.22,1.22,0,0,1,.46.73c-.28,1.57-.79,3.09-1.18,4.63-.18.72-.38,1.43-.56,2.15A1.31,1.31,0,0,1,232.35,263.54Z"/>
    <path class="cls-125" d="M234.44,255.83,227,248.38c-.34-.33-.69-.65-1-1a35.37,35.37,0,0,1,3.92-1.13c1.12-.32,2.25-.61,3.38-.91.22-.06.41-.12.61.09.85.89,1.72,1.77,2.58,2.65a1.42,1.42,0,0,1-1,.63c-.52.12-1,.25-1.56.41s-.46.35-.15.66l1.19,1.18a1.54,1.54,0,0,1,.51.92l2.79,2.93a1.49,1.49,0,0,1-.88.57c-.7.17-1.38.4-2.09.54C235,256,234.68,256.12,234.44,255.83Z"/>
    <path class="cls-126" d="M234.44,255.83l3.78-1-1.92,7.36a.56.56,0,0,1-.43.46c-1.18.28-2.33.68-3.52.88Z"/>
    <path class="cls-127" d="M235.43,251.91l-2.64-2.8,3.63-1A33,33,0,0,1,235.43,251.91Z"/>
    <path class="cls-4" d="M249.57,251.73a2.57,2.57,0,0,1,.62-.7c2.47-2.47,5-4.94,7.42-7.42a.89.89,0,0,1,1-.27c2.19.61,4.4,1.17,6.6,1.78a.88.88,0,0,0,1-.27c.68-.72,1.4-1.41,2.1-2.11.16-.16.29-.32.58-.24,1.15.33,2.3.63,3.46,1,.07,0,.12.12.17.18a3.57,3.57,0,0,1-.85,1.11c-1.22,1.2-2.4,2.43-3.63,3.62-.35.34-.62,1-1.23.8s-.52-.87-.69-1.36-.23-.78-.34-1.17c-.16-.56-.29-.59-.71-.18s-1.09,1.07-1.62,1.62c-.12.13-.22.29-.42.32-1.07-.11-2.07-.55-3.12-.75a.91.91,0,0,0-1.33.4l-4.4,4.39a1.17,1.17,0,0,1-.85.48A7.1,7.1,0,0,1,249.57,251.73Z"/>
    <path class="cls-128" d="M263,248.21a20.89,20.89,0,0,1,2.51-2.63c.3-.3.36,0,.42.25.24.89.49,1.78.71,2.68.12.51.29.53.64.17q2.26-2.28,4.54-4.55c.2-.2.37-.46.69-.52.31,1.11.62,2.21.93,3.32a.6.6,0,0,1-.15.67l-8.09,8.07a1,1,0,0,1-.23.13,1.36,1.36,0,0,1-.57-.88c-.52-2-1.05-3.94-1.56-5.92C262.77,248.71,262.72,248.43,263,248.21Z"/>
    <path class="cls-129" d="M242.89,229.53q-.94-3.49-1.87-7c-.06-.23-.18-.47,0-.69,1.84-1.82,3.6-3.72,5.54-5.45a1.27,1.27,0,0,1,.5.69,30.68,30.68,0,0,1,.77,3,1.9,1.9,0,0,1-.58,1c-.59.57-1.16,1.17-1.75,1.74a.87.87,0,0,0-.36.54c.18.89.48,1.75.68,2.63a1.93,1.93,0,0,1,.11.85,1.35,1.35,0,0,1-.31.73c-.63.64-1.26,1.29-1.92,1.91C243.5,229.65,243.22,229.85,242.89,229.53Z"/>
    <path class="cls-130" d="M263,248.21l2,7.59c-1.17-.3-2.34-.61-3.51-.91-.33-.08-.39-.32-.47-.59-.3-1.1-.61-2.2-.92-3.3-.07-.06,0,0-.06,0a6.49,6.49,0,0,1-.92-3.84A21.71,21.71,0,0,1,263,248.21Z"/>
    <path class="cls-4" d="M244.78,223.16a29.62,29.62,0,0,1,2.31-2.42l.51-.54c.28-.25.59-.15.9-.07,2,.51,4,1.08,6.05,1.62a1.26,1.26,0,0,1,.75.52c-.78,1-1.72,1.76-2.56,2.66-.24.26-.49.15-.74.09l-3.32-.86a.57.57,0,0,1-.55.16c-.92-.23-1.84-.43-2.74-.74C245.15,223.5,245,223.28,244.78,223.16Z"/>
    <path class="cls-131" d="M255.3,222.27l-7.7-2.07-1-3.8,7.31,1.92a.61.61,0,0,1,.49.48C254.69,220,255,221.12,255.3,222.27Z"/>
    <path class="cls-132" d="M259.09,247.14l1,3.87L255,256.09c-.17.17-.37.33-.55.49a1.63,1.63,0,0,1-.63-1.05c-.14-.67-.39-1.32-.52-2-.06-.28-.14-.57.13-.8l5.1-5C258.69,247.5,258.89,247.32,259.09,247.14Z"/>
    <path class="cls-133" d="M253.39,252.72l1,3.86-3.51-.9a.55.55,0,0,1-.45-.43c-.29-1.17-.59-2.35-.89-3.52Z"/>
    <path class="cls-4" d="M242.89,229.53a.26.26,0,0,0,.31,0,26.76,26.76,0,0,0,2.54-2.66.59.59,0,0,1,.63-.1c.83.22,1.66.43,2.48.66a1.63,1.63,0,0,1,.77.53c-.77,1-1.76,1.79-2.61,2.71a.4.4,0,0,1-.44.09l-3.45-.92A.27.27,0,0,1,242.89,229.53Z"/>
    <path class="cls-134" d="M249.62,227.94a34.29,34.29,0,0,1-3.88-1.09l-1-3.69a40.11,40.11,0,0,1,3.9,1Z"/>
  </g>
</svg>
