<svg xmlns="http://www.w3.org/2000/svg" xmlns:xlink="http://www.w3.org/1999/xlink" viewBox="0 0 318 226">
  <defs>
    <path id="reuse-2" fill="#FFF" d="M14.2 4.39h3.47v1H14.2zM14.65 7.42h3.47v1h-3.47zM12.99 1.97h3.47v1h-3.47zM10.42.45h3.47v1h-3.47z" mask="url(#p)"/>
    <path id="reuse-1" fill="#EE902E" d="M18.12 17.42v.15H9.06v-.15h9.06zm0-1.52v.15H9.06v-.15h9.06zm0-2.27v.3H9.06v-.3h9.06zm0-3.03v.3H9.06v-.3h9.06zm0-3.03v.3H9.06v-.3h9.06zm0-3.03v.3H9.06v-.3h9.06zm0-2.27v.15H9.06v-.15h9.06zm0-1.51V.9H9.06V.76h9.06z" mask="url(#p)"/>
    <path id="reuse-0" fill="#8098AF" d="M-2.25 0l18.22 16.52-6.8-27.7z" mask="url(#b)"/>
    <path id="a" d="M0 0h11.5L7.82 26.46a2.1 2.1 0 01-4.14 0L0 0z"/>
  </defs>
  <defs>
    <path id="e" d="M0 0h169l-4 59.5H4z"/>
    <path id="g" d="M34.7 5.27c.78 1.5 1.22 3.1 1.34 4.82a9.8 9.8 0 01-1.34 5.38c5.63 0 8.15 2.1 7.54 6.34H6.14C5 30.23 8.77 36.28 17.46 39.94c2.67.92 3.95 1.8 3.84 2.64-.07 1.76-1.76 2.3-5.06 1.62C11.28 43.18-2.02 38.26.3 19.46 2.6.65 11.96 0 13.88 0c1.93 0 5.83.07 10.55 4.71l10.27.56z"/>
    <path id="k" d="M.1 0h48.95l-9.9 40.15H10z"/>
    <path id="m" d="M5.95 1.24c-1.44-1.65-3.08-1.65-4.91 0-2.75 2.47.58 13.75 2.88 14.75 2.31 1 9.06-9.53 7.5-13.1C10.4.48 8.58-.06 5.96 1.23z"/>
    <path id="I" d="M2.57 2.78c-3.68 2.18-3.41 5.32.81 9.41C9.71 18.33 14 21.72 14 17.51c-.26-2-.26-4.16 0-6.5C14.4 7.51 11.26.96 7.24.15 4.57-.39 3.01.5 2.57 2.78z"/>
    <path id="K" d="M1.1 5.13c-.15 2.6 2.27 4.23 7.25 4.9 2.2.07 3.77.47 4.71 1.2 1.42 1.07-.05-5-5.32-6.78-3.51-1.18-5.72-.95-6.63.68z"/>
    <path id="M" d="M-2.19 11.61c-.16-3.93 1.41-6.1 4.7-6.53 4.94-.64 10.36 1.93 12.83-.91-.46 3.17-3.38 6.21-8.77 9.12-5.4 2.92-8.31 2.36-8.76-1.68z"/>
    <path id="O" d="M6.25 2.33c2.4-.26 3.35 1.6 2.84 5.58a14.44 14.44 0 01-5.46 9.75 6.16 6.16 0 00-.74-4.23C1.75 11.39-1.67 6.99 1 2.33c1.76-3.1 3.52-3.1 5.26 0z"/>
    <path id="Q" d="M16.47 18.83a11 11 0 01.29-5.46c4.12-.65 3.56-4.67 2.09-4.98-.99-.21-1.78.4-2.38 1.82 0-3.97-3.53-.37-6.23-6.48-2.7-6.11-7.86-2.68-8.49-.92-.62 1.75-5.2 19.97 6 20.47.23 2.55.17 4.45-.18 5.7-.3 1.03-.23 2.19-.62 3.1-1.38 3.26-6.1 11.26-.27 14.24 5.84 2.98 14.83-6.43 13.24-12.52a212.64 212.64 0 01-3.45-14.97z"/>
    <path id="S" d="M14.33 5.18c-2.53 7.88-3.79 13.2-3.79 15.96 0 4.15 1.12 18.4-2.83 19.66-3.95 1.26-9.2-.65-7.31-12.97C1.66 19.63 3.92 10.35 7.17 0l7.16 5.18z"/>
    <path id="U" d="M0 9.72c2.9 3.82 4.35 6.34 4.35 7.56 0 1.84-1.05 2.88 6 8.05 7.07 5.17 17.2 14.23 19.39 8.9 2.19-5.32-12.01-11.88-17.9-21.66C7.9 6.05 4.91 1.87 2.85 0L0 9.72z"/>
    <path id="W" d="M1.06 16.2C-2 28.54 2.5 35.03 14.56 35.66c18.1.93 31.71-22.22 37.24-13.03 5.52 9.19 10.94 24.1 20.56 29.36l10.17-6.4C71.38 16.08 62.75.94 56.63.2c-4.23-.52-21.13-.3-37.2 4.99-4.8 1.58-10.92 5.25-18.37 11.01z"/>
    <path id="Y" d="M30.28 13.5C26.2 7.76 22.63 4.82 19.55 4.7c-3.65-1.46-6.2-2.7-7.63-3.7-2.14-1.5-2.39 1.26-1.3 2.09 1.1.83 5.23 3.57 5.27 3.87.04.3-3.24.62-5.2-.87-1.97-1.5-2.3-2.41-3.1-1.59-1.09-.29-1.8-1.13-2.13-2.52C4.96-.1 3.09-.15 3.12.11c.02.18.5 1.54 1.45 4.08-1.28-1.37-2.15-2.03-2.6-1.97-.7.08-1.01.93-.74 1.45C1.5 4.2-.6 3 .18 5c.79 1.98 11.46 8.67 16.46 8.05 3.34-.4 6.28 1.43 8.83 5.5l4.8-5.03z"/>
    <path id="aa" d="M34 4.68C37.82-.3 48.21-.47 56.72.4c.5.05-.73.34-.71.72.07 1.61-1.8 5.45-.16 5.74.98.18 3.87 3.41 5.88 2.7 3.75-1.33 7.03-7.13 7.37-7.01 12.46 4.1 19.3 8.34 20.5 12.7 9.93 22.84 12.8 36.19 8.64 40.04-4.24 3.91-17.14 7.44-38.7 10.59l-.26-1.48c-8.64.75-19.88 5.47-33.36 12.45-.75.4-1.83.9-3.23 1.5 2.27-7.14 4.03-11.82 5.26-14.05 4.13-7.45 7.92-10.6 8.72-12.69 1.16-3.04.9-7.75-.79-14.12-4.75 11.57-9.67 18.1-14.76 19.6C16.03 58.57 9 45.03 0 16.47l8.86-3.96 11.37 23.5C25.4 20.3 29.99 9.85 33.99 4.68zm45.57 25.88l-.23.47c-3.78 8.2-4.81 16.36-5.09 21.63 8.11-3.31 12.16-5.18 12.16-5.6 0-.61-2.28-6.11-6.84-16.5z"/>
    <path id="ac" d="M21.21 1.66c-1.88.35-3.34.35-4.39 0C15.26 1.12 13.63-.84 8.7.4 3.75 1.66-1.39 3.45.34 3.96c1.16.33 3.44.04 6.85-.88C2.71 5.42.57 7.54.78 9.45c.36.67.9.76 1.6.27.09 1.22.54 1.68 1.33 1.39 1.19-.44 3.93-4.01 6.2-4.34-3.16 2.68-4.5 4.4-4.04 5.18.7 1.16 4.02-3.84 6.6-4.36 2.56-.53 1 2.08 9.53-.73l-.79-5.2z"/>
    <ellipse id="o" cx="9.06" cy="9.09" rx="9.06" ry="9.09"/>
    <ellipse id="q" cx="7.55" cy="7.57" rx="7.55" ry="7.57"/>
    <ellipse id="s" cx="9.06" cy="9.09" rx="9.06" ry="9.09"/>
    <ellipse id="u" cx="7.55" cy="7.57" rx="7.55" ry="7.57"/>
    <ellipse id="w" cx="9.06" cy="9.09" rx="9.06" ry="9.09"/>
    <ellipse id="y" cx="7.55" cy="7.57" rx="7.55" ry="7.57"/>
    <ellipse id="A" cx="9.06" cy="9.09" rx="9.06" ry="9.09"/>
    <ellipse id="C" cx="7.55" cy="7.57" rx="7.55" ry="7.57"/>
    <ellipse id="E" cx="9.06" cy="9.09" rx="9.06" ry="9.09"/>
    <ellipse id="G" cx="7.55" cy="7.57" rx="7.55" ry="7.57"/>
    <use xlink:href="#a"/>
    <use id="c" xlink:href="#a"/>
    <circle id="i" cx="7" cy="7" r="7"/>
  </defs>
  <g fill="none" fill-rule="evenodd">
    <g transform="translate(10.93 195.96)">
      <mask id="b" fill="#fff">
        <use xlink:href="#a"/>
      </mask>
      <use fill="#91ADC8" xlink:href="#a"/>
      <use mask="url(#b)" xlink:href="#reuse-0"/>
    </g>
    <g transform="translate(152.93 195.96)">
      <mask id="d" fill="#fff">
        <use xlink:href="#c"/>
      </mask>
      <use fill="#91ADC8" xlink:href="#c"/>
      <use mask="url(#d)" xlink:href="#reuse-0"/>
    </g>
    <g transform="translate(3.43 138.96)">
      <mask id="f" fill="#fff">
        <use xlink:href="#e"/>
      </mask>
      <use fill="#D0E6F6" xlink:href="#e"/>
      <path fill="#91ADC8" d="M-4 1h173v15H-4z" mask="url(#f)" opacity=".37"/>
      <rect width="25.5" height="6" x="30.25" y="26.75" stroke="#607385" stroke-width=".5" mask="url(#f)" rx="2"/>
      <rect width="25.5" height="6" x="115.75" y="26.75" stroke="#607385" stroke-width=".5" mask="url(#f)" rx="2"/>
      <path stroke="#607385" stroke-width=".5" d="M84.75-3.5v66.87" mask="url(#f)"/>
    </g>
    <path fill="#A1BEDB" d="M4.43 132.96h166.5a4 4 0 014 4v3.5a4 4 0 01-4 4H4.43a4 4 0 01-4-4v-3.5a4 4 0 014-4z"/>
    <g transform="translate(13 100)">
      <path fill="#FB0" d="M30.42 4.05c-.83-2.91-1.8-4.26-2.93-4.02-1.12.23-2.12 2.84-2.99 7.83l5.92-3.8z"/>
      <path fill="#594100" d="M29.5 4.34c-.56-2.04-1.22-2.98-1.98-2.82-.76.16-1.43 1.99-2.02 5.48l4-2.66z" opacity=".22"/>
      <path fill="#FB0" d="M32.1 4.49c.93-2.77 1.83-4.05 2.7-3.85 1.3.31 2.55 4.64 1.46 8.42-.73 2.53-2.12 1-4.17-4.57z"/>
      <path fill="#594100" d="M33 4.61c.61-1.87 1.2-2.73 1.77-2.6.85.21 1.67 3.14.96 5.7-.48 1.7-1.39.67-2.73-3.1z" opacity=".22"/>
      <g transform="translate(0 11.38)">
        <mask id="h" fill="#fff">
          <use xlink:href="#g"/>
        </mask>
        <use fill="#FFCE00" xlink:href="#g"/>
        <circle cx="6.75" cy=".75" r="9.25" fill="#E9AC03" mask="url(#h)"/>
        <path fill="#594100" d="M21.85 42.85c-6.18-1.22-10.82-3.88-13.93-7.97-3.11-4.1-4.24-8.45-3.37-13.07h3.37A670.38 670.38 0 0120.9 40.4c2.73 4.11 3.04 4.93.94 2.44z" mask="url(#h)"/>
        <path fill="#FFFFED" d="M35 5.12c-2.96 1.68-5.51 1.97-7.68.9a12.36 12.36 0 013.17 4.97c.5 1.66.98 3.69 1.46 6.08 2.82-.97 4.4-2.52 4.72-4.66.33-2.14-.23-4.57-1.68-7.3z" mask="url(#h)" opacity=".5"/>
        <path fill="#FFFFED" d="M18.09 6.95c3.6 1.04 5.14 3.24 4.6 6.6 4.22-.25 6.34 2.5 6.34 8.26H27c-.23-3.07-1.8-4.46-4.7-4.19l-3.95.76-1.84.58c2.66-2.63 3.91-4.99 3.75-7.07a7.26 7.26 0 00-2.18-4.94z" mask="url(#h)" opacity=".22"/>
      </g>
      <g transform="translate(23.5 4)">
        <mask id="j" fill="#fff">
          <use xlink:href="#i"/>
        </mask>
        <use fill="#FFCE00" xlink:href="#i"/>
        <circle cx="1.25" cy="8.25" r="3.75" fill="#FB0" mask="url(#j)"/>
        <circle cx="16.25" cy="8.25" r="3.75" fill="#FB0" mask="url(#j)"/>
        <circle cx="8.25" cy="11.25" r="5.75" fill="#FFFFED" mask="url(#j)" opacity=".5"/>
      </g>
      <path stroke="#594100" stroke-width=".5" d="M39.95 33.19c-.13-2.64-1.06-4.16-2.8-4.56-1.72-.4-3.46-.46-5.2-.18-.5-2.96-.98-4.95-1.45-5.96a4.84 4.84 0 00-2.37-2.34M11.24 16.87c4.4-.74 7.23.5 8.52 3.7 1.3 3.22.24 6.44-3.16 9.67 7.13-2.32 10.58-1.33 10.34 2.95M29.03 10.71c-3.1-.75-5.81-.52-8.12.67M29.03 12.48c-2.05-.32-4.16.37-6.34 2.05M35 10.24c1.39-.76 3.45-.76 6.2 0M35 12.1c2.42-.57 4.49-.12 6.2 1.37M30.86 11.21c.7.52 1.3.4 1.83-.38.68.7 1.27.88 1.75.55"/>
      <circle cx="32.5" cy="9.75" r="1" fill="#D8D8D8" stroke="#000" stroke-width=".5"/>
      <path stroke="#594100" stroke-width=".5" d="M28.79 8.88c.61-.64 1.3-.7 2.07-.17M34.1 8.15c.38-.48.88-.48 1.5 0"/>
    </g>
    <g transform="translate(244 70.4)">
      <g transform="translate(5.95 113.85)">
        <mask id="l" fill="#fff">
          <use xlink:href="#k"/>
        </mask>
        <use fill="#FFCF57" xlink:href="#k"/>
        <path fill="#F1B935" d="M15.08 1.1c-6.05 13.84-4.75 21.27 3.9 22.28 12.97 1.52 19.75 1.52 20.1 17.79C39.34 52 26.3 52.04 0 41.25L-4.02-3.5l19.1 4.6z" mask="url(#l)"/>
        <path stroke="#FFF" stroke-width=".55" d="M-2.75 2.54C8.41 3.55 17.33 4.06 24.03 4.06c6.7 0 17.22-.69 31.6-2.07" mask="url(#l)"/>
      </g>
      <ellipse cx="30.53" cy="113.58" fill="#3D3939" rx="24.48" ry="1.38"/>
      <g stroke="#000" stroke-linecap="round" stroke-width="2.75">
        <path d="M31.08 112.17c-2.1-10.56.5-18.68 7.82-24.36 10.98-8.51 6.34-20.13-1.28-29.24-5.08-6.08-7.43-19.52-7.05-40.32M42.5 19.83c3.47 12.32-.04 19.66-10.56 22.02M33.65 50.25c-14.7 3.32-21.4-4.05-20.07-22.13"/>
        <path d="M43.2 66.72c.18-5.29 2.14-7.7 5.88-7.26 5.61.67 15.23 5.14 11.9-20.79M51.13 59.71V46.36M36.78 89.6c-.97-2.74-4.31-4.1-10.02-4.1-8.56 0-15.34 1.25-13.35-15.78M24.93 85.64v-9.27M43.2 83.12c2.03-2.47 5.42-3.17 10.16-2.11 7.1 1.59 10.16-2.8 9.23-14.29"/>
      </g>
      <path stroke="#000" stroke-width=".55" d="M44.66 70.15c2.74.2 4.44 1.66 5.1 4.4M29.2 24.65c-.29-2.91.21-4.71 1.5-5.39M45.72 76.93c-2.5-.28-4.37.15-5.6 1.32"/>
      <g transform="translate(23.37 20.45)">
        <mask id="n" fill="#fff">
          <use xlink:href="#m"/>
        </mask>
        <use fill="#7CC08F" xlink:href="#m"/>
        <path stroke="#000" stroke-width=".55" d="M6.23.61C4.85 5.32 4.16 11.66 4.16 19.64" mask="url(#n)"/>
      </g>
      <g transform="translate(.27 16.05)">
        <g transform="translate(1.51)">
          <mask id="p" fill="#fff">
            <use xlink:href="#o"/>
          </mask>
          <use fill="#161C43" xlink:href="#o"/>
          <use mask="url(#p)" xlink:href="#reuse-1"/>
          <use mask="url(#p)" xlink:href="#reuse-2"/>
        </g>
        <ellipse cx="9.06" cy="9.09" fill="#FFBC13" stroke="#161C43" stroke-width=".5" rx="8.81" ry="8.84"/>
        <g transform="translate(1.51 1.51)">
          <mask id="r" fill="#fff">
            <use xlink:href="#q"/>
          </mask>
          <use fill="#161C43" xlink:href="#q"/>
          <ellipse cx="8.15" cy="7.57" fill="#FFBC13" mask="url(#r)" rx="7.55" ry="7.57"/>
          <text fill="#161C43" font-family="Helvetica" font-size="11" letter-spacing=".61" mask="url(#r)">
            <tspan x="4.95" y="12.75">$</tspan>
          </text>
          <text fill="#FFF" font-family="Helvetica" font-size="11" letter-spacing=".61" mask="url(#r)">
            <tspan x="4.4" y="12.75">$</tspan>
          </text>
        </g>
      </g>
      <g transform="translate(19.52 .1)">
        <g transform="translate(1.51)">
          <mask id="t" fill="#fff">
            <use xlink:href="#s"/>
          </mask>
          <use fill="#161C43" xlink:href="#s"/>
          <use mask="url(#t)" xlink:href="#reuse-1"/>
          <use mask="url(#t)" xlink:href="#reuse-2"/>
        </g>
        <ellipse cx="9.06" cy="9.09" fill="#FFBC13" stroke="#161C43" stroke-width=".5" rx="8.81" ry="8.84"/>
        <g transform="translate(1.51 1.51)">
          <mask id="v" fill="#fff">
            <use xlink:href="#u"/>
          </mask>
          <use fill="#161C43" xlink:href="#u"/>
          <ellipse cx="8.15" cy="7.57" fill="#FFBC13" mask="url(#v)" rx="7.55" ry="7.57"/>
          <text fill="#161C43" font-family="Helvetica" font-size="11" letter-spacing=".61" mask="url(#v)">
            <tspan x="4.95" y="12.75">$</tspan>
          </text>
          <text fill="#FFF" font-family="Helvetica" font-size="11" letter-spacing=".61" mask="url(#v)">
            <tspan x="4.4" y="12.75">$</tspan>
          </text>
        </g>
      </g>
      <g transform="translate(37.12 16.6)">
        <g transform="translate(1.51)">
          <mask id="x" fill="#fff">
            <use xlink:href="#w"/>
          </mask>
          <use fill="#161C43" xlink:href="#w"/>
          <use mask="url(#x)" xlink:href="#reuse-1"/>
          <use mask="url(#x)" xlink:href="#reuse-2"/>
        </g>
        <ellipse cx="9.06" cy="9.09" fill="#FFBC13" stroke="#161C43" stroke-width=".5" rx="8.81" ry="8.84"/>
        <g transform="translate(1.51 1.51)">
          <mask id="z" fill="#fff">
            <use xlink:href="#y"/>
          </mask>
          <use fill="#161C43" xlink:href="#y"/>
          <ellipse cx="8.15" cy="7.57" fill="#FFBC13" mask="url(#z)" rx="7.55" ry="7.57"/>
          <text fill="#161C43" font-family="Helvetica" font-size="11" letter-spacing=".61" mask="url(#z)">
            <tspan x="4.95" y="12.75">$</tspan>
          </text>
          <text fill="#FFF" font-family="Helvetica" font-size="11" letter-spacing=".61" mask="url(#z)">
            <tspan x="4.4" y="12.75">$</tspan>
          </text>
        </g>
      </g>
      <g transform="translate(55.68 30.35)">
        <mask id="B" fill="#fff">
          <use xlink:href="#A"/>
        </mask>
        <use fill="#161C43" xlink:href="#A"/>
        <use mask="url(#B)" xlink:href="#reuse-1"/>
        <use mask="url(#B)" xlink:href="#reuse-2"/>
      </g>
      <ellipse cx="63.23" cy="39.44" fill="#FFBC13" stroke="#161C43" stroke-width=".5" rx="8.81" ry="8.84"/>
      <g transform="translate(55.68 31.87)">
        <mask id="D" fill="#fff">
          <use xlink:href="#C"/>
        </mask>
        <use fill="#161C43" xlink:href="#C"/>
        <ellipse cx="8.15" cy="7.57" fill="#FFBC13" mask="url(#D)" rx="7.55" ry="7.57"/>
        <text fill="#161C43" font-family="Helvetica" font-size="11" letter-spacing=".61" mask="url(#D)">
          <tspan x="4.95" y="12.75">$</tspan>
        </text>
        <text fill="#FFF" font-family="Helvetica" font-size="11" letter-spacing=".61" mask="url(#D)">
          <tspan x="4.4" y="12.75">$</tspan>
        </text>
      </g>
      <g transform="translate(4.12 58.95)">
        <g transform="translate(1.51)">
          <mask id="F" fill="#fff">
            <use xlink:href="#E"/>
          </mask>
          <use fill="#161C43" xlink:href="#E"/>
          <use mask="url(#F)" xlink:href="#reuse-1"/>
          <use mask="url(#F)" xlink:href="#reuse-2"/>
        </g>
        <ellipse cx="9.06" cy="9.09" fill="#FFBC13" stroke="#161C43" stroke-width=".5" rx="8.81" ry="8.84"/>
        <g transform="translate(1.51 1.51)">
          <mask id="H" fill="#fff">
            <use xlink:href="#G"/>
          </mask>
          <use fill="#161C43" xlink:href="#G"/>
          <ellipse cx="8.15" cy="7.57" fill="#FFBC13" mask="url(#H)" rx="7.55" ry="7.57"/>
          <text fill="#161C43" font-family="Helvetica" font-size="11" letter-spacing=".61" mask="url(#H)">
            <tspan x="4.95" y="12.75">$</tspan>
          </text>
          <text fill="#FFF" font-family="Helvetica" font-size="11" letter-spacing=".61" mask="url(#H)">
            <tspan x="4.4" y="12.75">$</tspan>
          </text>
        </g>
      </g>
      <path stroke="#000" stroke-width=".55" d="M61.07 50.5c3.51 1.16 5.27 3.34 5.27 6.55"/>
      <g transform="translate(46.47 69.95)">
        <mask id="J" fill="#fff">
          <use xlink:href="#I"/>
        </mask>
        <use fill="#009C58" xlink:href="#I"/>
        <path stroke="#000" stroke-width=".55" d="M13.64 19.64c-3.24-4.32-5.07-7.52-5.47-9.61-.4-2.1-2.27-4.5-5.6-7.25" mask="url(#J)"/>
      </g>
      <path fill="#7CC08F" d="M42.34 77.22c-4.18-2.55-7.47-2.34-9.85.65-2.39 3-2.6 7.46-.66 13.4 1.67-3.94 3.2-6.84 4.6-8.7a23.71 23.71 0 015.91-5.35z"/>
      <path stroke="#000" stroke-width=".55" d="M26.29 49.6c-.2-3.5 1.68-5.26 5.65-5.26"/>
      <g transform="translate(60.28 51.6)">
        <mask id="L" fill="#fff">
          <use xlink:href="#K"/>
        </mask>
        <use fill="#009C58" transform="rotate(44 7.34 7.53)" xlink:href="#K"/>
        <path stroke="#000" stroke-width=".55" d="M4.64 1.1c4.42 5.66 5.76 10.87 4.02 15.62" mask="url(#L)"/>
      </g>
      <path stroke="#000" stroke-width=".55" d="M15.53 83.12c-3.36.08-5.45 2.09-6.25 6.02"/>
      <g transform="translate(19.72 46.42)">
        <mask id="N" fill="#fff">
          <use xlink:href="#M"/>
        </mask>
        <use fill="#009C58" transform="rotate(95 6.57 9.65)" xlink:href="#M"/>
        <path stroke="#000" stroke-width=".55" d="M6.97.55c-1.29 9.09.15 15.2 4.3 18.31" mask="url(#N)"/>
      </g>
      <g transform="translate(4.67 83.15)">
        <mask id="P" fill="#fff">
          <use xlink:href="#O"/>
        </mask>
        <use fill="#009C58" xlink:href="#O"/>
        <path stroke="#000" stroke-width=".55" d="M6.25 1.96c-2.07 1.95-2.77 4-2.13 6.15.96 3.22 1.54 7.32-1.72 11.86" mask="url(#P)"/>
      </g>
    </g>
    <g>
      <path stroke="#8098AF" stroke-linecap="round" stroke-width="5" d="M157.45 148.34v73.55M127.69 148.34l-9.27 73.55M188.6 148.34l8.95 73.55"/>
      <path fill="#FFE39B" d="M99 63.9h55.06l7.38 70.5a8.5 8.5 0 008.45 7.61h38.42a3.17 3.17 0 110 6.33H117.3a11 11 0 01-10.95-9.92L99 63.9z"/>
      <path fill="#E6B147" d="M101.53 63.4a2.8 2.8 0 012.79 2.5l7.12 68.5a8.5 8.5 0 008.46 7.61h50.91a3.17 3.17 0 110 6.33H117.3a11 11 0 01-10.95-9.92l-7.1-72.51a2.3 2.3 0 012.28-2.52z"/>
    </g>
    <g>
      <g transform="scale(-1 1) rotate(7 -129.45 -1377.66)">
        <path fill="#061537" d="M15.03 42.1C7.38 43.75 2.6 41.49.66 35.34c-1.93-6.15.39-11.31 6.96-15.5C4.4 13.36 5.56 8.8 11.08 6.19 13.94.55 19.03-1.23 26.35.83c10.98 3.1 7.55 13.53 12.76 15.24 5.21 1.7 11.71 2.33 10.7 10.2 5.92 3.66 8.13 9.7 6.64 18.08-2.25 12.57-23.22 9.73-22.28-1.04-4.38 1.9-7.22 1.5-8.52-1.22-1.29-2.72-4.83-2.71-10.62.02z"/>
        <g transform="translate(9.35 10.87)">
          <mask id="R" fill="#fff">
            <use xlink:href="#Q"/>
          </mask>
          <use fill="#FFD3C8" xlink:href="#Q"/>
          <path fill="#F1B2A2" d="M7.17 23.26c3.21.42 5.68-1.5 7.41-5.8.09 7.68-2.12 11.91-6.63 12.7-4.5.8-4.77-1.5-.78-6.9z" mask="url(#R)"/>
        </g>
        <path stroke="#9D3F28" stroke-linecap="round" stroke-width=".5" d="M14.36 18.81c0 1.61-.21 3.03-.67 4.27-.69 1.85-1.32 3.04 1.67 2.8"/>
        <circle cx="11.79" cy="19.25" r="1" fill="#061537"/>
        <ellipse cx="11.11" cy="19.34" stroke="#324A83" stroke-linecap="round" stroke-width=".5" rx="2.55" ry="2.57"/>
        <ellipse cx="17.52" cy="20.2" stroke="#324A83" stroke-linecap="round" stroke-width=".5" rx="2.55" ry="2.57"/>
        <circle cx="17.61" cy="20.13" r="1" fill="#061537"/>
        <path stroke="#061537" stroke-linecap="round" stroke-width=".83" d="M15.97 17.16c2.06-.55 3.56-.1 4.51 1.31M10.72 16.23c.67-.33 1.34-.22 2.02.31"/>
        <path fill="#FFF" stroke="#9D3F28" stroke-linecap="round" stroke-width=".5" d="M12.24 27.47c1.63 1.64 3.5 1.8 5.6.5-1.11 1.6-2.17 2.32-3.17 2.17-1-.14-1.81-1.03-2.43-2.67z"/>
        <path stroke="#324A83" stroke-linecap="round" stroke-width=".5" d="M20.08 19.7l6.31-.63"/>
        <path stroke="#324A83" stroke-width=".5" d="M13.64 19.07l1.4.32"/>
      </g>
      <path fill="#230D99" d="M159.12 186.24c2.45 2.23 3.93 4.73 4.46 7.49.8 4.14.85 11.36 1.72 17.07.88 5.71-.57 14.31-8.22 15.14-7.64.82-8.11-17.58-5.3-22.61 1.88-3.36 4.32-9.05 7.34-17.1z"/>
      <g transform="scale(-1 1) rotate(-1 9864.47 9431.02)">
        <mask id="T" fill="#fff">
          <use xlink:href="#S"/>
        </mask>
        <use fill="#FFD3C8" xlink:href="#S"/>
        <path fill="#F1B2A2" d="M14.9 6.05A12.86 12.86 0 014.55 9.2C.59 8.73 1.1 6.5 6.08 2.5l8.83 3.55z" mask="url(#T)"/>
        <path fill="#F1B2A2" d="M7.38 7.61a78.53 78.53 0 00-5.46 33.91c.72 11.45-2 6.03-8.18-16.26L2.55 2.5l4.83 5.11z" mask="url(#T)"/>
      </g>
      <path fill="#230D99" d="M111.11 165.2c1.97 2.62 2.33 4.65 1.09 6.08-1.87 2.14-12.57 13.31-15.4 15.74-2.82 2.42-9.49 5.84-14.4 4.5-4.93-1.34-7.25-6.55 4.82-15.02 8.05-5.64 16.01-9.4 23.9-11.3z"/>
      <g transform="scale(-1 1) rotate(-1 8421.37 6706.23)">
        <mask id="V" fill="#fff">
          <use xlink:href="#U"/>
        </mask>
        <use fill="#FFD3C8" xlink:href="#U"/>
        <path fill="#F1B2A2" d="M8.17 4.94L.01 14.52l-1.8-5.45z" mask="url(#V)"/>
        <path fill="#F1B2A2" d="M2.73 10.24c2.6 3.76 3.89 6.11 3.89 7.04 0 1.4 12.89 15.32 22.9 18.57 6.67 2.17 4.28 3.3-7.17 3.38l-23.7-20.55 4.08-8.44z" mask="url(#V)"/>
      </g>
      <path fill="#DC5F58" d="M148.3 127.8c7.74 8.63 11.4 24.7 11 48.22-4.17 3.23-8.13 4.33-11.9 3.3a403.23 403.23 0 00-6.4-21.07c-2.23-6.26-4.15-11.14-6.74-15.56-6.1-10.42 4.47-18.13 8.62-18.06 2.82.05 4.63 1.1 5.42 3.17z"/>
      <g transform="scale(-1 1) rotate(-1 6122.21 10977.64)">
        <mask id="X" fill="#fff">
          <use xlink:href="#W"/>
        </mask>
        <use fill="#FF6F66" xlink:href="#W"/>
        <path fill="#DC5F58" d="M12.2 9.92c-3.34 10.72-.8 15.76 7.65 15.12 12.66-.96 25.4-15.04 32.68-1.87 4.85 8.79-9.24 18.4-42.28 28.83l-17.4-15.65 4.03-22.37L12.2 9.92z" mask="url(#X)"/>
      </g>
      <path stroke="#301913" stroke-width=".5" d="M189.4 125.44c3.98 22.1-16.84 18.99-21.01 17.76-4.17-1.23-6.9-2.59-16.43-9.35s-11.42-6.95-14.22-2.33c-2.8 4.63-12.74 25.32-20.34 27.73l-9.9-6.46"/>
      <g>
        <g transform="scale(-1 1) rotate(8 -429.39 -1649.71)">
          <mask id="Z" fill="#fff">
            <use xlink:href="#Y"/>
          </mask>
          <use fill="#FFD3C8" xlink:href="#Y"/>
          <path fill="#F1B2A2" d="M21.53 9.7c2.37 0 5.14 2.15 8.3 6.45 4.72 6.46 15.66 27.14 28.6 21.76 8.62-3.58 6.95-1-5 7.74L27.56 34 21.53 9.7z" mask="url(#Z)" transform="rotate(-9 42.69 27.68)"/>
          <path fill="#F1B2A2" d="M51.4 27.67l.02-23.48-6.2-2.73 1.8 22.34z" mask="url(#Z)"/>
        </g>
        <path stroke="#99776C" stroke-width=".5" d="M213.15 55.65c3.23-2.38 4.16-.98 7.8-1.51 3.66-.54 3.9-3.78 4.73-4.66.55-.59.9-.73 1.06-.4.7 1.79-.58 4.25-3.85 7.38M233.12 47.64l-7.62 5.98"/>
        <path stroke="#99776C" stroke-width=".5" d="M230.14 47.97a21.9 21.9 0 01-1.6 1.67c-.39.35-.92.75-1.6 1.2"/>
      </g>
      <g>
        <g transform="scale(-1 1) rotate(-1 2614.94 12301.38)">
          <mask id="ab" fill="#fff">
            <use xlink:href="#aa"/>
          </mask>
          <use fill="#56D4B7" xlink:href="#aa"/>
          <path fill="#4BC5A9" d="M34.59 20.52c0 13.81 3.03 21.2 9.08 22.16 4.11.94 7.67-.17 10.67-3.31 5.14 5.78 10.42 6.98 15.84 3.6 2.11-1.27 3.96-4.71 5.55-10.32 2.67 9.42 2.09 14.67-1.74 15.73-5.75 1.58-16.25-1.14-19.05 2.56-2.8 3.7-9.04 1.48-9.04 4.42 0 1.96 4.14 2.94 12.4 2.94l.95 7.59-39.8 16.2 7.29-20.68 9.15-17.21v-6.7c-.48-4.26-.8-7.48-.97-9.65-.16-2.16-.27-4.6-.33-7.33z" mask="url(#ab)"/>
          <path fill="#4BC5A9" d="M34.59 20.52c-4.19 28.2-10.24 39.44-18.15 33.71-7.91-5.73-6.91-2.36 3 10.13L34.6 47.84l1.3-10.34a89.64 89.64 0 01-1.3-8.79 70.84 70.84 0 010-8.19zM5.48 12.52l15 24.22V17.79L8.96 9.14zM75.28 23.15c1.14 7.28.13 13.55-3.03 18.82-3.15 5.26-4.46 6.96-3.9 5.1 5.4-.7 8.56-2.7 9.47-6 .92-3.3 1.56-6.65 1.93-10.02l-4.47-7.9z" mask="url(#ab)"/>
        </g>
        <path fill="#FFF" d="M156.3 45.1l.48 1.76c1.26 4.71.8 7.35-1.86 8-3 .72-5.93-2.2-8.8-8.77-3.06 9.48-3.06 14.55.02 15.22 3.08.67 6-.96 8.75-4.9 6.98 1.74 10.64 1.56 11-.55.37-2.12-2.83-5.7-9.6-10.76z"/>
        <path stroke="#301913" stroke-width=".5" d="M214 63.99l-8.78-4.12-11.78 23.3c-2.23 3.41-2.83 6.71-1.8 9.89M193.44 83.17c-.72 3.74-.15 5.98 1.7 6.7M153.71 112.35l1.27-7.56c-14.49-5.37-23.79-9.27-27.91-11.73a8.25 8.25 0 00-5.86.52M127.07 93.06c-.3-1.6-1.42-2.58-3.34-2.93M183.68 96.3l-5.93-11.92c.97-5.55 1.5-11.2 1.6-16.95M138.62 68.92c-4.07 7.03-6.75 12.18-8.03 15.45a187.93 187.93 0 01-3.52 8.41"/>
        <path stroke="#301913" stroke-width=".5" d="M177.76 83.83a47.09 47.09 0 00-1.57 9.35c-.26 4.45.3 5.72 3.8 10.08s9.57 16.67 10 21.87l-6.93-3.36"/>
      </g>
      <g>
        <g transform="scale(-1 1) rotate(-1 5936.7 10144.87)">
          <mask id="ad" fill="#fff">
            <use xlink:href="#ac"/>
          </mask>
          <use fill="#FFD3C8" xlink:href="#ac"/>
          <path fill="#F1B2A2" d="M21.17 1.44l-.52 6.38 2.55-.89z" mask="url(#ad)"/>
        </g>
        <path stroke="#99776C" stroke-width=".5" d="M159.84 106.3a9.55 9.55 0 017.38-.9c3.62 1.09 9.28 2.4 8.86 3.44-.41 1.04-6.32-.43-6.93-.7 3.8 2.38 5.8 4.22 6 5.52.18 1.3-.33 1.7-1.54 1.17M173.6 114.83c-.91-1.93-2.83-3.63-5.73-5.09"/>
      </g>
    </g>
    <path fill="#88C0FF" d="M229.2 4.68l4.57 14.05a10.5 10.5 0 01-6.76 13.24l-15.77 5.08-2.62-7.94-1.16.34-.16-.53a5 5 0 11-1.27-8l-.03-.01.16-.05-2.68-7.8 10.25-3.48-.42-1.23.06-.02a4.5 4.5 0 117.26-2.35l.44-.15.52 1.35 7.61-2.5z"/>
  </g>
</svg>
