<svg xmlns="http://www.w3.org/2000/svg" xmlns:xlink="http://www.w3.org/1999/xlink" width="331" height="303">
  <defs>
    <path id="a" d="M0 0h11.5L7.82 26.46a2.1 2.1 0 01-4.14 0L0 0z"/>
    <path id="c" d="M0 0h11.5L7.82 26.46a2.1 2.1 0 01-4.14 0L0 0z"/>
    <path id="e" d="M0 0h169l-4 59.5H4z"/>
    <path id="g" d="M4.91 19.54C2.15 17.29.61 14.66.27 11.67c-.3-2.73.13-6.21 1.3-10.44C1.79.5 2.46 0 3.2 0h17.27c.75 0 1.42.5 1.62 1.23 1.18 4.23 1.62 7.7 1.31 10.44-.34 3-1.88 5.62-4.64 7.87H4.9z"/>
    <path id="i" d="M2.02 5.51c-.12 3.71.26 7.32 1.14 10.82 1.84 7.38 5.43 10.55 9.56 9.74l.18 3.05a8.3 8.3 0 00.07 2c.25 1.12.86 2.1 1.14 3.38.44 2.08 2.69 4.07 3.88 4.3.5.09 1.45-.06 2.14-.33 3.68-1.46 5.42-4.87 5.2-10.23-.65-.29-1.15-1.54-1.5-3.74-.34-2.2-.75-5.89-1.22-11.04.8-.39 1.21-1.45 1.2-3.18 0-2.6-1-2.91-2-2.76-.98.15-1.8 2.5-1.8 4.29-1.5 1.05-1.16-1-1.5-3.28-.35-2.3-2.92-1.94-3.56-3.32a9.47 9.47 0 01-.8-3.69c-3.17 1.66-6.68 1.94-10.53.81-1.07 0-1.61 1.06-1.6 3.18z"/>
    <path id="k" d="M.34.3L.02 9.1l6.55 4.49c2.48.78 4.18.73 5.1-.15.91-.88 1.53-3.2 1.84-6.96l.58-6.06L.34.3z"/>
    <path id="m" d="M33.34 2.42c-1.1.19-2.28.4-3.52.65C24.34 4.14 19.73 1.95 19.54.1 5.3 2.87-1.05 7.11.48 12.81h31.8a1.42 1.42 0 001.42-1.47l-.36-8.92z"/>
    <path id="o" d="M.34.3L.02 9.1l6.55 4.49c2.7.18 4.5-.17 5.41-1.05.92-.88 1.43-2.9 1.53-6.06l.58-6.06L.34.3z"/>
    <path id="q" d="M33.66 2.37c-1.32.22-2.6.45-3.84.7C24.34 4.14 19.73 1.95 19.54.1 5.3 2.87-1.05 7.11.48 12.81h31.84a1.43 1.43 0 001.42-1.43l-.08-9z"/>
    <path id="s" d="M32.2.36c7.16-.88 12.7 5.8 16.59 20.05a1837.6 1837.6 0 0013.17 45.71l-17.55 4.75L8.9 5.52c-4.8.97-7.55.97-8.26 0-.7-.97.8-2.7 4.5-5.16H32.2z"/>
    <path id="u" d="M.31 13.93c3.75 12.81 26.92 16.85 69.53 12.1 1.58.15 2.33 2.05 2.25 5.7-.07 3.66.37 16.2 1.32 37.6h19.36c1.65-36.55.67-57.18-2.96-61.89C86.17 2.74 65.85.38 28.84.38L3 12.4.3 13.93z"/>
    <path id="w" d="M22.16 0C9.86 2.2 3.08 10.27 1.85 24.23-.01 45.18-2.66 69.51 6.43 71.8c6.06 1.52 18.11 1.82 36.15.9l13.82-6.62 24.25-1.54V52.78c-6.46.52-10.16.26-11.11-.77-1.43-1.55-12.1-40.81-18.07-43.47-2.86-3.7-6.24-5.93-10.15-6.7-1-.19-2.85-.46-5.57-.8-.93 1.16-1.7 1.72-2.34 1.67-.63-.04-1.5-.73-2.6-2.05L22.16 0z"/>
    <path id="y" d="M0 6.82l24.5.48 9.78-1.23.02-1.7L51.46.75 37.6 0 17.7.28z"/>
    <path id="A" d="M14.04 16.06c-.3-1.75-.22-3.3.25-4.66 3.51-.56 3.04-3.98 1.78-4.25-.84-.18-1.52.34-2.03 1.55 0-3.38-3-.31-5.3-5.52C6.42-2.03 2.02.89 1.5 2.39.96 3.9-2.94 19.43 6.6 19.85c.2 2.17.16 3.8-.15 4.86-.25.87-.19 1.86-.52 2.64-1.18 2.79-5.2 9.6-.23 12.14 4.98 2.54 12.64-5.48 11.28-10.67a181.3 181.3 0 01-2.94-12.76z"/>
    <path id="C" d="M6.12 0H20.4v24.88H7.51c-4.98-.8-7.48-1.46-7.51-2-.03-.5 3-1.65 9.05-3.46a2.25 2.25 0 001.53-2.74L6.12 0z"/>
    <path id="E" d="M6.1 0h14.24v24.79H7.49C2.53 24 .03 23.34 0 22.79c-.03-.48 2.98-1.63 9.02-3.44a2.25 2.25 0 001.53-2.74L6.11 0z"/>
    <path id="G" d="M46.12 8.09C42.93 3.25 37.79.55 30.68 0c-.97-.07 2.46 2.72 1.44 4.45-1.3 2.19-7.06 3.44-8.4 3.64C22.4 8.29 21.15.6 19.9.83 8.27 2.88-.96 6.53.08 19.6c1.15 14.48-1.59 36.1 9.56 38.33l5.54.25c-2.45 2.6-4.02 4.6-4.72 6A69.6 69.6 0 007.5 72.2c13.17 1.74 28.72-.02 46.63-5.29-4.22-8.95-5.25-16.5-3.11-22.65 1.44-4.13 1.5-4.88.72-11.75-.5-4.45-2.38-12.6-5.62-24.42z"/>
    <path id="I" d="M.27 4.63c1.06.02 1.78-.18 2.17-.58C4.28 2.14 5.92.94 7.35.45c2.82-.97 8.03-.28 11.67 1.2 2.03.97 1.2 1.3-2.49.95-2.06-.27-3.58-.4-4.56-.4 1.35 1.27 1.88 2.32 1.59 3.13-.44 1.22-1.71.74-1.71.74.3 1.25 0 1.86-.86 1.82.04 2.2-.72 3.35-2.28 3.44-2.35.15-2.11-1.32-.15-1.78-1.73.5-3.1.49-4.13-.04L.38 9.7.27 4.63z"/>
    <path id="K" d="M0 6.74c1.57-.12 2.55-.63 2.93-1.55.57-1.38 1-3.27 5.81-3.55C13.55 1.36 14.43 0 15 0c.57 0 .87 3.33-3.1 3.85-3.96.52-2.16 2-1.03 2 1.13 0 6.98.67 9.8-3.67 1.17-.68 1.57-.34 1.2 1.02l-1.24 1.88c.22-.06.28.28.17 1.01.42.26.53.56.33.89-.3.48-4.5 4.68-6.77 4.68-2.27 0-9.23-.55-10.76 0-1.02.37-2.04.82-3.08 1.34L0 6.74z"/>
  </defs>
  <g fill="none" fill-rule="evenodd">
    <g transform="translate(31.5 274)">
      <mask id="b" fill="#fff">
        <use xlink:href="#a"/>
      </mask>
      <use fill="#91ADC8" xlink:href="#a"/>
      <path fill="#8098AF" d="M-2.25 0l18.22 16.52-6.8-27.7z" mask="url(#b)"/>
    </g>
    <g transform="translate(173.5 274)">
      <mask id="d" fill="#fff">
        <use xlink:href="#c"/>
      </mask>
      <use fill="#91ADC8" xlink:href="#c"/>
      <path fill="#8098AF" d="M-2.25 0l18.22 16.52-6.8-27.7z" mask="url(#d)"/>
    </g>
    <g transform="translate(24 217)">
      <mask id="f" fill="#fff">
        <use xlink:href="#e"/>
      </mask>
      <use fill="#D0E6F6" xlink:href="#e"/>
      <path fill="#91ADC8" d="M-4 1h173v15H-4z" mask="url(#f)" opacity=".37"/>
      <rect width="25.5" height="6" x="30.25" y="26.75" stroke="#607385" stroke-width=".5" mask="url(#f)" rx="2"/>
      <rect width="25.5" height="6" x="115.75" y="26.75" stroke="#607385" stroke-width=".5" mask="url(#f)" rx="2"/>
      <path stroke="#607385" stroke-width=".5" d="M84.75-3.5v66.87" mask="url(#f)"/>
    </g>
    <path fill="#A1BEDB" d="M25 211h166.5a4 4 0 014 4v3.5a4 4 0 01-4 4H25a4 4 0 01-4-4V215a4 4 0 014-4z"/>
    <g transform="matrix(-1 0 0 1 98.07 2.04)">
      <path fill="#8098AF" d="M20 41h3l-.97 18.5a.53.53 0 01-1.06 0L20 41zM74.5 41h3l-.97 18.5a.53.53 0 01-1.06 0L74.5 41z"/>
      <rect width="97.5" height="6.5" y="39" fill="#A1BEDB" rx="2"/>
      <rect width="6.5" height="29.5" x="58.5" y="9" fill="#8098AF" rx="1.5"/>
      <rect width="6.5" height="28.5" x="65" y="10" fill="#8098AF" rx="1.5"/>
      <rect width="6.5" height="27" x="71.5" y="11.5" fill="#8098AF" rx="1.5"/>
      <rect width="6.5" height="25" x="78" y="13.5" fill="#879FB7" rx="1.5"/>
      <rect width="6.5" height="29.5" x="84.5" y="9" fill="#879FB7" rx="1.5"/>
      <path stroke="#8098AF" stroke-linecap="round" stroke-width="3.28" d="M37.99 0l.51 20.44"/>
      <g transform="translate(26.5 19.36)">
        <mask id="h" fill="#fff">
          <use xlink:href="#g"/>
        </mask>
        <use fill="#B8D0E4" xlink:href="#g"/>
        <path stroke="#000" stroke-width=".54" d="M-3.77 8.16h37.2M-3.77 10.85h37.2M-3.77 13.54h37.2" mask="url(#h)"/>
      </g>
      <path stroke="#8098AF" stroke-linecap="round" stroke-width="3.28" d="M31.71 1.97c-.21 6.12 1.97 9.32 6.55 9.6l.1 4.56c4.4 0 6.61-2.25 6.61-6.74"/>
    </g>
    <g>
      <g transform="matrix(-1 0 0 1 151.2 73.5)">
        <path fill="#4C2603" d="M6.21 23.58c-.7-2.44-1.22-4.32-1.54-5.64-.32-1.33-.3-3.12.06-5.38-2-2.6-2.74-4.73-2.2-6.4 2.18-6.8 8.6-6.68 20.54-1.81 2.12.86 2.96 2.28 2.52 4.24 2.2.22 3.71 1.55 4.56 3.97 1.27 3.63-1.09 11.28-2.45 13.91a26.8 26.8 0 01-3.5 5.14L6.2 23.58z"/>
        <g transform="translate(2.15 9.58)">
          <mask id="j" fill="#fff">
            <use xlink:href="#i"/>
          </mask>
          <use fill="#FFD3C8" transform="rotate(6 13.68 20.17)" xlink:href="#i"/>
          <path fill="#F1B2A2" d="M11.47 26.03c4.14-.54 6.73-2.33 7.76-5.38-1.15 5.53-3.45 8.85-6.88 9.97-3.43 1.13-3.72-.4-.88-4.59z" mask="url(#j)"/>
        </g>
        <path stroke="#061537" stroke-linecap="round" d="M15.08 17.55a3.29 3.29 0 00-3.48 0M7.94 18.1c-.83-.63-1.66-.82-2.5-.56"/>
        <circle cx="12.6" cy="20.54" r="1" fill="#061537" transform="matrix(-1 0 0 1 25.2 0)"/>
        <path stroke="#061537" stroke-width=".5" d="M12.07 20.64s1-.72 1.96.06"/>
        <circle cx="6.63" cy="20.54" r="1" fill="#061537" transform="matrix(-1 0 0 1 13.26 0)"/>
        <path stroke="#061537" stroke-width=".5" d="M5.98 20.63s1.01-.7 1.96.1"/>
        <path stroke="#061537" stroke-linecap="round" stroke-width=".5" d="M9.83 19.54s-.02 2.11-.6 3.27c-1.38 2.71-2.4 6.15 2.87 4.06"/>
        <path fill="#FFF" stroke="#061537" stroke-linecap="round" stroke-width=".5" d="M10.26 31c.92.08 1.86-.58 2.83-1.99-1.28.47-2.22.7-2.83.7-.6 0-1.31-.23-2.14-.7.51 1.24 1.23 1.9 2.14 1.99z"/>
        <ellipse cx="5.63" cy="21.04" stroke="#061537" stroke-linecap="round" stroke-width=".5" rx="2.98" ry="2.99"/>
        <ellipse cx="13.09" cy="21.04" stroke="#061537" stroke-linecap="round" stroke-width=".5" rx="2.98" ry="2.99"/>
        <path stroke="#061537" stroke-linecap="round" stroke-width=".5" d="M16.08 20.04l7.46-.99M8.62 20.22l1.99.14"/>
      </g>
      <g transform="scale(-1 1) rotate(20 -808.4 -531.75)">
        <mask id="l" fill="#fff">
          <use xlink:href="#k"/>
        </mask>
        <use fill="#FFD3C8" xlink:href="#k"/>
        <path fill="#F1B2A2" d="M-3.48.3L14.4 6.47V-.47z" mask="url(#l)"/>
      </g>
      <g transform="scale(-1 1) rotate(20 -818.36 -590.63)">
        <mask id="n" fill="#fff">
          <use xlink:href="#m"/>
        </mask>
        <use fill="#2A3756" xlink:href="#m"/>
        <path fill="#FFF" d="M-5.23 10.61h42.32v11.87H-5.23z" mask="url(#n)"/>
      </g>
      <g transform="matrix(-1 0 0 1 208.21 251.06)">
        <mask id="p" fill="#fff">
          <use xlink:href="#o"/>
        </mask>
        <use fill="#FFD3C8" xlink:href="#o"/>
        <path fill="#F1B2A2" d="M-3.48.3L14.4 6.47V-.47z" mask="url(#p)"/>
      </g>
      <g transform="matrix(-1 0 0 1 227.75 258.02)">
        <mask id="r" fill="#fff">
          <use xlink:href="#q"/>
        </mask>
        <use fill="#2A3756" xlink:href="#q"/>
        <path fill="#FFF" d="M-5.23 10.61h42.32v11.87H-5.23z" mask="url(#r)"/>
      </g>
      <g transform="translate(171.75 180.33)">
        <mask id="t" fill="#fff">
          <use xlink:href="#s"/>
        </mask>
        <use fill="#955454" xlink:href="#s"/>
        <path fill="#824848" d="M35.4.36c-2.73 1.34-4.1 2.95-4.1 4.84 0 1.9 1.02 3.4 3.04 4.53l32.78 64-24.98 2.69-6.73-17.74-12.37-42.05L-2.38 4.41l26.6-5.83L35.41.36z" mask="url(#t)"/>
      </g>
      <g transform="translate(117.57 183.69)">
        <mask id="v" fill="#fff">
          <use xlink:href="#u"/>
        </mask>
        <use fill="#955454" xlink:href="#u"/>
        <path fill="#824848" d="M34.34 1.05c-9.17 11.93-7.3 17.3 5.6 16.1 19.37-1.8 37.77-2.42 38.46 14.18a4252 4252 0 011.45 40.41L67.5 70.38l-5.35-39.05c-31.21 9.33-51.5 8.18-60.85-3.47C-8.07 16.2-10.04 11.1-4.64 12.54L31.05-3.32l3.29 4.37z" mask="url(#v)"/>
      </g>
      <path stroke="#301913" stroke-width=".5" d="M231.75 242.17l-17.65 5.2-3.28-6c.28-13.08.37-22.02.3-26.81-.24-14.4-1.47-22.55-4.91-24.56-5.15-3.02-16.2-4.78-33.15-5.26l-26.21-.68"/>
      <path stroke="#301913" stroke-width=".5" d="M210 249.7h-19.04c-.79-17.95-1.18-28.95-1.18-33 0-4.07-.65-6.41-1.94-7.05 4.31 1.58 7.6 1.1 9.85-1.44M187.84 209.65c3.61.06 6.33-1.6 8.13-5"/>
      <path stroke="#301913" stroke-width=".5" d="M132.6 191.3c4.79 6.3 17.55 8.88 38.28 7.74 31.1-1.7 31.2 2.83 30.2 50.65"/>
      <g>
        <path fill="#4C7FFF" d="M114.09 186.52c-.23 7.42.92 11.6 3.47 12.52l26.56-13.7H113.5l.58 1.18z"/>
        <g transform="translate(101 113.3)">
          <mask id="x" fill="#fff">
            <use xlink:href="#w"/>
          </mask>
          <use fill="#659CFF" xlink:href="#w"/>
          <path fill="#4C7FFF" d="M17.38 7.52c8.6 7.81 12.37 18.16 11.31 31.04-1.58 19.32 28.54 16.66 26.95 3.25l1.07 23.8-14.02-.83v-3.85c-7.03-.2-12.18-.47-15.44-.8a85.98 85.98 0 01-10.7-1.83c2.02-11.56 3.35-20.14 4.01-25.75.66-5.6.54-11.9-.36-18.9a17.03 17.03 0 00-1.01-3.31 15.4 15.4 0 00-1.8-2.82z" mask="url(#x)"/>
          <path fill="#4C7FFF" d="M9.16 5.14c-2.62 5.2-4.16 9.4-4.62 12.6C.25 47.55 2.39 66.18 6.48 67.85c4.74 1.94 16.89 2.62 36.43 2.04l.2 5.64-45.01 1.22-5.5-44.24L6.48 6.35l2.68-1.21z" mask="url(#x)"/>
          <path fill="#FFF" d="M38.51 60.77h4.28v11.87h-4.28z" mask="url(#x)"/>
          <path fill="#4C7FFF" d="M51.59 8.54l7.94 2.86L74 51.6l18.53-1.81-5.39 18.57-32.18-2.75 1.56-8.72-.7-12.04c-.43-9-.9-15.55-1.37-19.68-.48-4.13-1.44-9.67-2.86-16.63z" mask="url(#x)"/>
        </g>
        <path stroke="#301913" stroke-width=".5" d="M152.59 121.83c2.86 12.28 4.5 31.46 4.93 57.54M163.37 164.9c2.88-1.48 5.27-1.34 7.17.4-4.46.54-6.47 2.85-6.04 6.92M112.93 185.85c5.9.74 16.16.74 30.76 0v-11.63c-15.31-.46-24.02-1.34-26.13-2.63 5.84-29.73 6.01-46.6.5-50.61"/>
        <path stroke="#301913" stroke-width=".5" d="M112.93 177.4c-1.42-3.05.13-4.99 4.63-5.8-.2-.72-1.88-1.25-5.03-1.6"/>
        <path fill="#FFF" d="M125.35 111.2a8.72 8.72 0 004.93 2.37 5.5 5.5 0 014.13 2.44c-.95.06-1.42 1.05-1.42 2.95 0 1.9-.74 3.09-2.21 3.55a43.3 43.3 0 00-3.39-5.1 38.02 38.02 0 00-4.27-4.11c.8-.23 1.32-.6 1.57-1.1.25-.52.47-.85.66-1zM137.08 112.07c.03 2.16-.86 3.48-2.67 3.94 1.5.4 2.57.86 3.22 1.36.78.6 1.84 1.8 3.19 3.6.2-1.99-.1-4-.88-6.01-.78-2.02-1.73-2.98-2.86-2.9z"/>
        <path fill="#FFF" d="M133.3 116.81c.7-.32 1.24 0 1.61.94.1-1.05.54-1.46 1.31-1.23l-.23-.8c-.91.2-1.59.3-2.02.28-.33-.02-.64-.02-.96-.11-.95-.26-.85.04.3.92z"/>
      </g>
      <g transform="translate(147.35 146.72)">
        <g transform="translate(0 30.86)">
          <mask id="z" fill="#fff">
            <use xlink:href="#y"/>
          </mask>
          <use fill="#D2D2D2" xlink:href="#y"/>
          <path fill="#989797" d="M.05 4.64h24.72V7.5H.05z" mask="url(#z)"/>
        </g>
        <path fill="#CFCCCC" d="M63.14 33.97c0 1.41-1.11 2.57-2.52 2.63l-36.15 1.6v-3.58l38.67-.65z"/>
        <path fill="#D5D5D5" d="M35 0l39.4.82.96.95L63 34.07 23.53 35.4z"/>
        <path fill="#E3E3E3" d="M35.96.95l39.4.82-11.41 32.3-39.47 1.33z"/>
        <ellipse cx="52.11" cy="17.7" fill="#FFF" rx="2.62" ry="2.61"/>
      </g>
      <g>
        <path fill="#FFD3C8" d="M143.7 183.34c6.62 1.45 11 .72 13.13-2.18 2.23-.75 3.45-1.28 3.65-1.57.3-.44 4.04 3.3 5.21 2.98 1.17-.32 1.4-1.92-1.1-3.51 2.5 1.72 3.97 2.54 4.44 2.47.7-.11 1.56-.46 1.13-.98.89.15 1.28.05 1.16-.32-.18-.54-9.02-6.67-10.52-6.67-.92-.93-2.07-1.2-3.43-.77-1.37.41-5.9 2.02-13.62 4.82l-.06 5.73z"/>
        <path stroke="#301913" stroke-width=".5" d="M165.5 179.73c-2.84-2.14-4.53-3.22-5.07-3.22s-1.94.46-4.21 1.38"/>
        <path stroke="#301913" stroke-width=".5" d="M170.33 180.36c-5.62-4.23-9.08-6.26-10.38-6.1-1.3.18-2.8.56-4.5 1.16M160.8 173.56c-1.17-.55-2.88-.42-5.12.38"/>
      </g>
    </g>
    <g>
      <g transform="scale(-1 1) rotate(8 -633.47 -2115.58)">
        <path fill="#061537" d="M12.82 35.9C6.3 37.3 2.22 35.36.56 30.12c-1.65-5.24.33-9.64 5.94-13.2C3.76 11.37 4.74 7.5 9.44 5.26 11.88.47 16.23-1.05 22.47.7c9.36 2.64 6.44 11.53 10.88 12.99 4.44 1.45 9.98 1.99 9.12 8.7 5.05 3.12 6.93 8.26 5.66 15.41-1.92 10.72-19.8 8.3-19-.88-3.73 1.62-6.15 1.27-7.26-1.04-1.1-2.32-4.12-2.31-9.05.01z"/>
        <g transform="translate(7.97 9.26)">
          <mask id="B" fill="#fff">
            <use xlink:href="#A"/>
          </mask>
          <use fill="#FFD3C8" xlink:href="#A"/>
          <path fill="#F1B2A2" d="M6.12 19.83c2.73.36 4.84-1.28 6.31-4.94.08 6.54-1.8 10.15-5.65 10.83-3.84.68-4.06-1.28-.66-5.89z" mask="url(#B)"/>
        </g>
        <path stroke="#9D3F28" stroke-linecap="round" stroke-width=".5" d="M12.24 16.04a10.2 10.2 0 01-.57 3.64c-.58 1.57-1.12 2.6 1.43 2.39"/>
        <circle cx="10.05" cy="16.42" r="1" fill="#061537"/>
        <ellipse cx="9.47" cy="16.49" stroke="#324A83" stroke-linecap="round" stroke-width=".5" rx="2.18" ry="2.19"/>
        <ellipse cx="14.94" cy="17.23" stroke="#324A83" stroke-linecap="round" stroke-width=".5" rx="2.18" ry="2.19"/>
        <circle cx="15.01" cy="17.16" r="1" fill="#061537"/>
        <path stroke="#061537" stroke-linecap="round" stroke-width=".69" d="M13.61 14.63c1.76-.46 3.04-.1 3.85 1.12M9.14 13.84c.57-.28 1.14-.2 1.72.27"/>
        <path fill="#FFF" stroke="#9D3F28" stroke-linecap="round" stroke-width=".5" d="M10.43 23.42c1.4 1.4 2.98 1.54 4.78.42-.95 1.37-1.85 1.98-2.7 1.86-.85-.12-1.55-.88-2.08-2.28z"/>
        <path stroke="#324A83" stroke-linecap="round" stroke-width=".5" d="M17.12 16.8l5.38-.54"/>
        <path stroke="#324A83" stroke-width=".5" d="M11.63 16.26l1.19.27"/>
      </g>
      <g transform="scale(-1 1) rotate(-45 190.99 482.27)">
        <mask id="D" fill="#fff">
          <use xlink:href="#C"/>
        </mask>
        <use fill="#FFD3C8" xlink:href="#C"/>
        <path fill="#F1B2A2" d="M6.79 6.94l14.46 5.5v-8.7z" mask="url(#D)"/>
      </g>
      <path fill="#230D99" d="M256.05 275.93a30.93 30.93 0 002.1 5.1c2.14 3.66 4.27 5.58 5.71 6.4 3.04 1.7 3.3-.1 4.32 2.13 3.17 6.93 4.66 9.35 1.97 11.14l-18.45-19.07a1.35 1.35 0 01.08-1.95l4.27-3.75z"/>
      <g transform="matrix(-1 0 0 1 302.24 273.5)">
        <mask id="F" fill="#fff">
          <use xlink:href="#E"/>
        </mask>
        <use fill="#FFD3C8" xlink:href="#E"/>
        <path fill="#F1B2A2" d="M6.77 6.92l14.42 5.47V3.73z" mask="url(#F)"/>
      </g>
      <path fill="#230D99" d="M281.5 293.69a30.86 30.86 0 005.08 2.11c4.1 1.07 6.95.93 8.54.48 3.34-.93 2.26-2.38 4.55-1.53 7.12 2.65 9.88 3.3 9.24 6.45l-26.45-.43a1.35 1.35 0 01-1.33-1.44l.37-5.64z"/>
      <path fill="#DC5F58" d="M313.77 171.5c10.1 32.12 13.07 52.03 8.91 59.73-4.16 7.7-20.63 22.96-49.42 45.77l-8.76-12.1 40.8-42.25L294.5 198l2.18-24.88 17.1-1.62z"/>
      <path fill="#FF6F66" d="M305.5 169.57a95.59 95.59 0 01-1.63 9.77 98.33 98.33 0 01-2.98 9.54L295 280.5h-14.04c-.05-26.53-.36-43.57-.95-51.14-1.08-13.98-3.97-21.62-4.82-23-2.31-3.77-8.48-15.15-4.24-28.7 2.83-9.04 14.34-11.73 34.55-8.09z"/>
      <g>
        <g transform="translate(261.5 105)">
          <mask id="H" fill="#fff">
            <use xlink:href="#G"/>
          </mask>
          <use fill="#56D4B7" xlink:href="#G"/>
          <path fill="#4BC5A9" d="M11.21 12.8c3.62 4.36 5.42 10.4 5.42 18.1 0 11.54 14.96 12.48 17.55 5.14 2.93 3.77 7.28 4.34 13.04 1.7 5.76-2.63 9.34 9.98 10.74 37.84L7.5 71.63l2.14-13.7c10.55.32 18.47.32 23.78 0a65.5 65.5 0 0014.1-2.21l-.58-9.8-32.6-.67c.53-8.48.53-15.45 0-20.9-.52-5.44-1.56-9.3-3.13-11.56z" mask="url(#H)"/>
          <path stroke="#301913" stroke-width=".5" d="M44 9.59c1.12 9.09 1.85 15.8 2.2 20.13a20.36 20.36 0 004.46 11.43" mask="url(#H)"/>
        </g>
        <path fill="#FFF" d="M290.84 103l.4 1.47c1.14 4.03.62 6.15-1.65 6.75-2.55.67-5.27-1.76-8.16-7.28-2.13 8.1-1.88 12.42.76 12.95 2.64.53 5.1-.92 7.4-4.34 5.98 1.4 9.11 1.18 9.4-.64.27-1.82-2.45-4.79-8.15-8.91z"/>
        <path fill="#4BC5A9" d="M306.81 112.36l7.05-.45c9.35 25.67 10.24 39.5 2.7 41.5-7.56 1.98-10.8-11.7-9.75-41.05z"/>
        <path stroke="#301913" stroke-width=".5" d="M306.5 121c0 16.82 1.67 26.45 5.02 28.9 2.04 1.48 5.65 2.66 7.66 1.82.87-.37 1.64-1.7 2.32-3.98M271.5 163.26c19.58.68 32.08-.07 37.5-2.23l-.58-9.8-32.26-.69c1.2-16.87.17-27.71-3.1-32.54"/>
      </g>
      <g>
        <g transform="scale(-1 1) rotate(-81 -93.12 241.62)">
          <mask id="J" fill="#fff">
            <use xlink:href="#I"/>
          </mask>
          <use fill="#FFD3C8" xlink:href="#I"/>
          <path fill="#F1B2A2" d="M.92 9.75l1.79-6.7-3.21.74z" mask="url(#J)"/>
        </g>
        <path stroke="#99776C" stroke-width=".5" d="M311.49 92.4c-.17.24-.12.98.14 2.22.26 1.23.76 3.15 1.52 5.75-1.22-1.25-2.41-1.54-3.57-.86-.61.55-.7 1.06-.26 1.54-1.34-.13-1.89.24-1.64 1.1-2.28.36-3.2 1.45-2.8 3.28.62 2.73 1.44.37 1.5-.39-.08 2.2.15 3.52.7 3.92M309.32 101.05l1.12.62M307.68 102.15l1.02.55"/>
      </g>
      <g transform="translate(308.5 144.5)">
        <mask id="L" fill="#fff">
          <use xlink:href="#K"/>
        </mask>
        <use fill="#FFD3C8" xlink:href="#K"/>
        <path stroke="#99776C" stroke-width=".5" d="M20.95 4.69a13.48 13.48 0 01-5.78 3.52M21.59 5.6a19.91 19.91 0 01-5.45 4.33" mask="url(#L)"/>
        <path fill="#F1B2A2" d="M0 6.74l2.98 5.92-4.75 2.95z" mask="url(#L)"/>
      </g>
    </g>
  </g>
</svg>
