<?xml version="1.0" encoding="UTF-8"?>
<svg width="286px" height="271px" viewBox="0 0 286 271" version="1.1" xmlns="http://www.w3.org/2000/svg" xmlns:xlink="http://www.w3.org/1999/xlink">
    <!-- Generator: Sketch 52.5 (67469) - http://www.bohemiancoding.com/sketch -->
    <title>Group 9</title>
    <desc>Created with Sketch.</desc>
    <g id="Page-1" stroke="none" stroke-width="1" fill="none" fill-rule="evenodd">
        <g id="Group-9">
            <path d="M46.6836336,25.4958569 C106.732337,-15.7969433 154.842001,-1.7063925 196.495718,30.7351965 C238.148366,63.1774196 270.76962,63.5051712 283.750349,121.560335 C296.732789,179.61592 241.216642,221.213214 214.562126,229.32175 C187.90761,237.430286 154.906019,237.071061 119.301863,243.213542 C66.3404694,252.349477 42.6090498,237.137488 28.841738,216.45399 C9.36491681,187.194681 23.3625937,174.343295 8.49738734,138.423457 C-9.31430562,95.3842757 -0.290665181,57.7978494 46.6836336,25.4958569 Z" id="Fill-16" fill="#FFFFFF"></path>
            <path d="M70.432,118.632 L57.936,122.152 C57.496,119.248 55.12,114.32 47.552,114.32 C42.36,114.32 39.016,117.576 39.016,121.008 C39.016,124 40.864,126.2 45.176,126.992 L53.536,128.576 C65.416,130.776 71.576,138.432 71.576,147.32 C71.576,157.088 63.392,167.032 48.52,167.032 C31.272,167.032 23.88,155.856 23,147.056 L35.76,143.976 C36.288,149.696 40.16,154.712 48.696,154.712 C54.152,154.712 57.496,152.072 57.496,148.2 C57.496,145.032 54.944,142.744 50.808,141.952 L42.272,140.368 C31.712,138.344 25.288,131.304 25.288,122.064 C25.288,110.272 35.672,102 47.64,102 C63.216,102 69.112,111.328 70.432,118.632 Z M131.208,165.712 L126.72,153.04 L102.608,153.04 L98.12,165.712 L83.512,165.712 L107.008,103.32 L123.112,103.32 L146.344,165.712 L131.208,165.712 Z M114.84,118.808 L107.184,140.368 L122.32,140.368 L114.84,118.808 Z M204.832,165.712 L164,165.712 L164,103.32 L177.904,103.32 L177.904,152.424 L204.832,152.424 L204.832,165.712 Z M263.408,165.712 L223.808,165.712 L223.808,103.32 L263.32,103.32 L263.32,116.432 L237.712,116.432 L237.712,128.312 L260.944,128.312 L260.944,140.544 L237.712,140.544 L237.712,152.512 L263.408,152.512 L263.408,165.712 Z" id="SALE" fill="#000000"></path>
            <path d="M127.258138,20.3876694 C191.516301,16.0736652 221.324718,48.2762914 237.832964,91.4586387 C254.340111,134.640986 278.791118,149.501901 261.90726,199.201356 C245.024501,248.901896 184.044703,255.476495 160.217519,249.665552 C136.390336,243.854609 111.666956,228.799526 81.9936277,217.493298 C37.8548546,200.674431 26.9467381,178.544684 26.0670159,156.742529 C24.8215664,125.900165 41.2825864,122.456121 46.5751975,88.6448276 C52.9166659,48.1320212 76.9909625,23.7622903 127.258138,20.3876694" id="Fill-16" stroke="#000000"></path>
            <g id="Group-8" transform="translate(76.000000, 31.000000)">
                <g id="Head" transform="translate(76.500000, 24.421000) scale(-1, 1) translate(-76.500000, -24.421000) translate(58.000000, 0.921000)">
                    <path d="M33.804962,11.0349502 C35.7728009,18.5736503 38.3582159,35.6959431 35.7363878,38.3748145 L19.2004289,38.3748145 C19.1975043,38.3216757 19.1946786,38.2687708 19.1919514,38.2160985 C13.025583,37.2821202 8.29965753,31.9588571 8.29965753,25.5317951 L8.29965753,13.0283871 C8.29965753,5.94278183 14.0436755,0.198763826 21.1292808,0.198763826 C27.5368358,0.198763826 32.8472819,4.89604504 33.804962,11.0349502 Z" id="Hair-Back" fill="#191847"></path>
                    <g transform="translate(10.010274, 2.583930)" fill="#FFFFFF" stroke="#000000">
                        <path d="M4.71119384,20.5661686 C2.08373858,17.3409766 0.305421895,13.3884593 0.602579656,8.95955009 C1.45877391,-3.80137043 18.4453094,-0.994130506 21.7495423,5.44648635 C25.0537751,11.8871032 24.6611463,28.224262 20.3907198,29.3753799 C18.6876796,29.8344441 15.0596976,28.7099206 11.3672583,26.3825026 L13.6849315,43.5292778 L0,43.5292778 L4.71119384,20.5661686 Z"></path>
                    </g>
                    <path d="M18.4207846,20.9943301 C19.051305,28.0770839 18.7986996,36.1654348 16.919607,38.0854111 L0.383648097,38.0854111 C-0.537686387,21.3453375 8.36652481,27.8278434 8.36652481,12.0666294 C8.92166784,11.4994081 9.44623305,10.9379885 9.96529495,10.45382 L9.94691104,9.99028754 C12.810297,3.86013272 16.4429889,0.795055303 20.8449868,0.795055303 C27.4479838,0.795055303 29.5321625,4.00806594 31.3066965,6.73595841 C29.9797381,11.4973993 24.8301597,12.2034152 20.2544377,15.1713517 C19.7150879,14.7130972 19.0273411,14.4384506 18.2782534,14.4384506 C16.5462166,14.4384506 15.1421233,15.9067789 15.1421233,17.7180537 C15.1421233,19.5293285 16.5462166,20.9976568 18.2782534,20.9976568 C18.3260208,20.9976568 18.3735387,20.9965401 18.4207846,20.9943301 Z" id="Hair-Front" fill="#191847"></path>
                </g>
                <g id="Bottom" transform="translate(75.000000, 168.421000) scale(-1, 1) translate(-75.000000, -168.421000) translate(31.000000, 96.921000)" fill="#FFFFFF" stroke="#000000">
                    <polygon id="Leg" points="24.6863276 1.13686838e-13 46.0761843 73.392962 56.4379644 135.808949 64.5623155 135.808949 53.613418 1.13686838e-13"></polygon>
                    <path d="M17.0341971,0 C18.4870479,40.2966809 16.7772388,61.0824386 16.4520734,64.7435672 C16.1269079,68.4046959 11.6743292,92.1436502 1.13338958,137.037989 L9.79049266,133.91745 C26.4494649,92.7426973 32.1262487,71.3434512 34.0369067,65.9367143 C35.9475647,60.5299774 41.0221775,38.5510726 49.260745,0 L17.0341971,0 Z" id="Leg"></path>
                    <g id="Left-Shoe" transform="translate(0.182162, 129.848994)">
                        <path d="M0.697059703,4.96269026 C0.273958141,6.281087 0.0624073601,7.30103314 0.0624073601,8.02252868 C0.0624073601,9.09832147 0.233166694,10.6681707 0.574685362,12.7320764 C1.7637704,12.7320764 12.4502778,12.7320764 32.6342076,12.7320764 C33.467321,9.84138374 32.9863996,8.28079181 31.1914436,8.05030057 C29.3964876,7.81980933 27.9053872,7.6116942 26.7181423,7.42595517 L12.2481429,0.655569402 C11.7479068,0.421513305 11.1526453,0.637294858 10.9185892,1.13753099 C10.9096376,1.15666284 10.9012944,1.17607351 10.8935721,1.19573379 L10.102407,3.20998459 C8.4407472,4.02368528 7.09047611,4.43053562 6.05159371,4.43053562 C5.37074868,4.43053562 4.48065911,4.19774862 3.38132503,3.73217461 L3.38131586,3.73219627 C2.36421197,3.3014472 1.19049524,3.77678169 0.759746169,4.79388558 C0.736326931,4.84918413 0.715410248,4.90550943 0.697059703,4.96269026 Z" id="shoe"></path>
                    </g>
                    <g id="Right-Shoe" transform="translate(53.612982, 129.848994)">
                        <path d="M0.697059703,4.96269026 C0.273958141,6.281087 0.0624073601,7.30103314 0.0624073601,8.02252868 C0.0624073601,9.09832147 0.233166694,10.6681707 0.574685362,12.7320764 C1.7637704,12.7320764 12.4502778,12.7320764 32.6342076,12.7320764 C33.467321,9.84138374 32.9863996,8.28079181 31.1914436,8.05030057 C29.3964876,7.81980933 27.9053872,7.6116942 26.7181423,7.42595517 L12.2481429,0.655569402 C11.7479068,0.421513305 11.1526453,0.637294858 10.9185892,1.13753099 C10.9096376,1.15666284 10.9012944,1.17607351 10.8935721,1.19573379 L10.102407,3.20998459 C8.4407472,4.02368528 7.09047611,4.43053562 6.05159371,4.43053562 C5.37074868,4.43053562 4.48065911,4.19774862 3.38132503,3.73217461 L3.38131586,3.73219627 C2.36421197,3.3014472 1.19049524,3.77678169 0.759746169,4.79388558 C0.736326931,4.84918413 0.715410248,4.90550943 0.697059703,4.96269026 Z" id="shoe"></path>
                    </g>
                    <polygon points="21.8442627 0 30.9388704 37.3929416 58.7173936 37.3929416 54.5755026 0"></polygon>
                    <path d="M16.7285459,0 C13.7361011,9.41425584 13.1676882,21.8785697 15.0233069,37.3929416 L43.370243,37.3929416 L51.1650247,0 L16.7285459,0 Z"></path>
                </g>
                <g id="Body" transform="translate(56.331303, 72.987149) scale(-1, 1) rotate(8.000000) translate(-56.331303, -72.987149) translate(6.331303, 24.987149)">
                    <path d="M64.3014069,14.0884389 L85.9958596,7.32804528 C90.0429776,4.05762437 93.8603384,1.66644612 97.4479422,0.154510536 C98.491343,-0.0493582143 100.218742,0.0690438257 98.0601408,2.61092324 C95.9015399,5.15280266 93.7411418,7.92725383 94.3574586,8.99307482 C94.9737754,10.0588958 97.2193365,9.25543763 97.8692447,10.9437625 C98.3025168,12.0693125 94.5821517,12.8754549 86.7081494,13.3621898 L69.8402833,23.6670367 L64.3014069,14.0884389 Z M62.384365,53.7933305 L80.6415308,67.7102689 C85.5932501,69.0972799 89.7302516,70.8229558 93.0525352,72.8872967 C93.8373162,73.6296205 94.7857979,75.1329493 91.5311209,74.8731364 C88.276444,74.6133236 84.841756,74.4919859 84.3926739,75.6443607 C83.9435917,76.7967355 85.9131458,78.1748495 85.0053552,79.7297049 C84.4001615,80.7662752 81.540983,78.1671137 76.42782,71.9322203 L58.3484364,64.149793 L62.384365,53.7933305 Z" id="Skin" stroke="#000000" fill="#FFFFFF"></path>
                    <path d="M27.1245734,21.8118872 C41.7087454,37.8269085 59.4137852,48.3551356 83.5152555,57.7733096 L78.2830353,68.7381977 C53.480819,66.0897702 40.2152524,64.0366772 29.6835299,48.0356318 C27.0402811,44.0196939 22.2533773,30.2424953 19.395737,23.0844463 L27.1245734,21.8118872 Z" id="Coat-Back" fill="#2026A2" transform="translate(51.455496, 45.275042) rotate(15.000000) translate(-51.455496, -45.275042) "></path>
                    <path d="M6.23232058,80.4298199 L50.3037304,80.4298199 C40.3208182,48.824675 35.2211676,27.1328683 35.0047787,15.3543998 C34.9937469,14.7539221 33.9254085,13.6957956 33.4527523,13.8343667 C29.9962677,14.8477221 26.2975565,14.4688193 22.3566186,12.6976584 C11.9086523,30.1407141 8.29556444,51.6166475 6.23232058,80.4298199 Z" id="Shirt" stroke="#000000" fill="#FFFFFF"></path>
                    <path d="M26.1173991,12.7258179 C38.7502887,12.8332001 59.2462202,15.2279039 82.8837636,7.35038244 L85.2174446,19.4551181 C67.3524119,31.3823645 49.2625693,40.6217663 33.4113597,39.3097161 C40.2946235,69.9593183 39.9772718,95.0492522 24.7809309,95.0492522 C17.523922,95.0492522 9.6909738,95.0492522 1.28208638,95.0492522 C-2.45007257,69.0127602 7.35877147,32.9125092 16.4522831,14.7038341 C16.7995369,14.0084996 17.5388752,12.6976584 19.28032,12.6976584 C20.7976691,12.6976584 23.0736927,12.6976584 26.1083909,12.6976584 C26.1113941,12.7070449 26.1143968,12.7164314 26.1173991,12.7258179 Z" id="Coat-Front" fill="#1F28CF"></path>
                </g>
            </g>
        </g>
    </g>
</svg>